data/Mar 6 measurement/NewFile2.csv

X,CH1,CH2,Start,Increment,
Sequence,Volt,Volt,7.900000e+00,2.000000e-02
0,9.04e+00,8.00e+00,
1,9.44e+00,7.40e+00,
2,9.12e+00,8.00e+00,
3,9.52e+00,7.40e+00,
4,9.12e+00,8.00e+00,
5,9.52e+00,7.40e+00,
6,9.12e+00,8.00e+00,
7,9.52e+00,7.40e+00,
8,9.52e+00,7.40e+00,
9,9.12e+00,8.00e+00,
10,9.20e+00,8.00e+00,
11,9.60e+00,7.40e+00,
12,9.20e+00,7.40e+00,
13,9.60e+00,8.00e+00,
14,9.60e+00,7.40e+00,
15,9.20e+00,8.00e+00,
16,9.60e+00,7.40e+00,
17,9.20e+00,8.00e+00,
18,9.20e+00,8.00e+00,
19,9.60e+00,7.40e+00,
20,9.28e+00,8.00e+00,
21,9.68e+00,7.40e+00,
22,9.68e+00,8.00e+00,
23,9.20e+00,7.40e+00,
24,9.36e+00,7.40e+00,
25,9.68e+00,8.00e+00,
26,9.68e+00,8.00e+00,
27,9.36e+00,7.40e+00,
28,9.36e+00,8.00e+00,
29,9.68e+00,7.40e+00,
30,9.36e+00,7.40e+00,
31,9.76e+00,8.00e+00,
32,9.76e+00,7.40e+00,
33,9.44e+00,8.00e+00,
34,9.76e+00,8.00e+00,
35,9.44e+00,7.40e+00,
36,9.44e+00,8.00e+00,
37,9.76e+00,7.40e+00,
38,9.44e+00,7.40e+00,
39,9.84e+00,8.00e+00,
40,9.44e+00,8.00e+00,
41,9.84e+00,7.40e+00,
42,9.84e+00,7.40e+00,
43,9.44e+00,8.00e+00,
44,9.84e+00,8.00e+00,
45,9.52e+00,7.40e+00,
46,9.52e+00,7.40e+00,
47,9.84e+00,8.00e+00,
48,9.84e+00,7.40e+00,
49,9.52e+00,8.00e+00,
50,9.60e+00,7.40e+00,
51,9.92e+00,8.00e+00,
52,9.92e+00,8.00e+00,
53,9.60e+00,7.40e+00,
54,9.92e+00,8.00e+00,
55,9.52e+00,7.40e+00,
56,9.60e+00,8.00e+00,
57,9.92e+00,7.40e+00,
58,9.60e+00,7.40e+00,
59,9.92e+00,8.00e+00,
60,1.00e+01,8.00e+00,
61,9.68e+00,7.40e+00,
62,1.00e+01,7.40e+00,
63,9.68e+00,8.00e+00,
64,1.00e+01,8.00e+00,
65,-1.60e-01,-1.80e+01,
66,8.00e-02,-2.28e+01,
67,-8.00e-02,5.20e+00,
68,-8.00e-02,5.20e+00,
69,1.60e-01,8.00e+00,
70,-8.00e-02,8.40e+00,
71,1.60e-01,7.60e+00,
72,1.60e-01,7.60e+00,
73,-8.00e-02,8.40e+00,
74,0.00e+00,8.00e+00,
75,1.60e-01,8.40e+00,
76,2.40e-01,8.00e+00,
77,-8.00e-02,8.40e+00,
78,2.40e-01,7.80e+00,
79,-8.00e-02,8.60e+00,
80,2.40e-01,8.00e+00,
81,0.00e+00,8.40e+00,
82,2.40e-01,7.80e+00,
83,0.00e+00,8.40e+00,
84,0.00e+00,8.00e+00,
85,3.20e-01,8.40e+00,
86,8.00e-02,8.40e+00,
87,3.20e-01,7.60e+00,
88,8.00e-02,8.40e+00,
89,3.20e-01,7.80e+00,
90,3.20e-01,8.60e+00,
91,8.00e-02,7.80e+00,
92,3.20e-01,7.80e+00,
93,8.00e-02,8.60e+00,
94,3.20e-01,8.60e+00,
95,8.00e-02,8.00e+00,
96,4.00e-01,8.40e+00,
97,8.00e-02,8.00e+00,
98,4.00e-01,8.00e+00,
99,1.60e-01,8.40e+00,
100,4.00e-01,8.00e+00,
101,1.60e-01,8.40e+00,
102,4.00e-01,7.80e+00,
103,1.60e-01,8.60e+00,
104,1.60e-01,8.40e+00,
105,4.80e-01,7.80e+00,
106,2.40e-01,8.00e+00,
107,5.60e-01,8.60e+00,
108,2.40e-01,8.00e+00,
109,4.80e-01,8.40e+00,
110,2.40e-01,8.40e+00,
111,5.60e-01,7.80e+00,
112,5.60e-01,8.40e+00,
113,2.40e-01,7.60e+00,
114,3.20e-01,8.20e+00,
115,5.60e-01,7.60e+00,
116,6.40e-01,7.60e+00,
117,3.20e-01,8.40e+00,
118,6.40e-01,7.60e+00,
119,3.20e-01,8.40e+00,
120,4.00e-01,8.40e+00,
121,7.20e-01,7.60e+00,
122,6.40e-01,7.60e+00,
123,3.20e-01,8.40e+00,
124,4.80e-01,8.20e+00,
125,6.40e-01,7.60e+00,
126,4.80e-01,8.00e+00,
127,7.20e-01,7.40e+00,
128,4.80e-01,8.00e+00,
129,7.20e-01,7.40e+00,
130,7.20e-01,8.00e+00,
131,4.80e-01,7.20e+00,
132,7.20e-01,7.80e+00,
133,5.60e-01,7.00e+00,
134,5.60e-01,7.60e+00,
135,8.00e-01,6.80e+00,
136,5.60e-01,7.20e+00,
137,8.00e-01,6.20e+00,
138,5.60e-01,6.60e+00,
139,8.00e-01,5.00e+00,
140,5.60e-01,5.60e+00,
141,8.00e-01,2.60e+00,
142,5.60e-01,3.00e+00,
143,8.80e-01,-1.20e+00,
144,8.00e-01,-1.20e+00,
145,6.40e-01,-3.40e+00,
146,6.40e-01,-3.40e+00,
147,8.80e-01,1.00e+00,
148,6.40e-01,8.00e-01,
149,8.80e-01,4.40e+00,
150,8.80e-01,4.00e+00,
151,6.40e-01,6.00e+00,
152,6.40e-01,5.60e+00,
153,8.80e-01,7.00e+00,
154,7.20e-01,6.40e+00,
155,9.60e-01,7.40e+00,
156,7.20e-01,6.80e+00,
157,9.60e-01,7.60e+00,
158,7.20e-01,7.20e+00,
159,9.60e-01,7.80e+00,
160,9.60e-01,7.40e+00,
161,7.20e-01,8.00e+00,
162,7.20e-01,8.00e+00,
163,1.04e+00,7.40e+00,
164,1.04e+00,8.20e+00,
165,7.20e-01,7.40e+00,
166,8.00e-01,7.60e+00,
167,1.04e+00,8.40e+00,
168,1.04e+00,8.40e+00,
169,8.00e-01,7.60e+00,
170,1.04e+00,8.40e+00,
171,8.00e-01,7.60e+00,
172,8.00e-01,7.60e+00,
173,1.12e+00,8.40e+00,
174,8.80e-01,7.60e+00,
175,1.12e+00,8.40e+00,
176,8.80e-01,7.60e+00,
177,1.20e+00,8.40e+00,
178,1.12e+00,8.40e+00,
179,8.80e-01,7.60e+00,
180,1.12e+00,8.40e+00,
181,8.80e-01,7.60e+00,
182,8.80e-01,8.40e+00,
183,1.20e+00,7.60e+00,
184,9.60e-01,8.40e+00,
185,1.20e+00,7.80e+00,
186,9.60e-01,8.00e+00,
187,1.28e+00,8.40e+00,
188,9.60e-01,7.80e+00,
189,1.28e+00,8.40e+00,
190,1.28e+00,8.40e+00,
191,9.60e-01,7.60e+00,
192,1.12e+00,8.40e+00,
193,1.28e+00,7.80e+00,
194,1.12e+00,8.40e+00,
195,1.36e+00,7.80e+00,
196,1.12e+00,7.80e+00,
197,1.36e+00,8.40e+00,
198,1.12e+00,7.80e+00,
199,1.36e+00,8.40e+00,
200,1.36e+00,8.00e+00,
201,1.12e+00,8.40e+00,
202,1.36e+00,7.80e+00,
203,1.20e+00,8.40e+00,
204,1.20e+00,8.40e+00,
205,1.44e+00,7.60e+00,
206,1.20e+00,7.80e+00,
207,1.44e+00,8.60e+00,
208,1.44e+00,8.00e+00,
209,1.20e+00,8.40e+00,
210,1.44e+00,8.40e+00,
211,1.20e+00,7.60e+00,
212,1.44e+00,7.80e+00,
213,1.20e+00,8.40e+00,
214,1.28e+00,8.40e+00,
215,1.52e+00,7.60e+00,
216,1.28e+00,7.60e+00,
217,1.52e+00,8.40e+00,
218,1.28e+00,7.60e+00,
219,1.52e+00,8.40e+00,
220,1.36e+00,7.60e+00,
221,1.60e+00,8.40e+00,
222,1.52e+00,8.40e+00,
223,1.36e+00,7.80e+00,
224,1.60e+00,7.60e+00,
225,1.36e+00,8.40e+00,
226,1.36e+00,7.60e+00,
227,1.60e+00,8.40e+00,
228,1.60e+00,7.60e+00,
229,1.36e+00,8.40e+00,
230,1.60e+00,7.60e+00,
231,1.36e+00,8.40e+00,
232,1.68e+00,7.60e+00,
233,1.36e+00,8.40e+00,
234,1.44e+00,8.40e+00,
235,1.68e+00,7.60e+00,
236,1.68e+00,8.40e+00,
237,1.44e+00,7.60e+00,
238,1.68e+00,7.60e+00,
239,1.44e+00,8.40e+00,
240,1.68e+00,8.40e+00,
241,1.52e+00,7.60e+00,
242,1.76e+00,7.60e+00,
243,1.44e+00,8.40e+00,
244,1.76e+00,7.60e+00,
245,1.52e+00,8.40e+00,
246,1.76e+00,7.60e+00,
247,1.52e+00,8.40e+00,
248,1.76e+00,8.20e+00,
249,1.52e+00,7.60e+00,
250,1.76e+00,7.60e+00,
251,1.52e+00,8.40e+00,
252,1.60e+00,7.60e+00,
253,1.92e+00,8.40e+00,
254,1.60e+00,7.60e+00,
255,1.92e+00,8.40e+00,
256,1.52e+00,7.60e+00,
257,1.92e+00,8.40e+00,
258,2.00e+00,7.60e+00,
259,1.68e+00,8.40e+00,
260,1.92e+00,7.60e+00,
261,1.60e+00,8.40e+00,
262,1.68e+00,7.60e+00,
263,2.00e+00,8.40e+00,
264,2.00e+00,8.40e+00,
265,1.68e+00,7.60e+00,
266,1.68e+00,7.60e+00,
267,2.00e+00,8.40e+00,
268,1.76e+00,7.60e+00,
269,2.08e+00,8.40e+00,
270,1.84e+00,7.60e+00,
271,2.00e+00,8.40e+00,
272,2.08e+00,8.20e+00,
273,1.84e+00,7.60e+00,
274,1.84e+00,8.00e+00,
275,2.08e+00,7.60e+00,
276,1.84e+00,7.40e+00,
277,2.08e+00,8.20e+00,
278,2.08e+00,7.40e+00,
279,1.84e+00,8.00e+00,
280,1.92e+00,8.00e+00,
281,2.16e+00,7.40e+00,
282,2.16e+00,8.00e+00,
283,1.84e+00,7.40e+00,
284,2.16e+00,7.40e+00,
285,1.92e+00,8.00e+00,
286,2.16e+00,8.00e+00,
287,1.92e+00,7.40e+00,
288,2.16e+00,8.00e+00,
289,1.92e+00,7.40e+00,
290,2.00e+00,8.00e+00,
291,2.16e+00,7.40e+00,
292,2.00e+00,8.00e+00,
293,2.24e+00,7.40e+00,
294,2.24e+00,8.00e+00,
295,2.00e+00,7.40e+00,
296,2.00e+00,8.00e+00,
297,2.32e+00,7.40e+00,
298,2.24e+00,8.00e+00,
299,2.00e+00,7.40e+00,
300,2.08e+00,8.00e+00,
301,2.32e+00,7.20e+00,
302,2.00e+00,7.80e+00,
303,2.32e+00,7.20e+00,
304,2.08e+00,7.80e+00,
305,2.40e+00,7.20e+00,
306,2.32e+00,7.80e+00,
307,2.08e+00,7.20e+00,
308,2.32e+00,7.80e+00,
309,2.08e+00,7.20e+00,
310,2.16e+00,7.80e+00,
311,2.40e+00,7.20e+00,
312,2.40e+00,7.20e+00,
313,2.16e+00,7.80e+00,
314,2.40e+00,7.60e+00,
315,2.16e+00,7.00e+00,
316,2.40e+00,7.60e+00,
317,2.16e+00,7.00e+00,
318,2.16e+00,7.60e+00,
319,2.48e+00,7.00e+00,
320,2.24e+00,7.00e+00,
321,2.48e+00,7.60e+00,
322,2.48e+00,7.60e+00,
323,2.24e+00,6.80e+00,
324,2.48e+00,7.40e+00,
325,2.24e+00,6.80e+00,
326,2.48e+00,7.40e+00,
327,2.16e+00,6.80e+00,
328,2.32e+00,6.80e+00,
329,2.56e+00,7.40e+00,
330,2.32e+00,7.20e+00,
331,2.64e+00,6.60e+00,
332,2.64e+00,7.20e+00,
333,2.32e+00,6.40e+00,
334,2.32e+00,7.00e+00,
335,2.64e+00,6.40e+00,
336,2.32e+00,7.00e+00,
337,2.64e+00,6.20e+00,
338,2.40e+00,6.80e+00,
339,2.64e+00,6.20e+00,
340,2.72e+00,6.80e+00,
341,2.40e+00,6.00e+00,
342,2.48e+00,6.00e+00,
343,2.72e+00,6.60e+00,
344,2.48e+00,5.80e+00,
345,2.72e+00,6.40e+00,
346,2.72e+00,6.40e+00,
347,2.48e+00,5.40e+00,
348,2.56e+00,6.00e+00,
349,2.72e+00,5.20e+00,
350,2.48e+00,5.80e+00,
351,2.80e+00,5.00e+00,
352,2.56e+00,5.60e+00,
353,2.88e+00,4.60e+00,
354,2.80e+00,5.20e+00,
355,2.56e+00,4.40e+00,
356,2.56e+00,5.00e+00,
357,2.88e+00,4.00e+00,
358,2.88e+00,4.60e+00,
359,2.56e+00,3.60e+00,
360,2.64e+00,4.20e+00,
361,2.88e+00,3.00e+00,
362,2.88e+00,3.60e+00,
363,2.64e+00,2.60e+00,
364,2.64e+00,3.00e+00,
365,2.96e+00,1.80e+00,
366,2.64e+00,2.40e+00,
367,2.96e+00,8.00e-01,
368,2.72e+00,1.60e+00,
369,2.96e+00,2.00e-01,
370,2.72e+00,4.00e-01,
371,2.96e+00,-1.20e+00,
372,2.64e+00,-6.00e-01,
373,2.96e+00,-2.20e+00,
374,2.72e+00,-1.80e+00,
375,2.96e+00,-4.20e+00,
376,3.04e+00,-3.80e+00,
377,2.72e+00,-6.00e+00,
378,2.80e+00,-5.40e+00,
379,3.04e+00,-8.20e+00,
380,2.80e+00,-8.20e+00,
381,3.04e+00,-1.14e+01,
382,2.80e+00,-1.08e+01,
383,3.04e+00,-1.38e+01,
384,2.80e+00,-1.36e+01,
385,3.04e+00,-1.70e+01,
386,3.04e+00,-1.70e+01,
387,2.88e+00,-2.04e+01,
388,3.12e+00,-2.00e+01,
389,2.88e+00,-2.32e+01,
390,3.12e+00,-2.30e+01,
391,2.88e+00,-2.50e+01,
392,2.88e+00,-2.46e+01,
393,3.12e+00,-2.54e+01,
394,3.12e+00,-2.54e+01,
395,2.88e+00,-2.40e+01,
396,3.20e+00,-2.44e+01,
397,2.88e+00,-2.18e+01,
398,2.96e+00,-2.22e+01,
399,3.20e+00,-1.90e+01,
400,2.96e+00,-1.92e+01,
401,3.28e+00,-1.58e+01,
402,2.96e+00,-1.62e+01,
403,3.36e+00,-1.26e+01,
404,2.96e+00,-1.28e+01,
405,3.28e+00,-1.00e+01,
406,3.36e+00,-1.02e+01,
407,3.04e+00,-7.40e+00,
408,3.36e+00,-7.60e+00,
409,2.96e+00,-5.40e+00,
410,3.36e+00,-5.80e+00,
411,3.04e+00,-3.80e+00,
412,3.04e+00,-3.80e+00,
413,3.36e+00,-2.20e+00,
414,3.36e+00,-2.60e+00,
415,3.04e+00,-1.00e+00,
416,3.20e+00,-1.40e+00,
417,3.44e+00,2.00e-01,
418,3.12e+00,-2.00e-01,
419,3.44e+00,8.00e-01,
420,3.20e+00,6.00e-01,
421,3.44e+00,1.60e+00,
422,3.20e+00,1.40e+00,
423,3.44e+00,2.60e+00,
424,3.44e+00,2.00e+00,
425,3.20e+00,3.00e+00,
426,3.20e+00,2.60e+00,
427,3.52e+00,3.60e+00,
428,3.28e+00,3.00e+00,
429,3.52e+00,4.00e+00,
430,3.28e+00,3.40e+00,
431,3.52e+00,4.40e+00,
432,3.20e+00,3.80e+00,
433,3.52e+00,4.80e+00,
434,3.28e+00,4.20e+00,
435,3.60e+00,5.00e+00,
436,3.28e+00,4.40e+00,
437,3.60e+00,5.20e+00,
438,3.36e+00,4.80e+00,
439,3.60e+00,5.40e+00,
440,3.60e+00,4.80e+00,
441,3.36e+00,5.60e+00,
442,3.36e+00,5.00e+00,
443,3.68e+00,5.80e+00,
444,3.36e+00,5.20e+00,
445,3.60e+00,6.20e+00,
446,3.36e+00,5.40e+00,
447,3.68e+00,6.00e+00,
448,3.68e+00,6.40e+00,
449,3.44e+00,5.60e+00,
450,3.44e+00,5.80e+00,
451,3.68e+00,6.40e+00,
452,3.44e+00,6.60e+00,
453,3.68e+00,6.00e+00,
454,3.44e+00,6.00e+00,
455,3.76e+00,6.80e+00,
456,3.44e+00,6.20e+00,
457,3.76e+00,6.80e+00,
458,3.76e+00,6.20e+00,
459,3.44e+00,6.80e+00,
460,3.76e+00,6.40e+00,
461,3.52e+00,7.00e+00,
462,3.52e+00,6.40e+00,
463,3.76e+00,7.00e+00,
464,3.76e+00,7.00e+00,
465,3.52e+00,6.40e+00,
466,3.84e+00,6.40e+00,
467,3.52e+00,7.20e+00,
468,3.84e+00,6.60e+00,
469,3.60e+00,7.20e+00,
470,3.84e+00,7.20e+00,
471,3.52e+00,6.60e+00,
472,3.60e+00,6.60e+00,
473,4.00e+00,7.20e+00,
474,3.60e+00,7.40e+00,
475,3.92e+00,6.60e+00,
476,4.00e+00,6.80e+00,
477,3.68e+00,7.40e+00,
478,4.00e+00,7.40e+00,
479,3.68e+00,6.80e+00,
480,4.00e+00,6.80e+00,
481,3.68e+00,7.40e+00,
482,3.68e+00,7.40e+00,
483,4.08e+00,6.80e+00,
484,3.68e+00,7.40e+00,
485,4.08e+00,6.80e+00,
486,3.68e+00,7.40e+00,
487,4.08e+00,6.80e+00,
488,4.08e+00,7.00e+00,
489,3.84e+00,7.60e+00,
490,4.08e+00,7.60e+00,
491,3.76e+00,7.00e+00,
492,3.76e+00,7.60e+00,
493,4.08e+00,7.00e+00,
494,3.84e+00,7.00e+00,
495,4.08e+00,7.60e+00,
496,4.16e+00,7.60e+00,
497,3.84e+00,7.00e+00,
498,4.16e+00,7.60e+00,
499,3.92e+00,7.00e+00,
500,3.92e+00,7.60e+00,
501,4.24e+00,7.00e+00,
502,3.92e+00,7.60e+00,
503,4.16e+00,7.20e+00,
504,4.00e+00,7.60e+00,
505,4.24e+00,7.00e+00,
506,4.00e+00,7.20e+00,
507,4.24e+00,7.80e+00,
508,4.24e+00,7.20e+00,
509,4.00e+00,7.80e+00,
510,4.00e+00,7.20e+00,
511,4.32e+00,7.80e+00,
512,4.00e+00,7.80e+00,
513,4.24e+00,7.20e+00,
514,4.00e+00,7.80e+00,
515,4.32e+00,7.20e+00,
516,4.08e+00,7.80e+00,
517,4.32e+00,7.20e+00,
518,4.08e+00,7.20e+00,
519,4.32e+00,7.80e+00,
520,4.08e+00,7.80e+00,
521,4.32e+00,7.20e+00,
522,4.08e+00,7.20e+00,
523,4.40e+00,7.80e+00,
524,4.16e+00,7.20e+00,
525,4.40e+00,7.80e+00,
526,4.40e+00,7.80e+00,
527,4.08e+00,7.20e+00,
528,4.16e+00,7.80e+00,
529,4.40e+00,7.20e+00,
530,4.16e+00,7.80e+00,
531,4.48e+00,7.20e+00,
532,4.16e+00,7.80e+00,
533,4.48e+00,7.20e+00,
534,4.24e+00,7.80e+00,
535,4.48e+00,7.20e+00,
536,4.48e+00,7.20e+00,
537,4.16e+00,8.00e+00,
538,4.24e+00,7.80e+00,
539,4.56e+00,7.40e+00,
540,4.24e+00,7.40e+00,
541,4.56e+00,8.00e+00,
542,4.24e+00,7.40e+00,
543,4.56e+00,8.00e+00,
544,4.32e+00,8.00e+00,
545,4.64e+00,7.20e+00,
546,4.32e+00,7.40e+00,
547,4.64e+00,8.00e+00,
548,4.32e+00,7.40e+00,
549,4.64e+00,8.00e+00,
550,4.32e+00,7.40e+00,
551,4.56e+00,8.00e+00,
552,4.32e+00,8.00e+00,
553,4.72e+00,7.40e+00,
554,4.40e+00,7.40e+00,
555,4.72e+00,8.00e+00,
556,4.72e+00,7.40e+00,
557,4.40e+00,8.00e+00,
558,4.40e+00,8.00e+00,
559,4.80e+00,7.40e+00,
560,4.40e+00,8.00e+00,
561,4.72e+00,7.40e+00,
562,4.40e+00,7.40e+00,
563,4.80e+00,8.00e+00,
564,4.56e+00,7.40e+00,
565,4.80e+00,8.00e+00,
566,4.80e+00,7.40e+00,
567,4.40e+00,8.00e+00,
568,4.72e+00,8.00e+00,
569,4.56e+00,7.40e+00,
570,4.56e+00,8.00e+00,
571,4.80e+00,7.40e+00,
572,4.56e+00,8.00e+00,
573,4.88e+00,7.40e+00,
574,4.88e+00,8.00e+00,
575,4.56e+00,7.40e+00,
576,4.88e+00,8.00e+00,
577,4.64e+00,7.40e+00,
578,4.64e+00,8.00e+00,
579,4.96e+00,7.40e+00,
580,4.64e+00,7.40e+00,
581,4.88e+00,8.00e+00,
582,4.72e+00,8.00e+00,
583,4.96e+00,7.40e+00,
584,4.96e+00,8.00e+00,
585,4.64e+00,7.40e+00,
586,4.96e+00,8.00e+00,
587,4.72e+00,7.40e+00,
588,4.72e+00,8.00e+00,
589,4.96e+00,7.40e+00,
590,4.72e+00,7.40e+00,
591,5.04e+00,8.00e+00,
592,5.04e+00,8.00e+00,
593,4.72e+00,7.40e+00,
594,5.04e+00,8.00e+00,
595,4.64e+00,7.40e+00,
596,5.04e+00,8.00e+00,
597,4.80e+00,7.40e+00,
598,4.80e+00,8.00e+00,
599,5.04e+00,7.40e+00,
600,4.80e+00,8.00e+00,
601,5.12e+00,7.40e+00,
602,4.80e+00,7.40e+00,
603,5.12e+00,8.00e+00,
604,4.88e+00,8.00e+00,
605,5.12e+00,7.40e+00,
606,5.12e+00,8.00e+00,
607,4.88e+00,7.40e+00,
608,4.88e+00,8.00e+00,
609,5.12e+00,7.40e+00,
610,4.88e+00,8.00e+00,
611,5.20e+00,7.40e+00,
612,5.20e+00,8.00e+00,
613,4.96e+00,7.40e+00,
614,5.20e+00,8.00e+00,
615,4.96e+00,7.20e+00,
616,5.20e+00,7.80e+00,
617,4.96e+00,7.20e+00,
618,4.96e+00,7.80e+00,
619,5.20e+00,7.20e+00,
620,4.96e+00,7.80e+00,
621,5.28e+00,7.20e+00,
622,5.04e+00,7.80e+00,
623,5.36e+00,7.20e+00,
624,5.04e+00,7.60e+00,
625,5.36e+00,7.00e+00,
626,4.96e+00,7.00e+00,
627,5.44e+00,7.60e+00,
628,5.04e+00,7.40e+00,
629,5.44e+00,6.80e+00,
630,5.04e+00,7.20e+00,
631,5.44e+00,6.40e+00,
632,5.04e+00,7.00e+00,
633,5.44e+00,5.60e+00,
634,5.44e+00,6.00e+00,
635,5.12e+00,4.60e+00,
636,5.12e+00,4.80e+00,
637,5.44e+00,2.00e+00,
638,5.52e+00,2.40e+00,
639,5.12e+00,-2.20e+00,
640,5.20e+00,-2.20e+00,
641,5.52e+00,-3.60e+00,
642,5.52e+00,-3.00e+00,
643,5.20e+00,1.00e+00,
644,5.52e+00,6.00e-01,
645,5.20e+00,4.20e+00,
646,5.28e+00,3.80e+00,
647,5.52e+00,5.60e+00,
648,5.28e+00,5.40e+00,
649,5.60e+00,6.60e+00,
650,5.28e+00,6.20e+00,
651,5.60e+00,7.00e+00,
652,5.60e+00,6.60e+00,
653,5.36e+00,7.40e+00,
654,5.60e+00,6.80e+00,
655,5.36e+00,7.60e+00,
656,5.36e+00,7.60e+00,
657,5.60e+00,7.00e+00,
658,5.36e+00,7.00e+00,
659,5.60e+00,7.80e+00,
660,5.36e+00,7.20e+00,
661,5.68e+00,7.80e+00,
662,5.68e+00,7.80e+00,
663,5.44e+00,7.20e+00,
664,5.68e+00,7.80e+00,
665,5.36e+00,7.20e+00,
666,5.44e+00,7.80e+00,
667,5.68e+00,7.20e+00,
668,5.44e+00,7.40e+00,
669,5.76e+00,8.00e+00,
670,5.44e+00,8.00e+00,
671,5.76e+00,7.40e+00,
672,5.76e+00,8.00e+00,
673,5.52e+00,7.40e+00,
674,5.76e+00,8.00e+00,
675,5.52e+00,7.40e+00,
676,5.76e+00,7.40e+00,
677,5.52e+00,8.00e+00,
678,5.52e+00,7.40e+00,
679,5.84e+00,8.00e+00,
680,5.84e+00,8.00e+00,
681,5.52e+00,7.40e+00,
682,5.60e+00,8.00e+00,
683,5.84e+00,7.40e+00,
684,5.84e+00,8.00e+00,
685,5.52e+00,7.40e+00,
686,5.60e+00,8.00e+00,
687,5.92e+00,7.40e+00,
688,5.60e+00,8.00e+00,
689,5.92e+00,7.40e+00,
690,5.92e+00,8.00e+00,
691,5.60e+00,7.40e+00,
692,5.92e+00,8.00e+00,
693,5.68e+00,7.40e+00,
694,5.68e+00,8.00e+00,
695,6.00e+00,7.40e+00,
696,5.92e+00,8.00e+00,
697,5.68e+00,7.40e+00,
698,5.68e+00,7.40e+00,
699,6.08e+00,8.00e+00,
700,5.76e+00,8.00e+00,
701,6.08e+00,7.40e+00,
702,6.08e+00,8.00e+00,
703,5.76e+00,7.40e+00,
704,6.08e+00,8.00e+00,
705,5.76e+00,7.40e+00,
706,6.08e+00,8.00e+00,
707,5.76e+00,7.40e+00,
708,6.16e+00,8.00e+00,
709,5.76e+00,7.40e+00,
710,6.16e+00,8.00e+00,
711,5.92e+00,7.40e+00,
712,6.16e+00,8.00e+00,
713,5.84e+00,7.40e+00,
714,6.16e+00,8.00e+00,
715,5.84e+00,7.40e+00,
716,5.92e+00,7.40e+00,
717,6.16e+00,8.00e+00,
