data/Mar 27 measurement/150kHz_0p09mV.csv

X,CH1,CH2,Start,Increment,
Sequence,Volt,Volt,-2.650000e+00,5.000000e-03
0,8.38e-01,1.76e-01,
1,8.55e-01,1.76e-01,
2,8.41e-01,1.76e-01,
3,8.52e-01,1.76e-01,
4,8.56e-01,1.76e-01,
5,8.37e-01,1.76e-01,
6,8.54e-01,1.76e-01,
7,8.38e-01,1.76e-01,
8,8.42e-01,1.76e-01,
9,8.57e-01,1.78e-01,
10,8.54e-01,1.78e-01,
11,8.40e-01,1.76e-01,
12,8.42e-01,1.76e-01,
13,8.57e-01,1.78e-01,
14,8.38e-01,1.76e-01,
15,8.56e-01,1.76e-01,
16,8.42e-01,1.76e-01,
17,8.56e-01,1.76e-01,
18,8.55e-01,1.76e-01,
19,8.38e-01,1.76e-01,
20,8.40e-01,1.76e-01,
21,8.57e-01,1.78e-01,
22,8.40e-01,1.76e-01,
23,8.55e-01,1.78e-01,
24,8.39e-01,1.76e-01,
25,8.59e-01,1.78e-01,
26,8.56e-01,1.78e-01,
27,8.41e-01,1.76e-01,
28,8.57e-01,1.76e-01,
29,8.41e-01,1.78e-01,
30,8.43e-01,1.76e-01,
31,8.57e-01,1.76e-01,
32,8.42e-01,1.76e-01,
33,8.58e-01,1.76e-01,
34,8.43e-01,1.76e-01,
35,8.55e-01,1.78e-01,
36,8.60e-01,1.78e-01,
37,8.42e-01,1.76e-01,
38,8.58e-01,1.76e-01,
39,8.42e-01,1.76e-01,
40,8.42e-01,1.76e-01,
41,8.57e-01,1.76e-01,
42,8.59e-01,1.76e-01,
43,8.42e-01,1.76e-01,
44,8.45e-01,1.76e-01,
45,8.59e-01,1.78e-01,
46,8.42e-01,1.78e-01,
47,8.58e-01,1.76e-01,
48,8.43e-01,1.78e-01,
49,8.60e-01,1.76e-01,
50,8.44e-01,1.76e-01,
51,8.59e-01,1.76e-01,
52,8.57e-01,1.76e-01,
53,8.42e-01,1.78e-01,
54,8.60e-01,1.76e-01,
55,8.43e-01,1.76e-01,
56,8.58e-01,1.76e-01,
57,8.44e-01,1.78e-01,
58,8.58e-01,1.76e-01,
59,8.42e-01,1.76e-01,
60,8.60e-01,1.76e-01,
61,8.43e-01,1.76e-01,
62,8.62e-01,1.76e-01,
63,8.44e-01,1.76e-01,
64,8.42e-01,1.76e-01,
65,8.60e-01,1.76e-01,
66,8.59e-01,1.76e-01,
67,8.45e-01,1.78e-01,
68,8.44e-01,1.76e-01,
69,8.62e-01,1.78e-01,
70,8.60e-01,1.76e-01,
71,8.44e-01,1.78e-01,
72,8.62e-01,1.76e-01,
73,8.44e-01,1.78e-01,
74,8.60e-01,1.78e-01,
75,8.44e-01,1.76e-01,
76,8.44e-01,1.76e-01,
77,8.58e-01,1.76e-01,
78,8.46e-01,1.76e-01,
79,8.62e-01,1.76e-01,
80,8.62e-01,1.78e-01,
81,8.42e-01,1.76e-01,
82,8.62e-01,1.76e-01,
83,8.45e-01,1.76e-01,
84,8.60e-01,1.76e-01,
85,8.47e-01,1.78e-01,
86,8.46e-01,1.76e-01,
87,8.62e-01,1.78e-01,
88,8.46e-01,1.76e-01,
89,8.61e-01,1.78e-01,
90,8.47e-01,1.78e-01,
91,8.62e-01,1.76e-01,
92,8.46e-01,1.76e-01,
93,8.64e-01,1.78e-01,
94,8.46e-01,1.76e-01,
95,8.62e-01,1.78e-01,
96,8.46e-01,1.76e-01,
97,8.63e-01,1.78e-01,
98,8.48e-01,1.76e-01,
99,8.63e-01,1.78e-01,
100,8.46e-01,1.76e-01,
101,8.62e-01,1.76e-01,
102,8.62e-01,1.76e-01,
103,8.46e-01,1.76e-01,
104,8.63e-01,1.76e-01,
105,8.46e-01,1.78e-01,
106,8.62e-01,1.76e-01,
107,8.46e-01,1.78e-01,
108,8.46e-01,1.76e-01,
109,8.61e-01,1.78e-01,
110,8.48e-01,1.76e-01,
111,8.65e-01,1.78e-01,
112,8.65e-01,1.76e-01,
113,8.45e-01,1.78e-01,
114,8.63e-01,1.76e-01,
115,8.46e-01,1.78e-01,
116,8.48e-01,1.78e-01,
117,8.61e-01,1.76e-01,
118,8.65e-01,1.76e-01,
119,8.48e-01,1.78e-01,
120,8.63e-01,1.76e-01,
121,8.46e-01,1.76e-01,
122,8.48e-01,1.76e-01,
123,8.64e-01,1.76e-01,
124,8.62e-01,1.76e-01,
125,8.48e-01,1.76e-01,
126,8.49e-01,1.78e-01,
127,8.65e-01,1.76e-01,
128,8.46e-01,1.76e-01,
129,8.62e-01,1.76e-01,
130,8.65e-01,1.76e-01,
131,8.50e-01,1.76e-01,
132,8.48e-01,1.76e-01,
133,8.67e-01,1.76e-01,
134,8.67e-01,1.76e-01,
135,8.47e-01,1.78e-01,
136,8.64e-01,1.78e-01,
137,8.48e-01,1.76e-01,
138,8.50e-01,1.76e-01,
139,8.64e-01,1.78e-01,
140,8.49e-01,1.76e-01,
141,8.63e-01,1.78e-01,
142,8.50e-01,1.76e-01,
143,8.66e-01,1.78e-01,
144,8.50e-01,1.76e-01,
145,8.67e-01,1.78e-01,
146,8.66e-01,1.76e-01,
147,8.48e-01,1.78e-01,
148,8.66e-01,1.76e-01,
149,8.50e-01,1.78e-01,
150,8.68e-01,1.76e-01,
151,8.50e-01,1.76e-01,
152,8.66e-01,1.76e-01,
153,8.52e-01,1.78e-01,
154,8.67e-01,1.76e-01,
155,8.50e-01,1.78e-01,
156,8.67e-01,1.76e-01,
157,8.50e-01,1.76e-01,
158,8.50e-01,1.76e-01,
159,8.67e-01,1.76e-01,
160,8.68e-01,1.76e-01,
161,8.52e-01,1.78e-01,
162,8.50e-01,1.76e-01,
163,8.66e-01,1.76e-01,
164,8.51e-01,1.76e-01,
165,8.67e-01,1.78e-01,
166,8.65e-01,1.76e-01,
167,8.51e-01,1.76e-01,
168,8.66e-01,1.76e-01,
169,8.52e-01,1.76e-01,
170,8.70e-01,1.78e-01,
171,8.50e-01,1.76e-01,
172,8.52e-01,1.78e-01,
173,8.70e-01,1.76e-01,
174,8.66e-01,1.76e-01,
175,8.53e-01,1.78e-01,
176,8.67e-01,1.76e-01,
177,8.52e-01,1.76e-01,
178,8.54e-01,1.76e-01,
179,8.68e-01,1.78e-01,
180,8.68e-01,1.76e-01,
181,8.53e-01,1.78e-01,
182,8.69e-01,1.78e-01,
183,7.74e-01,1.10e-01,
184,7.88e-01,-1.60e-02,
185,7.74e-01,7.60e-02,
186,7.89e-01,8.40e-02,
187,7.74e-01,1.28e-01,
188,7.89e-01,1.34e-01,
189,7.72e-01,1.50e-01,
190,7.90e-01,1.52e-01,
191,7.74e-01,1.62e-01,
192,7.90e-01,1.62e-01,
193,7.74e-01,1.68e-01,
194,7.75e-01,1.68e-01,
195,7.92e-01,1.72e-01,
196,7.90e-01,1.72e-01,
197,7.74e-01,1.70e-01,
198,7.89e-01,1.74e-01,
199,7.74e-01,1.74e-01,
200,7.90e-01,1.72e-01,
201,7.74e-01,1.74e-01,
202,7.74e-01,1.74e-01,
203,7.90e-01,1.72e-01,
204,7.76e-01,1.72e-01,
205,7.92e-01,1.74e-01,
206,7.77e-01,1.74e-01,
207,7.90e-01,1.72e-01,
208,7.92e-01,1.72e-01,
209,7.75e-01,1.74e-01,
210,7.74e-01,1.74e-01,
211,7.90e-01,1.72e-01,
212,7.90e-01,1.72e-01,
213,7.75e-01,1.74e-01,
214,7.90e-01,1.74e-01,
215,7.76e-01,1.74e-01,
216,7.94e-01,1.74e-01,
217,7.76e-01,1.74e-01,
218,7.78e-01,1.74e-01,
219,7.90e-01,1.72e-01,
220,7.93e-01,1.74e-01,
221,7.74e-01,1.72e-01,
222,7.76e-01,1.74e-01,
223,7.93e-01,1.72e-01,
224,7.94e-01,1.72e-01,
225,7.78e-01,1.74e-01,
226,7.77e-01,1.74e-01,
227,7.93e-01,1.70e-01,
228,7.74e-01,1.74e-01,
229,7.94e-01,1.70e-01,
230,7.78e-01,1.74e-01,
231,7.91e-01,1.72e-01,
232,7.78e-01,1.74e-01,
233,7.94e-01,1.72e-01,
234,7.78e-01,1.70e-01,
235,7.92e-01,1.74e-01,
236,7.95e-01,1.70e-01,
237,7.75e-01,1.74e-01,
238,7.95e-01,1.70e-01,
239,7.77e-01,1.74e-01,
240,7.78e-01,1.70e-01,
241,7.96e-01,1.74e-01,
242,7.92e-01,1.70e-01,
243,7.78e-01,1.72e-01,
244,7.78e-01,1.70e-01,
245,7.94e-01,1.74e-01,
246,7.79e-01,1.70e-01,
247,7.95e-01,1.74e-01,
248,7.78e-01,1.72e-01,
249,7.94e-01,1.70e-01,
250,7.79e-01,1.70e-01,
251,7.95e-01,1.74e-01,
252,7.95e-01,1.72e-01,
253,7.78e-01,1.70e-01,
254,7.95e-01,1.70e-01,
255,7.80e-01,1.72e-01,
256,7.82e-01,1.70e-01,
257,7.98e-01,1.72e-01,
258,7.94e-01,1.72e-01,
259,7.82e-01,1.70e-01,
260,7.94e-01,1.70e-01,
261,7.78e-01,1.72e-01,
262,7.94e-01,1.70e-01,
263,7.80e-01,1.72e-01,
264,7.80e-01,1.70e-01,
265,7.95e-01,1.70e-01,
266,7.75e-01,1.70e-01,
267,7.94e-01,1.72e-01,
268,7.78e-01,1.70e-01,
269,7.94e-01,1.72e-01,
270,7.79e-01,1.70e-01,
271,7.97e-01,1.72e-01,
272,7.95e-01,1.70e-01,
273,7.78e-01,1.72e-01,
274,7.96e-01,1.70e-01,
275,7.78e-01,1.72e-01,
276,7.95e-01,1.72e-01,
277,7.81e-01,1.70e-01,
278,7.80e-01,1.72e-01,
279,7.98e-01,1.70e-01,
280,7.82e-01,1.70e-01,
281,7.97e-01,1.72e-01,
282,7.97e-01,1.70e-01,
283,7.82e-01,1.72e-01,
284,7.82e-01,1.70e-01,
285,7.98e-01,1.72e-01,
286,7.82e-01,1.72e-01,
287,7.98e-01,1.70e-01,
288,7.81e-01,1.72e-01,
289,7.99e-01,1.68e-01,
290,7.97e-01,1.70e-01,
291,7.83e-01,1.72e-01,
292,8.01e-01,1.68e-01,
293,7.83e-01,1.72e-01,
294,7.81e-01,1.72e-01,
295,7.97e-01,1.68e-01,
296,7.98e-01,1.68e-01,
297,7.82e-01,1.72e-01,
298,7.82e-01,1.72e-01,
299,7.98e-01,1.66e-01,
300,7.80e-01,1.70e-01,
301,8.01e-01,1.66e-01,
302,7.84e-01,1.68e-01,
303,7.98e-01,1.68e-01,
304,7.99e-01,1.68e-01,
305,7.83e-01,1.66e-01,
306,7.96e-01,1.66e-01,
307,7.86e-01,1.68e-01,
308,7.85e-01,1.66e-01,
309,7.98e-01,1.68e-01,
310,8.00e-01,1.68e-01,
311,7.83e-01,1.68e-01,
312,7.97e-01,1.68e-01,
313,7.85e-01,1.66e-01,
314,7.82e-01,1.68e-01,
315,7.98e-01,1.66e-01,
316,7.84e-01,1.68e-01,
317,8.01e-01,1.66e-01,
318,7.98e-01,1.68e-01,
319,7.84e-01,1.66e-01,
320,8.00e-01,1.68e-01,
321,7.84e-01,1.66e-01,
322,7.98e-01,1.68e-01,
323,7.87e-01,1.66e-01,
324,7.86e-01,1.68e-01,
325,8.01e-01,1.66e-01,
326,7.82e-01,1.68e-01,
327,8.00e-01,1.66e-01,
328,7.85e-01,1.68e-01,
329,8.00e-01,1.66e-01,
330,8.01e-01,1.68e-01,
331,7.85e-01,1.68e-01,
332,7.86e-01,1.64e-01,
333,8.02e-01,1.68e-01,
334,8.00e-01,1.64e-01,
335,7.83e-01,1.66e-01,
336,7.98e-01,1.66e-01,
337,7.86e-01,1.64e-01,
338,7.86e-01,1.64e-01,
339,8.02e-01,1.66e-01,
340,8.02e-01,1.66e-01,
341,7.85e-01,1.64e-01,
342,7.82e-01,1.64e-01,
343,7.99e-01,1.66e-01,
344,8.02e-01,1.64e-01,
345,7.85e-01,1.66e-01,
346,7.86e-01,1.66e-01,
347,7.99e-01,1.64e-01,
348,8.02e-01,1.66e-01,
349,7.86e-01,1.64e-01,
350,8.01e-01,1.64e-01,
351,7.85e-01,1.66e-01,
352,8.02e-01,1.66e-01,
353,7.86e-01,1.64e-01,
354,7.85e-01,1.66e-01,
355,8.02e-01,1.62e-01,
356,8.02e-01,1.66e-01,
357,7.86e-01,1.62e-01,
358,7.86e-01,1.64e-01,
359,8.03e-01,1.62e-01,
360,7.86e-01,1.62e-01,
361,8.06e-01,1.62e-01,
362,8.02e-01,1.62e-01,
363,7.88e-01,1.62e-01,
364,7.88e-01,1.62e-01,
365,8.02e-01,1.62e-01,
366,7.86e-01,1.62e-01,
367,8.03e-01,1.62e-01,
368,7.86e-01,1.62e-01,
369,8.02e-01,1.62e-01,
370,8.02e-01,1.62e-01,
371,7.87e-01,1.62e-01,
372,7.87e-01,1.62e-01,
373,8.04e-01,1.62e-01,
374,7.88e-01,1.62e-01,
375,8.02e-01,1.58e-01,
376,8.01e-01,1.62e-01,
377,7.87e-01,1.58e-01,
378,7.88e-01,1.58e-01,
379,8.06e-01,1.60e-01,
380,8.02e-01,1.60e-01,
381,7.89e-01,1.58e-01,
382,8.05e-01,1.60e-01,
383,7.90e-01,1.58e-01,
384,7.89e-01,1.60e-01,
385,8.03e-01,1.58e-01,
386,7.87e-01,1.60e-01,
387,8.06e-01,1.58e-01,
388,7.88e-01,1.60e-01,
389,8.05e-01,1.56e-01,
390,7.90e-01,1.60e-01,
391,8.06e-01,1.56e-01,
392,8.06e-01,1.56e-01,
393,7.87e-01,1.58e-01,
394,7.86e-01,1.56e-01,
395,8.06e-01,1.56e-01,
396,7.89e-01,1.56e-01,
397,8.04e-01,1.58e-01,
398,8.04e-01,1.56e-01,
399,7.90e-01,1.58e-01,
400,7.90e-01,1.58e-01,
401,8.05e-01,1.54e-01,
402,8.05e-01,1.56e-01,
403,7.90e-01,1.52e-01,
404,7.90e-01,1.54e-01,
405,8.07e-01,1.52e-01,
406,7.89e-01,1.54e-01,
407,8.07e-01,1.52e-01,
408,7.90e-01,1.54e-01,
409,8.06e-01,1.52e-01,
410,8.08e-01,1.50e-01,
411,7.90e-01,1.54e-01,
412,7.90e-01,1.50e-01,
413,8.08e-01,1.52e-01,
414,7.90e-01,1.50e-01,
415,8.06e-01,1.52e-01,
416,7.90e-01,1.52e-01,
417,8.07e-01,1.50e-01,
418,7.90e-01,1.52e-01,
419,8.10e-01,1.48e-01,
420,7.93e-01,1.50e-01,
421,8.04e-01,1.46e-01,
422,7.90e-01,1.48e-01,
423,8.06e-01,1.46e-01,
424,7.91e-01,1.48e-01,
425,8.08e-01,1.44e-01,
426,7.91e-01,1.48e-01,
427,8.04e-01,1.44e-01,
428,8.08e-01,1.44e-01,
429,7.90e-01,1.46e-01,
430,7.92e-01,1.46e-01,
431,8.06e-01,1.42e-01,
432,7.93e-01,1.44e-01,
433,8.06e-01,1.40e-01,
434,8.09e-01,1.42e-01,
435,7.91e-01,1.42e-01,
436,7.91e-01,1.42e-01,
437,8.08e-01,1.42e-01,
438,7.93e-01,1.38e-01,
439,8.10e-01,1.40e-01,
440,7.94e-01,1.38e-01,
441,8.05e-01,1.40e-01,
442,7.93e-01,1.36e-01,
443,8.06e-01,1.40e-01,
444,7.94e-01,1.36e-01,
445,8.07e-01,1.36e-01,
446,7.92e-01,1.36e-01,
447,8.09e-01,1.34e-01,
448,7.95e-01,1.34e-01,
449,8.06e-01,1.32e-01,
450,8.07e-01,1.34e-01,
451,7.93e-01,1.30e-01,
452,8.10e-01,1.30e-01,
453,7.93e-01,1.32e-01,
454,8.09e-01,1.30e-01,
455,7.92e-01,1.26e-01,
456,8.10e-01,1.26e-01,
457,7.95e-01,1.28e-01,
458,7.94e-01,1.28e-01,
459,8.09e-01,1.24e-01,
460,7.94e-01,1.26e-01,
461,8.10e-01,1.24e-01,
462,7.96e-01,1.22e-01,
463,8.10e-01,1.20e-01,
464,7.95e-01,1.22e-01,
465,8.10e-01,1.18e-01,
466,8.07e-01,1.20e-01,
467,7.95e-01,1.16e-01,
468,7.95e-01,1.16e-01,
469,8.12e-01,1.16e-01,
470,7.95e-01,1.16e-01,
471,8.06e-01,1.12e-01,
472,7.94e-01,1.14e-01,
473,8.13e-01,1.10e-01,
474,7.95e-01,1.10e-01,
475,8.14e-01,1.06e-01,
476,7.97e-01,1.08e-01,
477,8.08e-01,1.04e-01,
478,8.13e-01,1.04e-01,
479,7.93e-01,1.02e-01,
480,8.13e-01,1.02e-01,
481,7.97e-01,9.80e-02,
482,7.96e-01,1.00e-01,
483,8.09e-01,9.60e-02,
484,7.96e-01,9.60e-02,
485,8.11e-01,9.20e-02,
486,8.11e-01,9.40e-02,
487,7.98e-01,9.00e-02,
488,7.96e-01,9.00e-02,
489,8.10e-01,8.60e-02,
490,7.94e-01,8.80e-02,
491,8.13e-01,8.20e-02,
492,8.10e-01,8.00e-02,
493,7.96e-01,7.80e-02,
494,7.99e-01,7.80e-02,
495,8.10e-01,7.20e-02,
496,7.98e-01,7.40e-02,
497,8.14e-01,7.00e-02,
498,8.14e-01,6.80e-02,
499,7.98e-01,6.40e-02,
500,7.98e-01,6.40e-02,
501,8.10e-01,5.80e-02,
502,7.95e-01,6.00e-02,
503,8.13e-01,5.40e-02,
504,8.15e-01,5.60e-02,
505,7.95e-01,4.80e-02,
506,8.13e-01,4.80e-02,
507,7.99e-01,4.40e-02,
508,7.99e-01,4.20e-02,
509,8.09e-01,3.80e-02,
510,7.97e-01,3.80e-02,
511,8.14e-01,2.80e-02,
512,7.97e-01,2.80e-02,
513,8.14e-01,2.40e-02,
514,8.09e-01,2.60e-02,
515,7.98e-01,1.40e-02,
516,8.01e-01,1.60e-02,
517,8.10e-01,1.00e-02,
518,7.97e-01,1.00e-02,
519,8.14e-01,4.00e-03,
520,7.98e-01,4.00e-03,
521,8.16e-01,-6.00e-03,
522,8.14e-01,-8.00e-03,
523,8.01e-01,-6.00e-03,
524,8.09e-01,-1.00e-02,
525,8.01e-01,-2.00e-02,
526,7.99e-01,-1.80e-02,
527,8.13e-01,-2.60e-02,
528,8.15e-01,-2.40e-02,
529,7.98e-01,-3.20e-02,
530,8.15e-01,-3.00e-02,
531,7.97e-01,-3.80e-02,
532,8.01e-01,-3.80e-02,
533,8.07e-01,-4.20e-02,
534,8.14e-01,-4.20e-02,
535,7.98e-01,-4.80e-02,
536,7.98e-01,-4.60e-02,
537,8.15e-01,-5.00e-02,
538,8.14e-01,-5.00e-02,
539,7.98e-01,-5.40e-02,
540,8.16e-01,-5.20e-02,
541,8.01e-01,-6.00e-02,
542,8.13e-01,-6.00e-02,
543,8.03e-01,-5.60e-02,
544,8.14e-01,-5.80e-02,
545,8.02e-01,-6.00e-02,
546,8.01e-01,-5.80e-02,
547,8.16e-01,-6.00e-02,
548,7.99e-01,-5.80e-02,
549,8.16e-01,-6.00e-02,
550,8.00e-01,-6.00e-02,
551,8.18e-01,-5.60e-02,
552,8.17e-01,-5.60e-02,
553,8.02e-01,-5.60e-02,
554,8.02e-01,-5.60e-02,
555,8.11e-01,-5.00e-02,
556,8.12e-01,-5.20e-02,
557,8.02e-01,-4.80e-02,
558,8.16e-01,-4.80e-02,
559,8.02e-01,-4.40e-02,
560,8.01e-01,-4.40e-02,
561,8.16e-01,-3.60e-02,
562,8.18e-01,-3.60e-02,
563,8.01e-01,-3.40e-02,
564,8.18e-01,-3.40e-02,
565,8.02e-01,-2.60e-02,
566,8.15e-01,-2.80e-02,
567,8.02e-01,-2.00e-02,
568,8.13e-01,-2.00e-02,
569,8.03e-01,-1.60e-02,
570,8.06e-01,-1.60e-02,
571,8.12e-01,-6.00e-03,
572,8.04e-01,-4.00e-03,
573,8.18e-01,-8.00e-03,
574,8.18e-01,-4.00e-03,
575,8.01e-01,4.00e-03,
576,8.18e-01,4.00e-03,
577,8.00e-01,1.00e-02,
578,8.02e-01,1.20e-02,
579,8.20e-01,1.60e-02,
580,8.21e-01,1.60e-02,
581,8.02e-01,2.40e-02,
582,8.03e-01,2.40e-02,
583,8.20e-01,2.80e-02,
584,8.04e-01,2.80e-02,
585,8.16e-01,3.60e-02,
586,8.06e-01,3.20e-02,
587,8.13e-01,4.20e-02,
588,8.06e-01,4.20e-02,
589,8.15e-01,4.60e-02,
590,8.08e-01,4.40e-02,
591,8.11e-01,5.20e-02,
592,8.04e-01,5.40e-02,
593,8.16e-01,5.20e-02,
594,8.16e-01,5.60e-02,
595,8.04e-01,6.20e-02,
596,8.05e-01,6.20e-02,
597,8.16e-01,6.40e-02,
598,8.19e-01,6.40e-02,
599,8.03e-01,6.80e-02,
600,8.03e-01,6.80e-02,
601,8.19e-01,7.60e-02,
602,8.03e-01,7.60e-02,
603,8.20e-01,7.60e-02,
604,8.21e-01,7.60e-02,
605,8.03e-01,8.20e-02,
606,8.05e-01,8.20e-02,
607,8.21e-01,8.40e-02,
608,8.03e-01,8.60e-02,
609,8.22e-01,8.80e-02,
610,8.21e-01,8.60e-02,
611,8.03e-01,9.40e-02,
612,8.22e-01,9.40e-02,
613,8.05e-01,9.60e-02,
614,8.05e-01,9.60e-02,
615,8.23e-01,1.00e-01,
616,8.22e-01,9.80e-02,
617,8.06e-01,1.02e-01,
618,8.22e-01,1.02e-01,
619,8.05e-01,1.04e-01,
620,8.23e-01,1.04e-01,
621,8.05e-01,1.08e-01,
622,8.20e-01,1.06e-01,
623,8.05e-01,1.08e-01,
624,8.05e-01,1.10e-01,
625,8.21e-01,1.14e-01,
626,8.06e-01,1.12e-01,
627,8.21e-01,1.16e-01,
628,8.03e-01,1.16e-01,
629,8.22e-01,1.16e-01,
630,8.06e-01,1.16e-01,
631,8.22e-01,1.18e-01,
632,8.22e-01,1.18e-01,
633,8.07e-01,1.20e-01,
634,8.06e-01,1.22e-01,
635,8.20e-01,1.20e-01,
636,8.18e-01,1.22e-01,
637,8.07e-01,1.24e-01,
638,8.18e-01,1.24e-01,
639,8.10e-01,1.26e-01,
640,8.10e-01,1.26e-01,
641,8.17e-01,1.28e-01,
642,8.09e-01,1.26e-01,
643,8.18e-01,1.30e-01,
644,8.10e-01,1.30e-01,
645,8.22e-01,1.30e-01,
646,8.26e-01,1.30e-01,
647,8.06e-01,1.34e-01,
648,8.06e-01,1.32e-01,
649,8.24e-01,1.34e-01,
650,8.23e-01,1.32e-01,
651,8.06e-01,1.36e-01,
652,8.10e-01,1.36e-01,
653,8.22e-01,1.38e-01,
654,8.10e-01,1.36e-01,
655,8.20e-01,1.40e-01,
656,8.16e-01,1.40e-01,
657,8.12e-01,1.38e-01,
658,8.26e-01,1.38e-01,
659,8.08e-01,1.40e-01,
660,8.27e-01,1.38e-01,
661,8.08e-01,1.42e-01,
662,8.24e-01,1.42e-01,
663,8.07e-01,1.42e-01,
664,8.09e-01,1.42e-01,
665,8.25e-01,1.42e-01,
666,8.22e-01,1.42e-01,
667,8.09e-01,1.46e-01,
668,8.19e-01,1.44e-01,
669,8.13e-01,1.46e-01,
670,8.11e-01,1.44e-01,
671,8.23e-01,1.48e-01,
672,8.09e-01,1.44e-01,
673,8.26e-01,1.48e-01,
674,8.10e-01,1.46e-01,
675,8.25e-01,1.48e-01,
676,8.23e-01,1.48e-01,
677,8.11e-01,1.48e-01,
678,8.12e-01,1.50e-01,
679,8.20e-01,1.46e-01,
680,8.26e-01,1.48e-01,
681,8.10e-01,1.52e-01,
682,8.09e-01,1.52e-01,
683,8.26e-01,1.50e-01,
684,8.10e-01,1.50e-01,
685,8.26e-01,1.52e-01,
686,8.21e-01,1.50e-01,
687,8.14e-01,1.54e-01,
688,8.11e-01,1.54e-01,
689,8.29e-01,1.52e-01,
690,8.10e-01,1.52e-01,
691,8.28e-01,1.54e-01,
692,8.12e-01,1.54e-01,
693,8.25e-01,1.52e-01,
694,8.27e-01,1.54e-01,
695,8.12e-01,1.52e-01,
696,8.29e-01,1.54e-01,
697,8.10e-01,1.58e-01,
698,8.26e-01,1.56e-01,
699,8.10e-01,1.58e-01,
700,8.24e-01,1.58e-01,
701,8.13e-01,1.56e-01,
702,8.14e-01,1.56e-01,
703,8.26e-01,1.58e-01,
704,8.29e-01,1.56e-01,
705,8.11e-01,1.56e-01,
706,8.10e-01,1.56e-01,
707,8.26e-01,1.58e-01,
708,8.15e-01,1.56e-01,
709,8.25e-01,1.60e-01,
710,8.30e-01,1.60e-01,
711,8.14e-01,1.58e-01,
712,8.28e-01,1.58e-01,
713,8.11e-01,1.60e-01,
714,8.14e-01,1.60e-01,
715,8.26e-01,1.58e-01,
716,8.12e-01,1.60e-01,
717,8.29e-01,1.58e-01,
718,8.12e-01,1.60e-01,
719,8.27e-01,1.58e-01,
720,8.25e-01,1.58e-01,
721,8.14e-01,1.62e-01,
722,8.13e-01,1.60e-01,
723,8.30e-01,1.62e-01,
724,8.29e-01,1.62e-01,
725,8.14e-01,1.62e-01,
726,8.17e-01,1.62e-01,
727,8.28e-01,1.62e-01,
728,8.30e-01,1.62e-01,
729,8.13e-01,1.62e-01,
730,8.13e-01,1.62e-01,
731,8.29e-01,1.62e-01,
732,8.29e-01,1.62e-01,
733,8.12e-01,1.62e-01,
734,8.32e-01,1.62e-01,
735,8.14e-01,1.62e-01,
736,8.29e-01,1.62e-01,
737,8.16e-01,1.64e-01,
738,8.17e-01,1.62e-01,
739,8.31e-01,1.64e-01,
740,8.14e-01,1.62e-01,
741,8.30e-01,1.66e-01,
742,8.14e-01,1.66e-01,
743,8.25e-01,1.62e-01,
744,8.14e-01,1.66e-01,
745,8.31e-01,1.64e-01,
746,8.32e-01,1.66e-01,
747,8.14e-01,1.64e-01,
748,8.15e-01,1.66e-01,
749,8.26e-01,1.64e-01,
750,8.30e-01,1.64e-01,
751,8.16e-01,1.66e-01,
752,8.15e-01,1.64e-01,
753,8.28e-01,1.66e-01,
754,8.15e-01,1.64e-01,
755,8.30e-01,1.66e-01,
756,8.30e-01,1.64e-01,
757,8.13e-01,1.66e-01,
758,8.18e-01,1.64e-01,
759,8.30e-01,1.66e-01,
760,8.31e-01,1.66e-01,
761,8.16e-01,1.64e-01,
762,8.27e-01,1.64e-01,
763,8.18e-01,1.66e-01,
764,8.32e-01,1.64e-01,
765,8.16e-01,1.68e-01,
766,8.30e-01,1.68e-01,
767,8.19e-01,1.64e-01,
768,8.34e-01,1.68e-01,
769,8.15e-01,1.66e-01,
770,8.17e-01,1.68e-01,
771,8.31e-01,1.68e-01,
772,8.15e-01,1.68e-01,
773,8.34e-01,1.68e-01,
774,8.31e-01,1.68e-01,
775,8.18e-01,1.68e-01,
776,8.18e-01,1.68e-01,
777,8.32e-01,1.68e-01,
778,8.16e-01,1.68e-01,
779,8.34e-01,1.66e-01,
780,8.32e-01,1.68e-01,
781,8.18e-01,1.66e-01,
782,8.32e-01,1.66e-01,
783,8.18e-01,1.68e-01,
784,8.34e-01,1.68e-01,
785,8.17e-01,1.68e-01,
786,8.32e-01,1.68e-01,
787,8.18e-01,1.68e-01,
788,8.34e-01,1.68e-01,
789,8.16e-01,1.68e-01,
790,8.18e-01,1.68e-01,
791,8.31e-01,1.68e-01,
792,8.35e-01,1.66e-01,
793,8.17e-01,1.68e-01,
794,8.33e-01,1.68e-01,
795,8.18e-01,1.70e-01,
796,8.20e-01,1.68e-01,
797,8.35e-01,1.70e-01,
798,8.31e-01,1.72e-01,
799,8.19e-01,1.66e-01,
800,8.18e-01,1.70e-01,
801,8.36e-01,1.72e-01,
802,8.33e-01,1.68e-01,
803,8.20e-01,1.72e-01,
804,8.35e-01,1.72e-01,
805,8.18e-01,1.70e-01,
806,8.21e-01,1.70e-01,
807,8.35e-01,1.70e-01,
808,8.35e-01,1.72e-01,
809,8.18e-01,1.70e-01,
810,8.35e-01,1.70e-01,
811,8.19e-01,1.72e-01,
812,8.35e-01,1.70e-01,
813,8.18e-01,1.72e-01,
814,8.19e-01,1.70e-01,
815,8.36e-01,1.72e-01,
816,8.19e-01,1.70e-01,
817,8.34e-01,1.72e-01,
818,8.37e-01,1.72e-01,
819,8.19e-01,1.70e-01,
820,8.22e-01,1.72e-01,
821,8.34e-01,1.70e-01,
822,8.37e-01,1.72e-01,
823,8.20e-01,1.70e-01,
824,8.38e-01,1.70e-01,
825,8.20e-01,1.72e-01,
826,8.35e-01,1.70e-01,
827,8.22e-01,1.72e-01,
828,8.20e-01,1.72e-01,
829,8.38e-01,1.70e-01,
830,8.37e-01,1.70e-01,
831,8.22e-01,1.70e-01,
832,8.38e-01,1.70e-01,
833,8.21e-01,1.70e-01,
834,8.39e-01,1.70e-01,
835,8.21e-01,1.70e-01,
836,8.19e-01,1.70e-01,
837,8.36e-01,1.72e-01,
838,8.39e-01,1.70e-01,
839,8.21e-01,1.72e-01,
840,8.37e-01,1.70e-01,
841,8.22e-01,1.70e-01,
842,8.20e-01,1.70e-01,
843,8.34e-01,1.72e-01,
844,8.38e-01,1.72e-01,
845,8.22e-01,1.70e-01,
846,8.37e-01,1.70e-01,
847,8.23e-01,1.72e-01,
848,8.21e-01,1.70e-01,
849,8.41e-01,1.72e-01,
850,8.38e-01,1.70e-01,
851,8.23e-01,1.74e-01,
852,8.35e-01,1.70e-01,
853,8.22e-01,1.74e-01,
854,8.38e-01,1.70e-01,
855,8.22e-01,1.74e-01,
856,8.40e-01,1.74e-01,
857,8.23e-01,1.70e-01,
858,8.38e-01,1.70e-01,
859,8.24e-01,1.74e-01,
860,8.39e-01,1.70e-01,
861,8.22e-01,1.74e-01,
862,8.39e-01,1.74e-01,
863,8.24e-01,1.70e-01,
864,8.39e-01,1.74e-01,
865,8.25e-01,1.72e-01,
866,8.40e-01,1.70e-01,
867,8.21e-01,1.74e-01,
