data/NewFile2.csv

X,CH1,CH2,Start,Increment,
Sequence,Volt,Volt,-3.295000e+01,5.000000e-02
0,9.20e+00,1.02e+01,
1,9.52e+00,1.08e+01,
2,9.20e+00,1.08e+01,
3,9.60e+00,1.02e+01,
4,9.60e+00,1.02e+01,
5,9.20e+00,1.08e+01,
6,9.60e+00,1.02e+01,
7,9.20e+00,1.08e+01,
8,9.20e+00,1.02e+01,
9,9.60e+00,1.08e+01,
10,9.36e+00,1.08e+01,
11,9.68e+00,1.02e+01,
12,9.36e+00,1.02e+01,
13,9.68e+00,1.08e+01,
14,9.68e+00,1.08e+01,
15,9.36e+00,1.02e+01,
16,9.68e+00,1.08e+01,
17,9.36e+00,1.02e+01,
18,9.68e+00,1.08e+01,
19,9.36e+00,1.02e+01,
20,9.44e+00,1.08e+01,
21,9.76e+00,1.02e+01,
22,9.44e+00,1.02e+01,
23,9.76e+00,1.08e+01,
24,9.76e+00,1.08e+01,
25,9.44e+00,1.02e+01,
26,9.44e+00,1.02e+01,
27,9.76e+00,1.08e+01,
28,9.44e+00,1.02e+01,
29,9.76e+00,1.08e+01,
30,9.52e+00,1.02e+01,
31,9.76e+00,1.08e+01,
32,9.52e+00,1.02e+01,
33,9.84e+00,1.08e+01,
34,9.84e+00,1.08e+01,
35,9.52e+00,1.02e+01,
36,9.52e+00,1.02e+01,
37,9.84e+00,1.08e+01,
38,9.60e+00,1.08e+01,
39,9.92e+00,1.02e+01,
40,9.60e+00,1.08e+01,
41,9.92e+00,1.02e+01,
42,9.60e+00,1.08e+01,
43,9.92e+00,1.02e+01,
44,9.92e+00,1.02e+01,
45,9.60e+00,1.08e+01,
46,9.60e+00,1.02e+01,
47,9.92e+00,1.08e+01,
48,9.92e+00,1.02e+01,
49,9.68e+00,1.08e+01,
50,9.68e+00,1.02e+01,
51,1.00e+01,1.08e+01,
52,9.68e+00,1.02e+01,
53,1.00e+01,1.08e+01,
54,9.68e+00,1.08e+01,
55,1.00e+01,1.02e+01,
56,9.68e+00,1.04e+01,
57,-1.60e-01,-2.64e+01,
58,-8.00e-02,9.80e+00,
59,8.00e-02,1.06e+01,
60,-8.00e-02,1.06e+01,
61,1.60e-01,9.80e+00,
62,1.60e-01,1.06e+01,
63,-8.00e-02,9.80e+00,
64,0.00e+00,1.06e+01,
65,1.60e-01,1.00e+01,
66,1.60e-01,1.06e+01,
67,0.00e+00,9.80e+00,
68,0.00e+00,1.06e+01,
69,2.40e-01,9.80e+00,
70,0.00e+00,1.00e+01,
71,2.40e-01,1.06e+01,
72,0.00e+00,1.00e+01,
73,2.40e-01,1.06e+01,
74,2.40e-01,1.06e+01,
75,0.00e+00,9.80e+00,
76,2.40e-01,1.00e+01,
77,8.00e-02,1.06e+01,
78,8.00e-02,1.06e+01,
79,3.20e-01,9.80e+00,
80,8.00e-02,1.06e+01,
81,3.20e-01,9.80e+00,
82,3.20e-01,9.80e+00,
83,8.00e-02,1.06e+01,
84,3.20e-01,1.06e+01,
85,8.00e-02,9.80e+00,
86,3.20e-01,9.80e+00,
87,1.60e-01,1.06e+01,
88,1.60e-01,1.06e+01,
89,4.00e-01,9.80e+00,
90,1.60e-01,1.06e+01,
91,4.00e-01,9.80e+00,
92,4.00e-01,1.04e+01,
93,2.40e-01,9.80e+00,
94,4.00e-01,9.80e+00,
95,1.60e-01,1.06e+01,
96,2.40e-01,1.02e+01,
97,5.60e-01,9.60e+00,
98,2.40e-01,1.04e+01,
99,4.80e-01,9.60e+00,
100,2.40e-01,1.02e+01,
101,5.60e-01,9.60e+00,
102,5.60e-01,9.60e+00,
103,2.40e-01,1.04e+01,
104,5.60e-01,9.60e+00,
105,4.00e-01,1.02e+01,
106,5.60e-01,1.02e+01,
107,3.20e-01,9.60e+00,
108,5.60e-01,9.60e+00,
109,3.20e-01,1.04e+01,
110,3.20e-01,9.60e+00,
111,6.40e-01,1.04e+01,
112,6.40e-01,1.00e+01,
113,3.20e-01,9.60e+00,
114,6.40e-01,1.00e+01,
115,4.00e-01,9.40e+00,
116,4.80e-01,9.40e+00,
117,7.20e-01,1.00e+01,
118,4.80e-01,1.00e+01,
119,7.20e-01,9.40e+00,
120,4.80e-01,9.80e+00,
121,7.20e-01,9.20e+00,
122,4.80e-01,9.80e+00,
123,7.20e-01,9.00e+00,
124,7.20e-01,9.60e+00,
125,5.60e-01,8.80e+00,
126,5.60e-01,9.40e+00,
127,7.20e-01,8.60e+00,
128,5.60e-01,9.00e+00,
129,8.00e-01,8.00e+00,
130,5.60e-01,8.40e+00,
131,8.00e-01,6.60e+00,
132,5.60e-01,7.20e+00,
133,8.00e-01,4.20e+00,
134,8.00e-01,5.00e+00,
135,6.40e-01,4.00e-01,
136,6.40e-01,8.00e-01,
137,8.00e-01,-1.40e+00,
138,6.40e-01,-1.00e+00,
139,8.80e-01,2.80e+00,
140,6.40e-01,2.60e+00,
141,8.80e-01,6.40e+00,
142,8.80e-01,5.80e+00,
143,6.40e-01,7.80e+00,
144,8.80e-01,7.20e+00,
145,7.20e-01,8.80e+00,
146,7.20e-01,8.20e+00,
147,8.80e-01,9.20e+00,
148,7.20e-01,8.60e+00,
149,9.60e-01,9.40e+00,
150,7.20e-01,8.80e+00,
151,9.60e-01,9.60e+00,
152,9.60e-01,9.00e+00,
153,7.20e-01,9.60e+00,
154,8.00e-01,9.00e+00,
155,9.60e-01,9.80e+00,
156,9.60e-01,9.80e+00,
157,8.00e-01,9.20e+00,
158,8.00e-01,9.80e+00,
159,1.04e+00,9.20e+00,
160,8.00e-01,9.20e+00,
161,1.04e+00,9.80e+00,
162,1.04e+00,9.80e+00,
163,8.80e-01,9.20e+00,
164,1.04e+00,9.80e+00,
165,8.80e-01,9.20e+00,
166,8.80e-01,9.20e+00,
167,1.12e+00,9.80e+00,
168,8.80e-01,9.80e+00,
169,1.20e+00,9.20e+00,
170,8.80e-01,9.20e+00,
171,1.12e+00,9.80e+00,
172,8.80e-01,9.20e+00,
173,1.20e+00,9.80e+00,
174,9.60e-01,9.20e+00,
175,1.20e+00,9.80e+00,
176,1.12e+00,9.80e+00,
177,9.60e-01,9.20e+00,
178,9.60e-01,9.20e+00,
179,1.28e+00,9.80e+00,
180,9.60e-01,9.80e+00,
181,1.28e+00,9.20e+00,
182,9.60e-01,9.80e+00,
183,1.28e+00,9.20e+00,
184,1.28e+00,9.20e+00,
185,1.04e+00,9.80e+00,
186,1.28e+00,9.60e+00,
187,1.12e+00,9.00e+00,
188,1.12e+00,9.60e+00,
189,1.36e+00,9.00e+00,
190,1.12e+00,9.00e+00,
191,1.36e+00,9.60e+00,
192,1.36e+00,9.00e+00,
193,1.12e+00,9.60e+00,
194,1.12e+00,9.00e+00,
195,1.44e+00,9.60e+00,
196,1.20e+00,9.60e+00,
197,1.36e+00,9.00e+00,
198,1.20e+00,9.00e+00,
199,1.44e+00,9.60e+00,
200,1.44e+00,9.60e+00,
201,1.20e+00,9.00e+00,
202,1.20e+00,9.60e+00,
203,1.44e+00,8.80e+00,
204,1.28e+00,8.80e+00,
205,1.44e+00,9.40e+00,
206,1.44e+00,8.80e+00,
207,1.20e+00,9.40e+00,
208,1.28e+00,9.40e+00,
209,1.52e+00,8.80e+00,
210,1.52e+00,8.80e+00,
211,1.28e+00,9.40e+00,
212,1.52e+00,9.40e+00,
213,1.28e+00,8.80e+00,
214,1.52e+00,9.20e+00,
215,1.36e+00,8.60e+00,
216,1.36e+00,9.20e+00,
217,1.60e+00,8.60e+00,
218,1.60e+00,8.60e+00,
219,1.36e+00,9.20e+00,
220,1.60e+00,8.60e+00,
221,1.36e+00,9.20e+00,
222,1.60e+00,9.20e+00,
223,1.36e+00,8.60e+00,
224,1.60e+00,8.60e+00,
225,1.44e+00,9.20e+00,
226,1.44e+00,8.40e+00,
227,1.68e+00,9.20e+00,
228,1.44e+00,8.40e+00,
229,1.68e+00,9.00e+00,
230,1.44e+00,9.00e+00,
231,1.68e+00,8.40e+00,
232,1.68e+00,9.00e+00,
233,1.44e+00,8.20e+00,
234,1.44e+00,8.80e+00,
235,1.76e+00,8.20e+00,
236,1.52e+00,8.20e+00,
237,1.76e+00,8.80e+00,
238,1.52e+00,8.20e+00,
239,1.76e+00,8.80e+00,
240,1.76e+00,8.80e+00,
241,1.52e+00,8.00e+00,
242,1.76e+00,8.60e+00,
243,1.52e+00,8.00e+00,
244,1.60e+00,8.60e+00,
245,1.84e+00,7.80e+00,
246,1.60e+00,8.00e+00,
247,1.84e+00,8.60e+00,
248,1.60e+00,8.40e+00,
249,1.92e+00,7.60e+00,
250,1.68e+00,7.80e+00,
251,1.92e+00,8.40e+00,
252,1.92e+00,8.40e+00,
253,1.68e+00,7.60e+00,
254,1.92e+00,8.00e+00,
255,1.68e+00,7.40e+00,
256,1.68e+00,8.00e+00,
257,2.00e+00,7.40e+00,
258,2.00e+00,8.00e+00,
259,1.76e+00,7.20e+00,
260,2.00e+00,7.20e+00,
261,1.76e+00,7.80e+00,
262,2.00e+00,7.20e+00,
263,1.76e+00,7.80e+00,
264,1.68e+00,7.60e+00,
265,2.08e+00,7.00e+00,
266,2.08e+00,7.00e+00,
267,1.84e+00,7.60e+00,
268,1.84e+00,7.60e+00,
269,2.08e+00,6.80e+00,
270,2.08e+00,6.80e+00,
271,1.84e+00,7.40e+00,
272,2.08e+00,7.40e+00,
273,1.84e+00,6.60e+00,
274,1.92e+00,6.60e+00,
275,2.16e+00,7.20e+00,
276,1.92e+00,6.40e+00,
277,2.16e+00,7.00e+00,
278,1.92e+00,7.00e+00,
279,2.16e+00,6.20e+00,
280,2.16e+00,6.80e+00,
281,1.92e+00,6.20e+00,
282,2.16e+00,6.80e+00,
283,1.92e+00,6.00e+00,
284,2.16e+00,6.00e+00,
285,1.92e+00,6.60e+00,
286,2.00e+00,6.40e+00,
287,2.24e+00,5.60e+00,
288,2.24e+00,6.20e+00,
289,2.00e+00,5.40e+00,
290,2.24e+00,6.00e+00,
291,2.00e+00,5.20e+00,
292,2.24e+00,5.80e+00,
293,2.00e+00,5.00e+00,
294,2.08e+00,5.60e+00,
295,2.24e+00,4.80e+00,
296,2.08e+00,5.40e+00,
297,2.32e+00,4.60e+00,
298,2.08e+00,5.20e+00,
299,2.32e+00,4.40e+00,
300,2.32e+00,5.00e+00,
301,2.08e+00,4.20e+00,
302,2.32e+00,4.80e+00,
303,2.16e+00,4.00e+00,
304,2.16e+00,4.60e+00,
305,2.40e+00,3.80e+00,
306,2.16e+00,4.40e+00,
307,2.40e+00,3.40e+00,
308,2.16e+00,4.00e+00,
309,2.40e+00,3.20e+00,
310,2.40e+00,3.60e+00,
311,2.16e+00,2.80e+00,
312,2.40e+00,3.40e+00,
313,2.24e+00,2.60e+00,
314,2.24e+00,3.20e+00,
315,2.40e+00,2.20e+00,
316,2.24e+00,2.80e+00,
317,2.48e+00,2.00e+00,
318,2.48e+00,2.40e+00,
319,2.24e+00,1.60e+00,
320,2.24e+00,2.00e+00,
321,2.48e+00,1.20e+00,
322,2.48e+00,1.60e+00,
323,2.24e+00,6.00e-01,
324,2.32e+00,1.20e+00,
325,2.56e+00,2.00e-01,
326,2.32e+00,8.00e-01,
327,2.64e+00,-2.00e-01,
328,2.32e+00,4.00e-01,
329,2.64e+00,-8.00e-01,
330,2.64e+00,-4.00e-01,
331,2.32e+00,-1.20e+00,
332,2.40e+00,-8.00e-01,
333,2.72e+00,-1.80e+00,
334,2.64e+00,-1.40e+00,
335,2.40e+00,-2.40e+00,
336,2.48e+00,-2.00e+00,
337,2.72e+00,-3.20e+00,
338,2.48e+00,-2.80e+00,
339,2.72e+00,-3.80e+00,
340,2.48e+00,-3.40e+00,
341,2.72e+00,-4.40e+00,
342,2.72e+00,-3.80e+00,
343,2.48e+00,-5.40e+00,
344,2.56e+00,-4.80e+00,
345,2.72e+00,-6.00e+00,
346,2.56e+00,-5.60e+00,
347,2.80e+00,-7.00e+00,
348,2.56e+00,-6.60e+00,
349,2.80e+00,-7.80e+00,
350,2.80e+00,-7.40e+00,
351,2.56e+00,-8.60e+00,
352,2.56e+00,-8.20e+00,
353,2.88e+00,-9.60e+00,
354,2.80e+00,-9.20e+00,
355,2.64e+00,-1.06e+01,
356,2.64e+00,-1.04e+01,
357,2.88e+00,-1.18e+01,
358,2.88e+00,-1.12e+01,
359,2.64e+00,-1.28e+01,
360,2.88e+00,-1.24e+01,
361,2.64e+00,-1.40e+01,
362,2.96e+00,-1.34e+01,
363,2.64e+00,-1.48e+01,
364,2.72e+00,-1.46e+01,
365,2.96e+00,-1.60e+01,
366,2.72e+00,-1.56e+01,
367,2.96e+00,-1.70e+01,
368,2.72e+00,-1.68e+01,
369,2.96e+00,-1.82e+01,
370,2.96e+00,-1.78e+01,
371,2.72e+00,-1.90e+01,
372,2.96e+00,-1.88e+01,
373,2.72e+00,-2.02e+01,
374,2.80e+00,-1.96e+01,
375,3.04e+00,-2.08e+01,
376,2.80e+00,-2.06e+01,
377,3.04e+00,-2.18e+01,
378,2.80e+00,-2.12e+01,
379,3.04e+00,-2.22e+01,
380,2.80e+00,-2.18e+01,
381,3.04e+00,-2.26e+01,
382,3.04e+00,-2.22e+01,
383,2.88e+00,-2.28e+01,
384,2.88e+00,-2.24e+01,
385,3.12e+00,-2.30e+01,
386,3.12e+00,-2.30e+01,
387,2.88e+00,-2.24e+01,
388,2.88e+00,-2.28e+01,
389,3.12e+00,-2.22e+01,
390,3.12e+00,-2.26e+01,
391,2.88e+00,-2.18e+01,
392,3.12e+00,-2.22e+01,
393,2.96e+00,-2.12e+01,
394,2.96e+00,-2.16e+01,
395,3.28e+00,-2.04e+01,
396,3.28e+00,-2.10e+01,
397,2.96e+00,-1.96e+01,
398,3.28e+00,-2.00e+01,
399,2.96e+00,-1.88e+01,
400,2.96e+00,-1.90e+01,
401,3.28e+00,-1.76e+01,
402,2.96e+00,-1.82e+01,
403,3.36e+00,-1.66e+01,
404,3.04e+00,-1.70e+01,
405,3.36e+00,-1.54e+01,
406,3.36e+00,-1.60e+01,
407,3.04e+00,-1.42e+01,
408,3.04e+00,-1.48e+01,
409,3.36e+00,-1.32e+01,
410,3.36e+00,-1.38e+01,
411,3.12e+00,-1.20e+01,
412,3.20e+00,-1.26e+01,
413,3.36e+00,-1.10e+01,
414,3.20e+00,-1.16e+01,
415,3.44e+00,-9.80e+00,
416,3.44e+00,-1.04e+01,
417,3.20e+00,-9.00e+00,
418,3.20e+00,-9.40e+00,
419,3.44e+00,-8.00e+00,
420,3.44e+00,-8.40e+00,
421,3.20e+00,-7.00e+00,
422,3.28e+00,-7.60e+00,
423,3.52e+00,-5.80e+00,
424,3.28e+00,-6.60e+00,
425,3.52e+00,-5.20e+00,
426,3.28e+00,-5.80e+00,
427,3.52e+00,-4.40e+00,
428,3.28e+00,-5.00e+00,
429,3.52e+00,-3.60e+00,
430,3.52e+00,-4.00e+00,
431,3.28e+00,-2.80e+00,
432,3.36e+00,-3.40e+00,
433,3.60e+00,-2.20e+00,
434,3.36e+00,-2.60e+00,
435,3.60e+00,-1.40e+00,
436,3.60e+00,-2.00e+00,
437,3.36e+00,-8.00e-01,
438,3.36e+00,-1.40e+00,
439,3.60e+00,-4.00e-01,
440,3.60e+00,-8.00e-01,
441,3.36e+00,4.00e-01,
442,3.44e+00,-2.00e-01,
443,3.68e+00,8.00e-01,
444,3.44e+00,2.00e-01,
445,3.68e+00,1.20e+00,
446,3.68e+00,8.00e-01,
447,3.44e+00,1.60e+00,
448,3.68e+00,1.00e+00,
449,3.44e+00,2.20e+00,
450,3.44e+00,1.80e+00,
451,3.76e+00,2.60e+00,
452,3.76e+00,2.20e+00,
453,3.44e+00,3.00e+00,
454,3.52e+00,2.40e+00,
455,3.76e+00,3.40e+00,
456,3.76e+00,2.80e+00,
457,3.52e+00,3.60e+00,
458,3.52e+00,3.00e+00,
459,3.76e+00,3.80e+00,
460,3.76e+00,3.40e+00,
461,3.52e+00,4.40e+00,
462,3.76e+00,3.80e+00,
463,3.60e+00,4.60e+00,
464,3.84e+00,4.00e+00,
465,3.60e+00,5.00e+00,
466,3.84e+00,4.40e+00,
467,3.60e+00,5.20e+00,
468,3.84e+00,4.60e+00,
469,3.60e+00,5.40e+00,
470,3.60e+00,4.80e+00,
471,3.92e+00,5.60e+00,
472,3.68e+00,5.00e+00,
473,4.00e+00,5.80e+00,
474,3.68e+00,5.20e+00,
475,4.00e+00,6.00e+00,
476,3.68e+00,6.20e+00,
477,4.00e+00,5.40e+00,
478,3.68e+00,5.60e+00,
479,4.00e+00,6.40e+00,
480,4.00e+00,5.80e+00,
481,3.68e+00,6.60e+00,
482,3.76e+00,6.00e+00,
483,4.08e+00,6.80e+00,
484,4.08e+00,6.20e+00,
485,3.76e+00,7.00e+00,
486,4.08e+00,6.40e+00,
487,3.76e+00,7.00e+00,
488,3.76e+00,6.40e+00,
489,4.16e+00,7.20e+00,
490,4.08e+00,6.60e+00,
491,3.84e+00,7.20e+00,
492,3.92e+00,6.80e+00,
493,4.16e+00,7.40e+00,
494,3.92e+00,6.80e+00,
495,4.16e+00,7.60e+00,
496,3.92e+00,7.60e+00,
497,4.16e+00,7.00e+00,
498,3.92e+00,7.00e+00,
499,4.16e+00,7.80e+00,
500,4.16e+00,7.80e+00,
501,3.92e+00,7.20e+00,
502,4.00e+00,7.40e+00,
503,4.24e+00,8.00e+00,
504,4.24e+00,8.00e+00,
505,4.00e+00,7.40e+00,
506,4.24e+00,8.00e+00,
507,4.00e+00,7.40e+00,
508,4.00e+00,8.20e+00,
509,4.32e+00,7.60e+00,
510,4.00e+00,7.60e+00,
511,4.32e+00,8.40e+00,
512,4.32e+00,7.60e+00,
513,4.08e+00,8.60e+00,
514,4.08e+00,8.00e+00,
515,4.32e+00,8.60e+00,
516,4.08e+00,8.00e+00,
517,4.32e+00,8.80e+00,
518,4.08e+00,8.20e+00,
519,4.32e+00,8.80e+00,
520,4.08e+00,8.20e+00,
521,4.40e+00,8.80e+00,
522,4.16e+00,8.20e+00,
523,4.40e+00,8.80e+00,
524,4.40e+00,8.80e+00,
525,4.16e+00,8.20e+00,
526,4.16e+00,8.40e+00,
527,4.40e+00,9.00e+00,
528,4.16e+00,8.40e+00,
529,4.40e+00,9.00e+00,
530,4.16e+00,8.40e+00,
531,4.48e+00,9.20e+00,
532,4.48e+00,8.60e+00,
533,4.16e+00,9.20e+00,
534,4.48e+00,8.60e+00,
535,4.24e+00,9.20e+00,
536,4.24e+00,9.20e+00,
537,4.48e+00,8.60e+00,
538,4.24e+00,9.20e+00,
539,4.48e+00,8.60e+00,
540,4.32e+00,9.20e+00,
541,4.56e+00,8.60e+00,
542,4.64e+00,8.80e+00,
543,4.32e+00,9.40e+00,
544,4.32e+00,9.40e+00,
545,4.64e+00,8.80e+00,
546,4.32e+00,9.40e+00,
547,4.64e+00,8.80e+00,
548,4.32e+00,8.80e+00,
549,4.64e+00,9.40e+00,
550,4.40e+00,8.80e+00,
551,4.72e+00,9.60e+00,
552,4.40e+00,9.00e+00,
553,4.72e+00,9.60e+00,
554,4.72e+00,9.00e+00,
555,4.40e+00,9.60e+00,
556,4.40e+00,9.60e+00,
557,4.72e+00,9.00e+00,
558,4.72e+00,9.60e+00,
559,4.40e+00,9.00e+00,
560,4.80e+00,9.00e+00,
561,4.48e+00,9.60e+00,
562,4.56e+00,9.60e+00,
563,4.80e+00,9.00e+00,
564,4.80e+00,9.00e+00,
565,4.56e+00,9.80e+00,
566,4.56e+00,9.80e+00,
567,4.80e+00,9.20e+00,
568,4.56e+00,9.20e+00,
569,4.88e+00,9.80e+00,
570,4.80e+00,9.20e+00,
571,4.64e+00,9.80e+00,
572,4.64e+00,9.80e+00,
573,4.88e+00,9.20e+00,
574,4.88e+00,9.80e+00,
575,4.64e+00,9.20e+00,
576,4.64e+00,9.80e+00,
577,4.88e+00,9.20e+00,
578,4.64e+00,9.20e+00,
579,4.88e+00,9.80e+00,
580,4.64e+00,9.20e+00,
581,4.96e+00,9.80e+00,
582,4.72e+00,9.80e+00,
583,4.96e+00,9.20e+00,
584,4.96e+00,9.80e+00,
585,4.72e+00,9.20e+00,
586,4.72e+00,9.40e+00,
587,4.96e+00,1.00e+01,
588,4.72e+00,1.00e+01,
589,4.96e+00,9.40e+00,
590,4.80e+00,1.00e+01,
591,5.04e+00,9.40e+00,
592,5.04e+00,1.00e+01,
593,4.80e+00,9.40e+00,
594,5.04e+00,1.00e+01,
595,4.80e+00,9.40e+00,
596,4.80e+00,1.00e+01,
597,5.12e+00,9.40e+00,
598,4.80e+00,1.00e+01,
599,5.12e+00,9.40e+00,
600,4.88e+00,1.00e+01,
601,5.12e+00,9.40e+00,
602,5.12e+00,1.00e+01,
603,4.88e+00,9.40e+00,
604,5.12e+00,1.00e+01,
605,4.88e+00,9.40e+00,
606,4.88e+00,1.00e+01,
607,5.12e+00,9.40e+00,
608,4.88e+00,1.00e+01,
609,5.20e+00,9.40e+00,
610,5.20e+00,1.00e+01,
611,4.96e+00,9.40e+00,
612,5.20e+00,1.00e+01,
613,4.96e+00,9.40e+00,
614,4.96e+00,1.00e+01,
615,5.28e+00,9.40e+00,
616,4.96e+00,1.00e+01,
617,5.20e+00,9.20e+00,
618,5.20e+00,9.80e+00,
619,4.96e+00,9.20e+00,
620,5.04e+00,9.20e+00,
621,5.36e+00,9.80e+00,
622,5.36e+00,9.80e+00,
623,5.04e+00,9.00e+00,
624,5.04e+00,9.40e+00,
625,5.36e+00,8.80e+00,
626,5.28e+00,9.20e+00,
627,5.04e+00,8.20e+00,
628,5.04e+00,8.80e+00,
629,5.44e+00,7.20e+00,
630,5.44e+00,7.60e+00,
631,5.12e+00,5.40e+00,
632,5.44e+00,5.60e+00,
633,5.12e+00,1.80e+00,
634,5.44e+00,1.80e+00,
635,5.12e+00,-1.40e+00,
636,5.36e+00,-1.40e+00,
637,5.12e+00,1.60e+00,
638,5.12e+00,1.80e+00,
639,5.52e+00,5.40e+00,
640,5.52e+00,5.40e+00,
641,5.20e+00,7.40e+00,
642,5.52e+00,7.20e+00,
643,5.20e+00,8.60e+00,
644,5.28e+00,8.20e+00,
645,5.52e+00,9.20e+00,
646,5.28e+00,8.80e+00,
647,5.60e+00,9.60e+00,
648,5.28e+00,9.00e+00,
649,5.60e+00,9.80e+00,
650,5.60e+00,9.80e+00,
651,5.28e+00,9.20e+00,
652,5.60e+00,9.40e+00,
653,5.28e+00,1.00e+01,
654,5.36e+00,9.40e+00,
655,5.60e+00,1.00e+01,
656,5.36e+00,9.60e+00,
657,5.60e+00,1.02e+01,
658,5.36e+00,9.60e+00,
659,5.68e+00,1.04e+01,
660,5.44e+00,9.60e+00,
661,5.68e+00,1.04e+01,
662,5.68e+00,1.02e+01,
663,5.44e+00,9.60e+00,
664,5.68e+00,9.60e+00,
665,5.44e+00,1.02e+01,
666,5.44e+00,9.80e+00,
667,5.68e+00,1.04e+01,
668,5.44e+00,9.60e+00,
669,5.76e+00,1.04e+01,
670,5.52e+00,9.80e+00,
671,5.76e+00,1.06e+01,
672,5.76e+00,9.80e+00,
673,5.52e+00,1.06e+01,
674,5.76e+00,9.80e+00,
675,5.52e+00,1.04e+01,
676,5.52e+00,1.06e+01,
677,5.76e+00,9.80e+00,
678,5.52e+00,1.00e+01,
679,5.84e+00,1.06e+01,
680,5.60e+00,1.06e+01,
681,5.84e+00,9.80e+00,
682,5.84e+00,1.06e+01,
683,5.60e+00,9.80e+00,
684,5.60e+00,1.06e+01,
685,5.84e+00,9.80e+00,
686,5.60e+00,1.00e+01,
687,5.84e+00,1.06e+01,
688,5.60e+00,1.06e+01,
689,5.92e+00,9.80e+00,
690,5.92e+00,1.06e+01,
691,5.68e+00,9.80e+00,
692,6.00e+00,1.06e+01,
693,5.68e+00,9.80e+00,
694,5.92e+00,1.06e+01,
695,5.68e+00,9.80e+00,
696,5.68e+00,1.06e+01,
697,5.92e+00,9.80e+00,
698,5.68e+00,1.06e+01,
699,6.00e+00,9.80e+00,
700,6.08e+00,1.00e+01,
701,5.84e+00,1.06e+01,
702,5.76e+00,1.06e+01,
703,6.08e+00,9.80e+00,
704,5.76e+00,9.80e+00,
705,6.08e+00,1.06e+01,
706,5.76e+00,9.80e+00,
707,6.08e+00,1.06e+01,
708,5.84e+00,1.06e+01,
709,6.16e+00,9.80e+00,
710,6.16e+00,1.06e+01,
711,5.84e+00,9.80e+00,
712,6.16e+00,9.80e+00,
713,5.92e+00,1.06e+01,
714,5.92e+00,9.80e+00,
715,6.16e+00,1.06e+01,
716,5.92e+00,9.80e+00,
717,6.16e+00,1.06e+01,
718,5.92e+00,1.06e+01,
719,6.24e+00,9.80e+00,
720,6.24e+00,1.00e+01,
721,5.92e+00,1.06e+01,
722,6.24e+00,1.06e+01,
723,6.00e+00,9.80e+00,
724,6.24e+00,1.06e+01,
725,6.00e+00,9.80e+00,
726,6.00e+00,1.04e+01,
727,6.32e+00,9.80e+00,
728,6.00e+00,9.80e+00,
729,6.32e+00,1.04e+01,
730,6.08e+00,1.04e+01,
731,6.32e+00,9.60e+00,
732,6.08e+00,9.60e+00,
733,6.32e+00,1.04e+01,
734,6.08e+00,9.60e+00,
735,6.32e+00,1.04e+01,
736,6.08e+00,9.60e+00,
737,6.40e+00,1.04e+01,
738,6.08e+00,1.00e+01,
739,6.40e+00,9.40e+00,
740,6.40e+00,9.40e+00,
741,6.16e+00,1.00e+01,
742,6.40e+00,9.80e+00,
743,6.16e+00,9.20e+00,
744,6.16e+00,9.60e+00,
745,6.40e+00,9.00e+00,
746,6.16e+00,9.60e+00,
747,6.48e+00,8.60e+00,
748,6.16e+00,9.20e+00,
749,6.48e+00,8.20e+00,
750,6.48e+00,8.80e+00,
751,6.24e+00,7.40e+00,
752,6.48e+00,8.00e+00,
753,6.24e+00,6.40e+00,
754,6.24e+00,6.80e+00,
755,6.56e+00,4.60e+00,
756,6.24e+00,4.80e+00,
757,6.56e+00,1.00e+00,
758,6.56e+00,1.60e+00,
759,6.32e+00,-5.60e+00,
760,6.56e+00,-5.60e+00,
761,6.32e+00,-1.32e+01,
762,6.56e+00,-1.40e+01,
763,6.32e+00,-1.04e+01,
764,6.32e+00,-1.04e+01,
765,6.56e+00,-2.60e+00,
766,6.32e+00,-2.60e+00,
767,6.64e+00,2.80e+00,
768,6.32e+00,2.60e+00,
769,6.72e+00,5.60e+00,
770,6.72e+00,5.20e+00,
771,6.40e+00,7.40e+00,
772,6.72e+00,6.80e+00,
773,6.40e+00,8.20e+00,
774,6.72e+00,7.80e+00,
775,6.40e+00,9.00e+00,
776,6.40e+00,8.40e+00,
777,6.72e+00,9.40e+00,
778,6.80e+00,8.80e+00,
779,6.40e+00,9.60e+00,
780,6.80e+00,9.20e+00,
781,6.48e+00,9.80e+00,
782,6.80e+00,9.20e+00,
783,6.48e+00,1.00e+01,
784,6.80e+00,1.00e+01,
785,6.48e+00,9.40e+00,
786,6.48e+00,1.02e+01,
787,6.88e+00,9.60e+00,
788,6.56e+00,9.60e+00,
789,6.88e+00,1.04e+01,
790,6.88e+00,9.80e+00,
791,6.64e+00,1.06e+01,
792,6.64e+00,1.06e+01,
793,6.88e+00,9.80e+00,
794,6.64e+00,1.06e+01,
795,6.96e+00,9.80e+00,
796,6.64e+00,1.06e+01,
797,6.96e+00,9.80e+00,
798,6.64e+00,1.06e+01,
799,6.96e+00,9.80e+00,
800,6.96e+00,1.06e+01,
801,6.72e+00,1.00e+01,
802,6.96e+00,1.06e+01,
803,6.72e+00,1.00e+01,
804,6.72e+00,1.02e+01,
805,6.96e+00,1.06e+01,
806,6.72e+00,1.02e+01,
807,7.04e+00,1.08e+01,
808,7.04e+00,1.08e+01,
809,6.72e+00,1.02e+01,
810,7.04e+00,1.02e+01,
811,6.72e+00,1.08e+01,
812,7.04e+00,1.02e+01,
813,6.80e+00,1.08e+01,
814,6.80e+00,1.02e+01,
815,7.12e+00,1.08e+01,
816,6.80e+00,1.08e+01,
817,7.12e+00,1.02e+01,
818,7.12e+00,1.02e+01,
819,6.80e+00,1.08e+01,
820,7.12e+00,1.02e+01,
821,6.88e+00,1.08e+01,
822,7.12e+00,1.02e+01,
823,6.88e+00,1.08e+01,
824,6.88e+00,1.02e+01,
825,7.12e+00,1.08e+01,
826,6.88e+00,1.02e+01,
827,7.20e+00,1.08e+01,
828,7.20e+00,1.02e+01,
829,6.96e+00,1.08e+01,
830,7.20e+00,1.08e+01,
831,6.96e+00,1.02e+01,
832,6.96e+00,1.02e+01,
833,7.20e+00,1.08e+01,
834,6.96e+00,1.08e+01,
835,7.20e+00,1.02e+01,
836,6.96e+00,1.02e+01,
837,7.28e+00,1.08e+01,
838,7.28e+00,1.02e+01,
839,6.96e+00,1.08e+01,
840,7.28e+00,1.08e+01,
841,6.96e+00,1.02e+01,
842,7.04e+00,1.02e+01,
843,7.28e+00,1.08e+01,
844,7.04e+00,1.08e+01,
845,7.28e+00,1.02e+01,
846,7.04e+00,1.02e+01,
847,7.36e+00,1.08e+01,
848,7.12e+00,1.02e+01,
849,7.44e+00,1.08e+01,
850,7.44e+00,1.08e+01,
851,7.12e+00,1.02e+01,
852,7.36e+00,1.08e+01,
853,7.12e+00,1.02e+01,
854,7.12e+00,1.02e+01,
855,7.44e+00,1.08e+01,
856,7.12e+00,1.02e+01,
857,7.52e+00,1.10e+01,
858,7.52e+00,1.10e+01,
859,7.20e+00,1.02e+01,
860,7.52e+00,1.08e+01,
861,7.28e+00,1.02e+01,
862,7.52e+00,1.02e+01,
863,7.20e+00,1.10e+01,
864,7.28e+00,1.08e+01,
