data/Mar 30 measurement/195kHz_17p5mV.csv

X,CH1,CH2,Start,Increment,
Sequence,Volt,Volt,6.150000e-01,5.000000e-03
0,4.56e-01,1.32e-01,
1,4.48e-01,1.32e-01,
2,4.50e-01,1.32e-01,
3,4.58e-01,1.32e-01,
4,4.55e-01,1.32e-01,
5,4.47e-01,1.34e-01,
6,4.57e-01,1.34e-01,
7,4.50e-01,1.32e-01,
8,4.52e-01,1.32e-01,
9,4.46e-01,1.36e-01,
10,4.58e-01,1.34e-01,
11,4.50e-01,1.32e-01,
12,4.47e-01,1.34e-01,
13,4.54e-01,1.32e-01,
14,4.59e-01,1.32e-01,
15,4.50e-01,1.34e-01,
16,4.48e-01,1.32e-01,
17,4.57e-01,1.34e-01,
18,4.60e-01,1.34e-01,
19,4.50e-01,1.32e-01,
20,4.50e-01,1.34e-01,
21,4.58e-01,1.32e-01,
22,4.59e-01,1.32e-01,
23,4.50e-01,1.34e-01,
24,4.50e-01,1.32e-01,
25,4.61e-01,1.34e-01,
26,4.61e-01,1.34e-01,
27,4.50e-01,1.32e-01,
28,4.51e-01,1.32e-01,
29,4.58e-01,1.34e-01,
30,4.62e-01,1.32e-01,
31,4.50e-01,1.34e-01,
32,4.51e-01,1.32e-01,
33,4.62e-01,1.34e-01,
34,4.62e-01,1.32e-01,
35,4.50e-01,1.34e-01,
36,4.50e-01,1.34e-01,
37,4.60e-01,1.32e-01,
38,4.61e-01,1.34e-01,
39,4.50e-01,1.32e-01,
40,4.50e-01,1.34e-01,
41,4.60e-01,1.32e-01,
42,4.62e-01,1.32e-01,
43,4.53e-01,1.34e-01,
44,4.51e-01,1.34e-01,
45,4.59e-01,1.32e-01,
46,4.62e-01,1.34e-01,
47,4.54e-01,1.32e-01,
48,4.51e-01,1.34e-01,
49,4.60e-01,1.32e-01,
50,4.64e-01,1.32e-01,
51,4.54e-01,1.34e-01,
52,4.54e-01,1.34e-01,
53,4.57e-01,1.32e-01,
54,4.58e-01,1.32e-01,
55,4.66e-01,1.34e-01,
56,4.61e-01,1.34e-01,
57,4.50e-01,1.32e-01,
58,4.54e-01,1.32e-01,
59,4.63e-01,1.34e-01,
60,4.65e-01,1.32e-01,
61,4.54e-01,1.32e-01,
62,4.53e-01,1.32e-01,
63,4.64e-01,1.34e-01,
64,4.65e-01,1.32e-01,
65,4.54e-01,1.34e-01,
66,4.52e-01,1.32e-01,
67,4.59e-01,1.34e-01,
68,4.63e-01,1.32e-01,
69,4.58e-01,1.34e-01,
70,4.59e-01,1.34e-01,
71,4.54e-01,1.32e-01,
72,4.54e-01,1.32e-01,
73,4.65e-01,1.34e-01,
74,4.65e-01,1.34e-01,
75,4.56e-01,1.32e-01,
76,4.56e-01,1.32e-01,
77,4.62e-01,1.34e-01,
78,4.68e-01,1.34e-01,
79,4.57e-01,1.32e-01,
80,4.58e-01,1.34e-01,
81,4.54e-01,1.32e-01,
82,4.56e-01,1.34e-01,
83,4.66e-01,1.32e-01,
84,4.67e-01,1.32e-01,
85,4.54e-01,1.34e-01,
86,4.57e-01,1.34e-01,
87,4.64e-01,1.30e-01,
88,4.69e-01,1.34e-01,
89,4.61e-01,1.30e-01,
90,4.60e-01,1.34e-01,
91,4.55e-01,1.30e-01,
92,4.58e-01,1.34e-01,
93,4.67e-01,1.30e-01,
94,4.68e-01,1.32e-01,
95,4.61e-01,1.30e-01,
96,4.56e-01,1.34e-01,
97,4.61e-01,1.30e-01,
98,4.58e-01,1.34e-01,
99,4.67e-01,1.30e-01,
100,4.70e-01,1.30e-01,
101,4.60e-01,1.32e-01,
102,4.56e-01,1.32e-01,
103,4.61e-01,1.30e-01,
104,4.58e-01,1.30e-01,
105,4.69e-01,1.30e-01,
106,4.70e-01,1.30e-01,
107,4.59e-01,1.30e-01,
108,4.62e-01,1.30e-01,
109,4.58e-01,1.30e-01,
110,4.60e-01,1.30e-01,
111,4.68e-01,1.30e-01,
112,4.70e-01,1.30e-01,
113,4.66e-01,1.30e-01,
114,4.65e-01,1.30e-01,
115,4.60e-01,1.30e-01,
116,4.59e-01,1.30e-01,
117,4.64e-01,1.30e-01,
118,4.66e-01,1.30e-01,
119,4.72e-01,1.30e-01,
120,4.70e-01,1.30e-01,
121,4.60e-01,1.30e-01,
122,4.60e-01,1.30e-01,
123,4.64e-01,1.28e-01,
124,4.60e-01,1.30e-01,
125,4.70e-01,1.30e-01,
126,4.72e-01,1.30e-01,
127,4.66e-01,1.30e-01,
128,4.70e-01,1.30e-01,
129,4.60e-01,1.30e-01,
130,4.60e-01,1.30e-01,
131,4.64e-01,1.30e-01,
132,4.61e-01,1.30e-01,
133,4.71e-01,1.30e-01,
134,4.68e-01,1.30e-01,
135,4.72e-01,1.30e-01,
136,4.70e-01,1.30e-01,
137,4.61e-01,1.30e-01,
138,4.58e-01,1.30e-01,
139,4.66e-01,1.30e-01,
140,4.62e-01,1.30e-01,
141,4.70e-01,1.30e-01,
142,4.67e-01,1.30e-01,
143,4.73e-01,1.30e-01,
144,4.74e-01,1.30e-01,
145,4.64e-01,1.30e-01,
146,4.65e-01,1.30e-01,
147,4.61e-01,1.28e-01,
148,4.66e-01,1.30e-01,
149,4.62e-01,1.26e-01,
150,4.66e-01,1.26e-01,
151,4.73e-01,1.28e-01,
152,4.70e-01,1.26e-01,
153,4.74e-01,1.30e-01,
154,4.74e-01,1.26e-01,
155,4.66e-01,1.28e-01,
156,4.68e-01,1.26e-01,
157,4.62e-01,1.28e-01,
158,4.66e-01,1.28e-01,
159,4.64e-01,1.26e-01,
160,4.66e-01,1.28e-01,
161,4.70e-01,1.26e-01,
162,4.69e-01,1.26e-01,
163,4.74e-01,1.28e-01,
164,4.71e-01,1.26e-01,
165,4.75e-01,1.28e-01,
166,4.77e-01,1.28e-01,
167,4.67e-01,1.26e-01,
168,4.69e-01,1.26e-01,
169,4.65e-01,1.28e-01,
170,4.68e-01,1.28e-01,
171,4.62e-01,1.26e-01,
172,4.64e-01,1.28e-01,
173,4.69e-01,1.26e-01,
174,4.66e-01,1.28e-01,
175,4.73e-01,1.24e-01,
176,4.70e-01,1.24e-01,
177,4.75e-01,1.26e-01,
178,4.73e-01,1.24e-01,
179,4.77e-01,1.26e-01,
180,4.77e-01,1.24e-01,
181,4.72e-01,1.26e-01,
182,4.73e-01,1.24e-01,
183,4.70e-01,1.26e-01,
184,4.70e-01,1.24e-01,
185,4.67e-01,1.26e-01,
186,4.69e-01,1.24e-01,
187,4.65e-01,1.24e-01,
188,4.66e-01,1.26e-01,
189,4.70e-01,1.24e-01,
190,4.65e-01,1.24e-01,
191,4.70e-01,1.24e-01,
192,4.66e-01,1.26e-01,
193,4.71e-01,1.22e-01,
194,4.67e-01,1.26e-01,
195,4.71e-01,1.20e-01,
196,4.70e-01,1.26e-01,
197,4.74e-01,1.20e-01,
198,4.71e-01,1.22e-01,
199,4.76e-01,1.22e-01,
200,4.78e-01,1.20e-01,
201,4.74e-01,1.22e-01,
202,4.79e-01,1.22e-01,
203,4.76e-01,1.20e-01,
204,4.78e-01,1.20e-01,
205,4.76e-01,1.22e-01,
206,4.76e-01,1.22e-01,
207,4.79e-01,1.20e-01,
208,4.75e-01,1.20e-01,
209,4.79e-01,1.22e-01,
210,4.80e-01,1.22e-01,
211,4.76e-01,1.18e-01,
212,4.78e-01,1.18e-01,
213,4.82e-01,1.18e-01,
214,4.80e-01,1.18e-01,
215,4.75e-01,1.20e-01,
216,4.79e-01,1.18e-01,
217,4.74e-01,1.20e-01,
218,4.78e-01,1.20e-01,
219,4.72e-01,1.18e-01,
220,4.76e-01,1.18e-01,
221,4.73e-01,1.16e-01,
222,4.72e-01,1.18e-01,
223,4.76e-01,1.14e-01,
224,4.72e-01,1.16e-01,
225,4.76e-01,1.16e-01,
226,4.75e-01,1.16e-01,
227,4.71e-01,1.14e-01,
228,4.73e-01,1.16e-01,
229,4.77e-01,1.14e-01,
230,4.78e-01,1.16e-01,
231,4.73e-01,1.12e-01,
232,4.74e-01,1.12e-01,
233,4.78e-01,1.14e-01,
234,4.78e-01,1.12e-01,
235,4.73e-01,1.12e-01,
236,4.74e-01,1.10e-01,
237,4.78e-01,1.12e-01,
238,4.78e-01,1.10e-01,
239,4.75e-01,1.10e-01,
240,4.75e-01,1.10e-01,
241,4.79e-01,1.10e-01,
242,4.80e-01,1.10e-01,
243,4.75e-01,1.06e-01,
244,4.80e-01,1.06e-01,
245,4.84e-01,1.08e-01,
246,4.82e-01,1.08e-01,
247,4.84e-01,1.04e-01,
248,4.81e-01,1.04e-01,
249,4.84e-01,1.04e-01,
250,4.80e-01,1.04e-01,
251,4.85e-01,1.02e-01,
252,4.81e-01,1.02e-01,
253,4.84e-01,1.02e-01,
254,4.82e-01,1.02e-01,
255,4.78e-01,9.80e-02,
256,4.79e-01,9.80e-02,
257,4.75e-01,1.00e-01,
258,4.74e-01,9.80e-02,
259,4.77e-01,9.40e-02,
260,4.72e-01,9.60e-02,
261,4.78e-01,9.40e-02,
262,4.73e-01,9.60e-02,
263,4.76e-01,9.20e-02,
264,4.74e-01,9.20e-02,
265,4.79e-01,8.80e-02,
266,4.78e-01,9.00e-02,
267,4.82e-01,8.60e-02,
268,4.81e-01,8.60e-02,
269,4.86e-01,8.40e-02,
270,4.85e-01,8.40e-02,
271,4.81e-01,8.20e-02,
272,4.86e-01,8.20e-02,
273,4.78e-01,8.00e-02,
274,4.84e-01,8.00e-02,
275,4.78e-01,7.80e-02,
276,4.81e-01,7.80e-02,
277,4.75e-01,7.40e-02,
278,4.75e-01,7.60e-02,
279,4.78e-01,7.20e-02,
280,4.76e-01,7.20e-02,
281,4.79e-01,6.80e-02,
282,4.78e-01,6.80e-02,
283,4.82e-01,6.40e-02,
284,4.81e-01,6.40e-02,
285,4.88e-01,6.00e-02,
286,4.88e-01,6.20e-02,
287,4.84e-01,5.60e-02,
288,4.86e-01,5.60e-02,
289,4.84e-01,5.20e-02,
290,4.86e-01,5.00e-02,
291,4.79e-01,4.80e-02,
292,4.81e-01,4.80e-02,
293,4.76e-01,4.40e-02,
294,4.76e-01,4.20e-02,
295,4.79e-01,3.80e-02,
296,4.77e-01,3.80e-02,
297,4.82e-01,3.20e-02,
298,4.79e-01,3.40e-02,
299,4.88e-01,2.60e-02,
300,4.90e-01,2.60e-02,
301,4.86e-01,1.80e-02,
302,4.90e-01,1.80e-02,
303,4.84e-01,1.00e-02,
304,4.87e-01,1.00e-02,
305,4.83e-01,2.00e-03,
306,4.82e-01,0.00e+00,
307,4.79e-01,-8.00e-03,
308,4.78e-01,-8.00e-03,
309,4.80e-01,-1.80e-02,
310,4.82e-01,-1.60e-02,
311,4.78e-01,-2.40e-02,
312,4.82e-01,-2.40e-02,
313,4.90e-01,-3.40e-02,
314,4.90e-01,-3.40e-02,
315,4.86e-01,-4.00e-02,
316,4.90e-01,-4.20e-02,
317,4.86e-01,-4.80e-02,
318,4.86e-01,-5.00e-02,
319,4.80e-01,-5.60e-02,
320,4.84e-01,-5.60e-02,
321,4.78e-01,-6.60e-02,
322,4.80e-01,-6.60e-02,
323,4.84e-01,-7.40e-02,
324,4.82e-01,-7.20e-02,
325,4.90e-01,-8.20e-02,
326,4.94e-01,-8.20e-02,
327,4.88e-01,-8.80e-02,
328,4.91e-01,-8.80e-02,
329,4.86e-01,-9.40e-02,
330,4.82e-01,-9.40e-02,
331,4.87e-01,-9.80e-02,
332,4.83e-01,-9.60e-02,
333,4.79e-01,-1.00e-01,
334,4.82e-01,-1.00e-01,
335,4.86e-01,-9.60e-02,
336,4.82e-01,-1.00e-01,
337,4.92e-01,-9.60e-02,
338,4.94e-01,-9.80e-02,
339,4.88e-01,-9.40e-02,
340,4.92e-01,-9.40e-02,
341,4.87e-01,-8.80e-02,
342,4.90e-01,-8.80e-02,
343,4.84e-01,-8.00e-02,
344,4.85e-01,-8.00e-02,
345,4.80e-01,-7.20e-02,
346,4.82e-01,-7.00e-02,
347,4.86e-01,-6.20e-02,
348,4.85e-01,-6.20e-02,
349,4.92e-01,-5.20e-02,
350,4.90e-01,-5.40e-02,
351,4.95e-01,-4.80e-02,
352,4.94e-01,-4.40e-02,
353,4.90e-01,-4.00e-02,
354,4.87e-01,-3.80e-02,
355,4.84e-01,-3.00e-02,
356,4.89e-01,-3.00e-02,
357,4.82e-01,-2.20e-02,
358,4.86e-01,-2.20e-02,
359,4.90e-01,-1.20e-02,
360,4.88e-01,-1.20e-02,
361,4.95e-01,-4.00e-03,
362,4.94e-01,-2.00e-03,
363,4.90e-01,4.00e-03,
364,4.94e-01,4.00e-03,
365,4.85e-01,1.00e-02,
366,4.89e-01,1.20e-02,
367,4.85e-01,1.80e-02,
368,4.84e-01,1.80e-02,
369,4.89e-01,2.20e-02,
370,4.86e-01,2.40e-02,
371,4.93e-01,2.80e-02,
372,4.96e-01,2.60e-02,
373,4.93e-01,3.20e-02,
374,4.95e-01,3.20e-02,
375,4.90e-01,3.80e-02,
376,4.89e-01,3.80e-02,
377,4.86e-01,4.40e-02,
378,4.89e-01,4.60e-02,
379,4.86e-01,5.00e-02,
380,4.86e-01,5.20e-02,
381,4.93e-01,5.60e-02,
382,4.91e-01,5.60e-02,
383,4.98e-01,6.20e-02,
384,4.98e-01,6.00e-02,
385,4.92e-01,6.40e-02,
386,4.95e-01,6.40e-02,
387,4.89e-01,7.00e-02,
388,4.86e-01,7.00e-02,
389,4.91e-01,7.40e-02,
390,4.91e-01,7.20e-02,
391,4.87e-01,7.60e-02,
392,4.92e-01,7.60e-02,
393,5.00e-01,8.00e-02,
394,4.99e-01,7.80e-02,
395,4.94e-01,8.20e-02,
396,4.95e-01,8.00e-02,
397,4.87e-01,8.60e-02,
398,4.87e-01,8.40e-02,
399,4.92e-01,8.80e-02,
400,4.86e-01,8.60e-02,
401,4.92e-01,9.00e-02,
402,4.91e-01,9.00e-02,
403,4.99e-01,9.00e-02,
404,5.01e-01,9.20e-02,
405,4.97e-01,9.40e-02,
406,4.98e-01,9.20e-02,
407,4.94e-01,9.60e-02,
408,4.92e-01,9.60e-02,
409,4.89e-01,9.60e-02,
410,4.88e-01,9.80e-02,
411,4.93e-01,1.00e-01,
412,4.91e-01,9.80e-02,
413,4.96e-01,1.02e-01,
414,4.95e-01,1.02e-01,
415,5.01e-01,1.00e-01,
416,4.99e-01,1.02e-01,
417,4.96e-01,1.00e-01,
418,4.98e-01,1.00e-01,
419,4.90e-01,1.06e-01,
420,4.93e-01,1.04e-01,
421,4.90e-01,1.04e-01,
422,4.90e-01,1.04e-01,
423,4.95e-01,1.04e-01,
424,4.95e-01,1.04e-01,
425,5.02e-01,1.06e-01,
426,5.02e-01,1.06e-01,
427,4.98e-01,1.08e-01,
428,5.00e-01,1.06e-01,
429,4.94e-01,1.10e-01,
430,4.96e-01,1.10e-01,
431,4.91e-01,1.10e-01,
432,4.90e-01,1.08e-01,
433,4.94e-01,1.10e-01,
434,4.94e-01,1.08e-01,
435,5.00e-01,1.14e-01,
436,5.06e-01,1.14e-01,
437,4.99e-01,1.12e-01,
438,5.03e-01,1.14e-01,
439,4.97e-01,1.12e-01,
440,4.98e-01,1.12e-01,
441,4.93e-01,1.16e-01,
442,4.96e-01,1.16e-01,
443,4.92e-01,1.14e-01,
444,4.94e-01,1.14e-01,
445,4.98e-01,1.16e-01,
446,4.95e-01,1.16e-01,
447,5.04e-01,1.14e-01,
448,5.04e-01,1.16e-01,
449,5.01e-01,1.14e-01,
450,5.01e-01,1.16e-01,
451,4.97e-01,1.20e-01,
452,4.98e-01,1.20e-01,
453,4.94e-01,1.18e-01,
454,4.93e-01,1.18e-01,
455,4.97e-01,1.18e-01,
456,4.98e-01,1.18e-01,
457,5.06e-01,1.20e-01,
458,5.06e-01,1.18e-01,
459,5.01e-01,1.20e-01,
460,5.05e-01,1.18e-01,
461,4.97e-01,1.22e-01,
462,4.98e-01,1.22e-01,
463,4.94e-01,1.18e-01,
464,4.94e-01,1.20e-01,
465,4.98e-01,1.22e-01,
466,4.98e-01,1.20e-01,
467,5.05e-01,1.22e-01,
468,5.08e-01,1.22e-01,
469,5.02e-01,1.20e-01,
470,5.06e-01,1.20e-01,
471,4.96e-01,1.22e-01,
472,4.99e-01,1.20e-01,
473,4.94e-01,1.22e-01,
474,4.96e-01,1.24e-01,
475,5.00e-01,1.20e-01,
476,4.98e-01,1.24e-01,
477,5.07e-01,1.24e-01,
478,5.08e-01,1.24e-01,
479,5.02e-01,1.26e-01,
480,5.06e-01,1.24e-01,
481,4.95e-01,1.24e-01,
482,4.99e-01,1.24e-01,
483,4.96e-01,1.26e-01,
484,4.95e-01,1.24e-01,
485,5.02e-01,1.24e-01,
486,5.02e-01,1.24e-01,
487,5.08e-01,1.24e-01,
488,5.07e-01,1.24e-01,
489,5.02e-01,1.24e-01,
490,5.04e-01,1.24e-01,
491,4.97e-01,1.24e-01,
492,5.01e-01,1.24e-01,
493,4.97e-01,1.24e-01,
494,4.98e-01,1.28e-01,
495,5.10e-01,1.24e-01,
496,5.10e-01,1.28e-01,
497,5.05e-01,1.26e-01,
498,5.08e-01,1.26e-01,
499,5.01e-01,1.28e-01,
500,5.02e-01,1.28e-01,
501,4.97e-01,1.26e-01,
502,4.99e-01,1.28e-01,
503,5.03e-01,1.26e-01,
504,5.05e-01,1.26e-01,
505,5.10e-01,1.28e-01,
506,5.09e-01,1.26e-01,
507,5.04e-01,1.28e-01,
508,5.06e-01,1.28e-01,
509,4.99e-01,1.26e-01,
510,5.05e-01,1.28e-01,
511,4.99e-01,1.26e-01,
512,5.01e-01,1.28e-01,
513,5.10e-01,1.26e-01,
514,5.10e-01,1.28e-01,
515,5.06e-01,1.26e-01,
516,5.09e-01,1.26e-01,
517,5.01e-01,1.28e-01,
518,5.02e-01,1.26e-01,
519,4.98e-01,1.28e-01,
520,5.00e-01,1.30e-01,
521,5.10e-01,1.26e-01,
522,5.12e-01,1.26e-01,
523,5.06e-01,1.30e-01,
524,5.11e-01,1.28e-01,
525,5.01e-01,1.30e-01,
526,5.03e-01,1.30e-01,
527,4.99e-01,1.26e-01,
528,5.02e-01,1.30e-01,
529,5.14e-01,1.30e-01,
530,5.14e-01,1.30e-01,
531,5.06e-01,1.30e-01,
532,5.09e-01,1.30e-01,
533,5.01e-01,1.30e-01,
534,5.00e-01,1.30e-01,
535,5.06e-01,1.30e-01,
536,5.05e-01,1.30e-01,
537,5.12e-01,1.30e-01,
538,5.12e-01,1.30e-01,
539,5.08e-01,1.30e-01,
540,5.06e-01,1.30e-01,
541,5.02e-01,1.30e-01,
542,5.02e-01,1.30e-01,
543,5.08e-01,1.30e-01,
544,5.09e-01,1.30e-01,
545,5.14e-01,1.30e-01,
546,5.14e-01,1.30e-01,
547,5.04e-01,1.28e-01,
548,5.02e-01,1.28e-01,
549,5.06e-01,1.30e-01,
550,5.04e-01,1.30e-01,
551,5.12e-01,1.30e-01,
552,5.17e-01,1.30e-01,
553,5.10e-01,1.30e-01,
554,5.14e-01,1.30e-01,
555,5.05e-01,1.30e-01,
556,5.02e-01,1.30e-01,
557,5.08e-01,1.30e-01,
558,5.09e-01,1.30e-01,
559,5.16e-01,1.30e-01,
560,5.17e-01,1.30e-01,
561,5.08e-01,1.30e-01,
562,5.08e-01,1.30e-01,
563,5.05e-01,1.30e-01,
564,5.06e-01,1.30e-01,
565,5.15e-01,1.30e-01,
566,5.15e-01,1.30e-01,
567,5.11e-01,1.30e-01,
568,5.12e-01,1.30e-01,
569,5.06e-01,1.30e-01,
570,5.02e-01,1.34e-01,
571,5.10e-01,1.30e-01,
572,5.09e-01,1.34e-01,
573,5.18e-01,1.30e-01,
574,5.14e-01,1.30e-01,
575,5.08e-01,1.34e-01,
576,5.09e-01,1.30e-01,
577,5.06e-01,1.34e-01,
578,5.07e-01,1.30e-01,
579,5.16e-01,1.34e-01,
580,5.18e-01,1.34e-01,
581,5.07e-01,1.30e-01,
582,5.10e-01,1.30e-01,
583,5.05e-01,1.34e-01,
584,5.08e-01,1.34e-01,
585,5.18e-01,1.32e-01,
586,5.19e-01,1.34e-01,
587,5.10e-01,1.32e-01,
588,5.11e-01,1.32e-01,
589,5.06e-01,1.34e-01,
590,5.09e-01,1.34e-01,
591,5.19e-01,1.32e-01,
592,5.19e-01,1.32e-01,
593,5.12e-01,1.34e-01,
594,5.07e-01,1.32e-01,
595,5.14e-01,1.34e-01,
596,5.10e-01,1.32e-01,
597,5.16e-01,1.34e-01,
598,5.21e-01,1.34e-01,
599,5.14e-01,1.32e-01,
600,5.12e-01,1.34e-01,
601,5.08e-01,1.32e-01,
602,5.10e-01,1.32e-01,
603,5.21e-01,1.34e-01,
604,5.21e-01,1.34e-01,
605,5.14e-01,1.32e-01,
606,5.15e-01,1.32e-01,
607,5.07e-01,1.34e-01,
608,5.12e-01,1.34e-01,
609,5.22e-01,1.32e-01,
610,5.20e-01,1.34e-01,
611,5.10e-01,1.32e-01,
612,5.10e-01,1.32e-01,
613,5.14e-01,1.34e-01,
614,5.14e-01,1.34e-01,
615,5.22e-01,1.32e-01,
616,5.19e-01,1.32e-01,
617,5.10e-01,1.34e-01,
618,5.10e-01,1.34e-01,
619,5.16e-01,1.32e-01,
620,5.16e-01,1.32e-01,
621,5.22e-01,1.34e-01,
622,5.22e-01,1.32e-01,
623,5.10e-01,1.34e-01,
624,5.11e-01,1.32e-01,
625,5.20e-01,1.34e-01,
626,5.22e-01,1.34e-01,
627,5.14e-01,1.32e-01,
628,5.15e-01,1.32e-01,
629,5.11e-01,1.32e-01,
630,5.14e-01,1.32e-01,
631,5.22e-01,1.32e-01,
632,5.23e-01,1.32e-01,
633,5.13e-01,1.32e-01,
634,5.10e-01,1.34e-01,
635,5.22e-01,1.32e-01,
636,5.22e-01,1.32e-01,
637,5.16e-01,1.34e-01,
638,5.17e-01,1.32e-01,
639,5.13e-01,1.34e-01,
640,5.15e-01,1.32e-01,
641,5.23e-01,1.34e-01,
642,5.24e-01,1.34e-01,
643,5.12e-01,1.32e-01,
644,5.13e-01,1.32e-01,
645,5.22e-01,1.34e-01,
646,5.25e-01,1.32e-01,
647,5.17e-01,1.34e-01,
648,5.18e-01,1.34e-01,
649,5.14e-01,1.32e-01,
650,5.24e-01,1.34e-01,
651,5.17e-01,1.32e-01,
652,5.22e-01,1.32e-01,
653,5.14e-01,1.34e-01,
654,5.13e-01,1.32e-01,
655,5.25e-01,1.34e-01,
656,5.25e-01,1.32e-01,
657,5.17e-01,1.34e-01,
658,5.15e-01,1.34e-01,
659,5.23e-01,1.32e-01,
660,5.25e-01,1.32e-01,
661,5.18e-01,1.34e-01,
662,5.20e-01,1.34e-01,
663,5.14e-01,1.32e-01,
664,5.18e-01,1.32e-01,
665,5.26e-01,1.34e-01,
666,5.24e-01,1.34e-01,
667,5.14e-01,1.32e-01,
668,5.14e-01,1.32e-01,
669,5.29e-01,1.34e-01,
670,5.25e-01,1.32e-01,
671,5.15e-01,1.34e-01,
672,5.15e-01,1.32e-01,
673,5.26e-01,1.34e-01,
674,5.27e-01,1.34e-01,
675,5.18e-01,1.32e-01,
676,5.17e-01,1.34e-01,
677,5.23e-01,1.32e-01,
678,5.28e-01,1.34e-01,
679,5.20e-01,1.32e-01,
680,5.17e-01,1.32e-01,
681,5.22e-01,1.34e-01,
682,5.22e-01,1.34e-01,
683,5.28e-01,1.32e-01,
684,5.25e-01,1.32e-01,
685,5.16e-01,1.34e-01,
686,5.20e-01,1.32e-01,
687,5.29e-01,1.34e-01,
688,5.26e-01,1.34e-01,
689,5.17e-01,1.32e-01,
690,5.18e-01,1.32e-01,
691,5.29e-01,1.32e-01,
692,5.28e-01,1.32e-01,
693,5.18e-01,1.34e-01,
694,5.18e-01,1.32e-01,
695,5.30e-01,1.34e-01,
696,5.33e-01,1.34e-01,
697,5.19e-01,1.32e-01,
698,5.18e-01,1.32e-01,
699,5.31e-01,1.34e-01,
700,5.30e-01,1.34e-01,
701,5.22e-01,1.32e-01,
702,5.19e-01,1.32e-01,
703,5.29e-01,1.36e-01,
704,5.31e-01,1.32e-01,
705,5.20e-01,1.34e-01,
706,5.19e-01,1.34e-01,
707,5.25e-01,1.32e-01,
708,5.30e-01,1.32e-01,
709,5.23e-01,1.34e-01,
710,5.19e-01,1.32e-01,
711,5.26e-01,1.36e-01,
712,5.31e-01,1.32e-01,
713,5.25e-01,1.34e-01,
714,5.21e-01,1.32e-01,
715,5.26e-01,1.34e-01,
716,5.25e-01,1.32e-01,
717,5.32e-01,1.34e-01,
718,5.19e-01,1.36e-01,
719,5.27e-01,1.32e-01,
720,5.34e-01,1.32e-01,
721,5.26e-01,1.34e-01,
722,5.25e-01,1.32e-01,
723,5.20e-01,1.34e-01,
724,5.32e-01,1.32e-01,
725,5.23e-01,1.34e-01,
726,5.22e-01,1.34e-01,
727,5.29e-01,1.32e-01,
728,5.26e-01,1.32e-01,
729,5.33e-01,1.36e-01,
730,5.20e-01,1.36e-01,
731,5.28e-01,1.32e-01,
732,5.34e-01,1.32e-01,
733,5.26e-01,1.36e-01,
734,5.22e-01,1.32e-01,
735,5.28e-01,1.36e-01,
736,5.33e-01,1.32e-01,
737,5.27e-01,1.36e-01,
738,5.23e-01,1.36e-01,
739,5.30e-01,1.32e-01,
740,5.34e-01,1.36e-01,
741,5.27e-01,1.32e-01,
742,5.23e-01,1.32e-01,
743,5.29e-01,1.36e-01,
744,5.35e-01,1.32e-01,
745,5.24e-01,1.36e-01,
746,5.22e-01,1.32e-01,
747,5.30e-01,1.36e-01,
748,5.34e-01,1.32e-01,
749,5.26e-01,1.36e-01,
750,5.23e-01,1.32e-01,
751,5.30e-01,1.36e-01,
752,5.35e-01,1.32e-01,
753,5.23e-01,1.36e-01,
754,5.23e-01,1.32e-01,
755,5.34e-01,1.36e-01,
756,5.36e-01,1.32e-01,
757,5.26e-01,1.36e-01,
758,5.26e-01,1.36e-01,
759,5.34e-01,1.32e-01,
760,5.36e-01,1.36e-01,
761,5.27e-01,1.32e-01,
762,5.25e-01,1.36e-01,
763,5.36e-01,1.32e-01,
764,5.34e-01,1.36e-01,
765,5.27e-01,1.32e-01,
766,5.26e-01,1.32e-01,
767,5.36e-01,1.36e-01,
768,5.36e-01,1.36e-01,
769,5.25e-01,1.34e-01,
770,5.24e-01,1.36e-01,
771,5.36e-01,1.34e-01,
772,5.37e-01,1.36e-01,
773,5.26e-01,1.34e-01,
774,5.26e-01,1.36e-01,
775,5.37e-01,1.32e-01,
776,5.36e-01,1.36e-01,
777,5.28e-01,1.34e-01,
778,5.28e-01,1.36e-01,
779,5.38e-01,1.34e-01,
780,5.37e-01,1.32e-01,
781,5.29e-01,1.36e-01,
782,5.30e-01,1.36e-01,
783,5.39e-01,1.32e-01,
784,5.33e-01,1.36e-01,
785,5.29e-01,1.34e-01,
786,5.30e-01,1.36e-01,
787,5.38e-01,1.32e-01,
788,5.34e-01,1.36e-01,
789,5.28e-01,1.32e-01,
790,5.39e-01,1.36e-01,
791,5.32e-01,1.32e-01,
792,5.29e-01,1.36e-01,
793,5.34e-01,1.34e-01,
794,5.40e-01,1.36e-01,
795,5.31e-01,1.32e-01,
796,5.28e-01,1.36e-01,
797,5.35e-01,1.34e-01,
798,5.40e-01,1.32e-01,
799,5.30e-01,1.36e-01,
800,5.29e-01,1.36e-01,
801,5.39e-01,1.32e-01,
802,5.40e-01,1.36e-01,
803,5.30e-01,1.36e-01,
804,5.30e-01,1.36e-01,
805,5.40e-01,1.34e-01,
806,5.40e-01,1.36e-01,
807,5.31e-01,1.34e-01,
808,5.32e-01,1.36e-01,
809,5.42e-01,1.32e-01,
810,5.42e-01,1.36e-01,
811,5.32e-01,1.32e-01,
812,5.31e-01,1.34e-01,
813,5.39e-01,1.36e-01,
814,5.39e-01,1.36e-01,
815,5.30e-01,1.34e-01,
816,5.33e-01,1.36e-01,
817,5.42e-01,1.34e-01,
818,5.36e-01,1.36e-01,
819,5.30e-01,1.32e-01,
820,5.42e-01,1.34e-01,
821,5.36e-01,1.36e-01,
822,5.30e-01,1.36e-01,
823,5.36e-01,1.36e-01,
824,5.43e-01,1.36e-01,
825,5.33e-01,1.32e-01,
826,5.32e-01,1.36e-01,
827,5.42e-01,1.34e-01,
828,5.43e-01,1.36e-01,
829,5.34e-01,1.36e-01,
830,5.30e-01,1.36e-01,
831,5.44e-01,1.34e-01,
832,5.42e-01,1.36e-01,
833,5.33e-01,1.34e-01,
834,5.32e-01,1.34e-01,
835,5.43e-01,1.36e-01,
836,5.42e-01,1.36e-01,
837,5.33e-01,1.32e-01,
838,5.32e-01,1.34e-01,
839,5.44e-01,1.36e-01,
840,5.33e-01,1.36e-01,
841,5.40e-01,1.34e-01,
842,5.46e-01,1.36e-01,
843,5.34e-01,1.34e-01,
844,5.34e-01,1.36e-01,
845,5.43e-01,1.36e-01,
846,5.43e-01,1.36e-01,
847,5.35e-01,1.34e-01,
848,5.34e-01,1.36e-01,
849,5.46e-01,1.34e-01,
850,5.44e-01,1.36e-01,
851,5.34e-01,1.34e-01,
852,5.36e-01,1.36e-01,
853,5.47e-01,1.34e-01,
854,5.41e-01,1.36e-01,
855,5.34e-01,1.36e-01,
856,5.39e-01,1.36e-01,
857,5.46e-01,1.34e-01,
858,5.34e-01,1.36e-01,
859,5.43e-01,1.32e-01,
860,5.46e-01,1.36e-01,
861,5.37e-01,1.36e-01,
862,5.35e-01,1.36e-01,
863,5.49e-01,1.34e-01,
864,5.47e-01,1.34e-01,
865,5.36e-01,1.36e-01,
866,5.39e-01,1.34e-01,
867,5.46e-01,1.36e-01,
