data/Mar 30 measurement/195kHz_30p4mV.csv

X,CH1,CH2,Start,Increment,
Sequence,Volt,Volt,-2.465000e+00,5.000000e-03
0,9.36e-02,1.28e-01,
1,9.92e-02,1.26e-01,
2,9.84e-02,1.26e-01,
3,9.28e-02,1.28e-01,
4,1.00e-01,1.28e-01,
5,9.44e-02,1.26e-01,
6,9.60e-02,1.28e-01,
7,9.92e-02,1.26e-01,
8,1.01e-01,1.28e-01,
9,9.28e-02,1.26e-01,
10,9.44e-02,1.26e-01,
11,1.01e-01,1.28e-01,
12,1.04e-01,1.28e-01,
13,9.52e-02,1.26e-01,
14,9.92e-02,1.28e-01,
15,9.60e-02,1.26e-01,
16,1.02e-01,1.28e-01,
17,9.52e-02,1.26e-01,
18,9.60e-02,1.26e-01,
19,1.02e-01,1.28e-01,
20,9.52e-02,1.28e-01,
21,1.02e-01,1.24e-01,
22,1.01e-01,1.28e-01,
23,9.60e-02,1.24e-01,
24,1.03e-01,1.28e-01,
25,9.68e-02,1.24e-01,
26,9.84e-02,1.24e-01,
27,9.68e-02,1.26e-01,
28,9.52e-02,1.24e-01,
29,1.03e-01,1.26e-01,
30,9.76e-02,1.26e-01,
31,1.03e-01,1.24e-01,
32,9.76e-02,1.24e-01,
33,1.02e-01,1.26e-01,
34,9.92e-02,1.24e-01,
35,1.03e-01,1.24e-01,
36,9.84e-02,1.24e-01,
37,1.02e-01,1.24e-01,
38,9.84e-02,1.24e-01,
39,1.05e-01,1.24e-01,
40,1.03e-01,1.24e-01,
41,9.92e-02,1.26e-01,
42,1.05e-01,1.24e-01,
43,1.00e-01,1.26e-01,
44,9.92e-02,1.26e-01,
45,1.05e-01,1.24e-01,
46,1.00e-01,1.24e-01,
47,1.05e-01,1.24e-01,
48,9.84e-02,1.26e-01,
49,1.05e-01,1.20e-01,
50,1.04e-01,1.22e-01,
51,9.92e-02,1.20e-01,
52,9.92e-02,1.20e-01,
53,1.04e-01,1.22e-01,
54,9.92e-02,1.22e-01,
55,1.06e-01,1.20e-01,
56,9.84e-02,1.22e-01,
57,1.05e-01,1.22e-01,
58,1.00e-01,1.22e-01,
59,1.06e-01,1.20e-01,
60,9.92e-02,1.22e-01,
61,1.06e-01,1.22e-01,
62,1.00e-01,1.22e-01,
63,1.04e-01,1.20e-01,
64,1.01e-01,1.22e-01,
65,1.08e-01,1.20e-01,
66,1.02e-01,1.20e-01,
67,1.08e-01,1.22e-01,
68,1.00e-01,1.22e-01,
69,1.05e-01,1.18e-01,
70,1.06e-01,1.18e-01,
71,1.02e-01,1.20e-01,
72,1.02e-01,1.18e-01,
73,1.06e-01,1.18e-01,
74,1.02e-01,1.18e-01,
75,1.06e-01,1.20e-01,
76,1.02e-01,1.18e-01,
77,1.08e-01,1.18e-01,
78,1.07e-01,1.20e-01,
79,1.03e-01,1.18e-01,
80,1.08e-01,1.16e-01,
81,1.02e-01,1.20e-01,
82,1.02e-01,1.18e-01,
83,1.06e-01,1.16e-01,
84,1.03e-01,1.16e-01,
85,1.08e-01,1.14e-01,
86,1.04e-01,1.16e-01,
87,1.08e-01,1.14e-01,
88,1.10e-01,1.16e-01,
89,1.02e-01,1.14e-01,
90,1.07e-01,1.16e-01,
91,1.02e-01,1.14e-01,
92,1.04e-01,1.16e-01,
93,1.10e-01,1.14e-01,
94,1.10e-01,1.12e-01,
95,1.06e-01,1.16e-01,
96,1.06e-01,1.14e-01,
97,1.09e-01,1.12e-01,
98,1.10e-01,1.12e-01,
99,1.05e-01,1.14e-01,
100,1.08e-01,1.14e-01,
101,1.02e-01,1.12e-01,
102,1.12e-01,1.14e-01,
103,1.05e-01,1.08e-01,
104,1.04e-01,1.12e-01,
105,1.11e-01,1.08e-01,
106,1.10e-01,1.10e-01,
107,1.04e-01,1.10e-01,
108,1.02e-01,1.10e-01,
109,1.11e-01,1.06e-01,
110,1.11e-01,1.10e-01,
111,1.06e-01,1.06e-01,
112,1.11e-01,1.06e-01,
113,1.06e-01,1.08e-01,
114,1.05e-01,1.08e-01,
115,1.12e-01,1.04e-01,
116,1.06e-01,1.04e-01,
117,1.11e-01,1.04e-01,
118,1.11e-01,1.04e-01,
119,1.06e-01,1.06e-01,
120,1.07e-01,1.04e-01,
121,1.11e-01,1.04e-01,
122,1.10e-01,1.02e-01,
123,1.06e-01,1.00e-01,
124,1.06e-01,1.00e-01,
125,1.12e-01,1.02e-01,
126,1.07e-01,1.02e-01,
127,1.14e-01,1.00e-01,
128,1.07e-01,9.80e-02,
129,1.13e-01,1.00e-01,
130,1.07e-01,1.00e-01,
131,1.13e-01,9.40e-02,
132,1.15e-01,9.60e-02,
133,1.07e-01,9.40e-02,
134,1.10e-01,9.60e-02,
135,1.13e-01,9.20e-02,
136,1.15e-01,9.20e-02,
137,1.07e-01,9.40e-02,
138,1.08e-01,9.20e-02,
139,1.13e-01,8.80e-02,
140,1.10e-01,9.00e-02,
141,1.14e-01,8.60e-02,
142,1.15e-01,8.60e-02,
143,1.10e-01,8.80e-02,
144,1.11e-01,8.40e-02,
145,1.16e-01,8.40e-02,
146,1.15e-01,8.40e-02,
147,1.08e-01,8.00e-02,
148,1.10e-01,8.20e-02,
149,1.14e-01,7.80e-02,
150,1.10e-01,8.00e-02,
151,1.14e-01,7.40e-02,
152,1.08e-01,7.60e-02,
153,1.16e-01,7.40e-02,
154,1.10e-01,7.40e-02,
155,1.18e-01,7.00e-02,
156,1.15e-01,7.00e-02,
157,1.10e-01,6.60e-02,
158,1.16e-01,6.80e-02,
159,1.10e-01,6.40e-02,
160,1.10e-01,6.40e-02,
161,1.14e-01,6.00e-02,
162,1.12e-01,6.20e-02,
163,1.18e-01,5.80e-02,
164,1.17e-01,5.60e-02,
165,1.12e-01,5.20e-02,
166,1.17e-01,5.40e-02,
167,1.11e-01,4.80e-02,
168,1.17e-01,4.60e-02,
169,1.11e-01,4.00e-02,
170,1.13e-01,4.00e-02,
171,1.15e-01,3.40e-02,
172,1.12e-01,3.40e-02,
173,1.15e-01,2.80e-02,
174,1.17e-01,2.60e-02,
175,1.13e-01,2.20e-02,
176,1.17e-01,2.40e-02,
177,1.13e-01,1.80e-02,
178,1.16e-01,1.80e-02,
179,1.13e-01,1.20e-02,
180,1.18e-01,1.00e-02,
181,1.12e-01,4.00e-03,
182,1.18e-01,2.00e-03,
183,1.11e-01,-8.00e-03,
184,1.18e-01,-1.00e-02,
185,1.14e-01,-2.20e-02,
186,1.18e-01,-2.20e-02,
187,1.14e-01,-3.40e-02,
188,1.18e-01,-3.60e-02,
189,1.14e-01,-4.60e-02,
190,1.18e-01,-4.80e-02,
191,1.13e-01,-5.60e-02,
192,1.15e-01,-6.00e-02,
193,1.20e-01,-6.80e-02,
194,1.14e-01,-6.80e-02,
195,1.18e-01,-7.80e-02,
196,1.15e-01,-7.80e-02,
197,1.19e-01,-8.60e-02,
198,1.18e-01,-8.40e-02,
199,1.14e-01,-9.00e-02,
200,1.13e-01,-9.40e-02,
201,1.19e-01,-9.80e-02,
202,1.21e-01,-9.60e-02,
203,1.15e-01,-1.00e-01,
204,1.21e-01,-9.80e-02,
205,1.14e-01,-1.04e-01,
206,1.20e-01,-1.04e-01,
207,1.15e-01,-1.02e-01,
208,1.20e-01,-1.02e-01,
209,1.18e-01,-1.04e-01,
210,1.22e-01,-1.02e-01,
211,1.16e-01,-1.04e-01,
212,1.16e-01,-1.02e-01,
213,1.20e-01,-9.80e-02,
214,1.21e-01,-1.00e-01,
215,1.16e-01,-9.60e-02,
216,1.23e-01,-9.80e-02,
217,1.14e-01,-9.40e-02,
218,1.18e-01,-9.40e-02,
219,1.22e-01,-8.80e-02,
220,1.16e-01,-8.80e-02,
221,1.22e-01,-8.20e-02,
222,1.18e-01,-8.20e-02,
223,1.23e-01,-7.60e-02,
224,1.24e-01,-7.40e-02,
225,1.17e-01,-6.80e-02,
226,1.16e-01,-6.60e-02,
227,1.22e-01,-6.00e-02,
228,1.23e-01,-5.60e-02,
229,1.16e-01,-4.80e-02,
230,1.19e-01,-4.80e-02,
231,1.24e-01,-4.00e-02,
232,1.17e-01,-4.00e-02,
233,1.24e-01,-3.00e-02,
234,1.17e-01,-2.80e-02,
235,1.25e-01,-2.20e-02,
236,1.18e-01,-2.00e-02,
237,1.24e-01,-1.20e-02,
238,1.19e-01,-1.20e-02,
239,1.24e-01,-4.00e-03,
240,1.26e-01,-2.00e-03,
241,1.19e-01,4.00e-03,
242,1.26e-01,6.00e-03,
243,1.18e-01,1.40e-02,
244,1.24e-01,1.20e-02,
245,1.18e-01,1.80e-02,
246,1.29e-01,1.80e-02,
247,1.19e-01,2.40e-02,
248,1.26e-01,2.40e-02,
249,1.21e-01,3.00e-02,
250,1.24e-01,3.00e-02,
251,1.20e-01,3.20e-02,
252,1.19e-01,3.40e-02,
253,1.26e-01,3.80e-02,
254,1.22e-01,4.00e-02,
255,1.25e-01,4.40e-02,
256,1.20e-01,4.40e-02,
257,1.28e-01,5.00e-02,
258,1.19e-01,5.00e-02,
259,1.26e-01,5.20e-02,
260,1.21e-01,5.20e-02,
261,1.30e-01,5.80e-02,
262,1.22e-01,5.80e-02,
263,1.25e-01,6.00e-02,
264,1.22e-01,6.00e-02,
265,1.25e-01,6.80e-02,
266,1.28e-01,6.60e-02,
267,1.21e-01,7.00e-02,
268,1.26e-01,7.00e-02,
269,1.22e-01,7.40e-02,
270,1.28e-01,7.20e-02,
271,1.23e-01,7.60e-02,
272,1.26e-01,7.40e-02,
273,1.23e-01,8.00e-02,
274,1.22e-01,7.80e-02,
275,1.30e-01,8.20e-02,
276,1.27e-01,8.00e-02,
277,1.22e-01,8.40e-02,
278,1.24e-01,8.40e-02,
279,1.27e-01,8.80e-02,
280,1.22e-01,8.60e-02,
281,1.29e-01,8.80e-02,
282,1.22e-01,9.00e-02,
283,1.28e-01,9.00e-02,
284,1.22e-01,9.00e-02,
285,1.28e-01,9.40e-02,
286,1.26e-01,9.20e-02,
287,1.23e-01,9.60e-02,
288,1.29e-01,9.60e-02,
289,1.25e-01,9.40e-02,
290,1.30e-01,9.40e-02,
291,1.24e-01,1.00e-01,
292,1.30e-01,9.80e-02,
293,1.25e-01,9.80e-02,
294,1.29e-01,9.80e-02,
295,1.23e-01,1.02e-01,
296,1.24e-01,1.00e-01,
297,1.30e-01,1.02e-01,
298,1.24e-01,1.02e-01,
299,1.30e-01,1.00e-01,
300,1.23e-01,1.00e-01,
301,1.30e-01,1.06e-01,
302,1.31e-01,1.06e-01,
303,1.24e-01,1.04e-01,
304,1.30e-01,1.04e-01,
305,1.26e-01,1.06e-01,
306,1.32e-01,1.04e-01,
307,1.24e-01,1.08e-01,
308,1.27e-01,1.06e-01,
309,1.31e-01,1.08e-01,
310,1.28e-01,1.06e-01,
311,1.34e-01,1.08e-01,
312,1.26e-01,1.06e-01,
313,1.32e-01,1.10e-01,
314,1.26e-01,1.10e-01,
315,1.32e-01,1.08e-01,
316,1.26e-01,1.10e-01,
317,1.33e-01,1.08e-01,
318,1.32e-01,1.10e-01,
319,1.27e-01,1.10e-01,
320,1.28e-01,1.10e-01,
321,1.31e-01,1.14e-01,
322,1.27e-01,1.10e-01,
323,1.33e-01,1.14e-01,
324,1.26e-01,1.14e-01,
325,1.35e-01,1.12e-01,
326,1.28e-01,1.14e-01,
327,1.34e-01,1.12e-01,
328,1.27e-01,1.12e-01,
329,1.32e-01,1.16e-01,
330,1.36e-01,1.16e-01,
331,1.27e-01,1.14e-01,
332,1.34e-01,1.14e-01,
333,1.29e-01,1.16e-01,
334,1.36e-01,1.14e-01,
335,1.29e-01,1.16e-01,
336,1.28e-01,1.16e-01,
337,1.36e-01,1.20e-01,
338,1.29e-01,1.18e-01,
339,1.34e-01,1.18e-01,
340,1.30e-01,1.18e-01,
341,1.34e-01,1.18e-01,
342,1.29e-01,1.18e-01,
343,1.35e-01,1.20e-01,
344,1.35e-01,1.18e-01,
345,1.30e-01,1.20e-01,
346,1.36e-01,1.20e-01,
347,1.29e-01,1.18e-01,
348,1.34e-01,1.18e-01,
349,1.29e-01,1.20e-01,
350,1.30e-01,1.18e-01,
351,1.34e-01,1.22e-01,
352,1.30e-01,1.22e-01,
353,1.35e-01,1.20e-01,
354,1.38e-01,1.20e-01,
355,1.32e-01,1.22e-01,
356,1.37e-01,1.20e-01,
357,1.30e-01,1.22e-01,
358,1.36e-01,1.22e-01,
359,1.32e-01,1.20e-01,
360,1.33e-01,1.22e-01,
361,1.39e-01,1.20e-01,
362,1.33e-01,1.20e-01,
363,1.38e-01,1.22e-01,
364,1.31e-01,1.22e-01,
365,1.35e-01,1.20e-01,
366,1.37e-01,1.20e-01,
367,1.30e-01,1.24e-01,
368,1.38e-01,1.22e-01,
369,1.33e-01,1.20e-01,
370,1.38e-01,1.22e-01,
371,1.32e-01,1.26e-01,
372,1.30e-01,1.26e-01,
373,1.37e-01,1.24e-01,
374,1.32e-01,1.24e-01,
375,1.39e-01,1.26e-01,
376,1.38e-01,1.24e-01,
377,1.33e-01,1.26e-01,
378,1.39e-01,1.24e-01,
379,1.31e-01,1.24e-01,
380,1.38e-01,1.24e-01,
381,1.32e-01,1.24e-01,
382,1.34e-01,1.24e-01,
383,1.38e-01,1.24e-01,
384,1.32e-01,1.24e-01,
385,1.38e-01,1.26e-01,
386,1.39e-01,1.24e-01,
387,1.34e-01,1.24e-01,
388,1.39e-01,1.24e-01,
389,1.35e-01,1.24e-01,
390,1.40e-01,1.24e-01,
391,1.34e-01,1.26e-01,
392,1.43e-01,1.24e-01,
393,1.34e-01,1.26e-01,
394,1.34e-01,1.24e-01,
395,1.39e-01,1.24e-01,
396,1.35e-01,1.24e-01,
397,1.39e-01,1.26e-01,
398,1.39e-01,1.24e-01,
399,1.34e-01,1.28e-01,
400,1.41e-01,1.26e-01,
401,1.34e-01,1.28e-01,
402,1.37e-01,1.26e-01,
403,1.41e-01,1.28e-01,
404,1.35e-01,1.28e-01,
405,1.39e-01,1.26e-01,
406,1.43e-01,1.28e-01,
407,1.34e-01,1.26e-01,
408,1.40e-01,1.28e-01,
409,1.37e-01,1.26e-01,
410,1.36e-01,1.26e-01,
411,1.42e-01,1.28e-01,
412,1.36e-01,1.28e-01,
413,1.43e-01,1.26e-01,
414,1.37e-01,1.28e-01,
415,1.42e-01,1.26e-01,
416,1.42e-01,1.26e-01,
417,1.38e-01,1.28e-01,
418,1.44e-01,1.28e-01,
419,1.38e-01,1.26e-01,
420,1.38e-01,1.28e-01,
421,1.45e-01,1.26e-01,
422,1.38e-01,1.28e-01,
423,1.44e-01,1.26e-01,
424,1.42e-01,1.26e-01,
425,1.40e-01,1.28e-01,
426,1.44e-01,1.26e-01,
427,1.36e-01,1.28e-01,
428,1.43e-01,1.28e-01,
429,1.36e-01,1.26e-01,
430,1.40e-01,1.28e-01,
431,1.46e-01,1.26e-01,
432,1.38e-01,1.26e-01,
433,1.42e-01,1.28e-01,
434,1.45e-01,1.26e-01,
435,1.38e-01,1.28e-01,
436,1.43e-01,1.26e-01,
437,1.38e-01,1.28e-01,
438,1.45e-01,1.26e-01,
439,1.39e-01,1.30e-01,
440,1.41e-01,1.28e-01,
441,1.44e-01,1.26e-01,
442,1.46e-01,1.26e-01,
443,1.38e-01,1.30e-01,
444,1.48e-01,1.30e-01,
445,1.40e-01,1.26e-01,
446,1.42e-01,1.30e-01,
447,1.46e-01,1.30e-01,
448,1.41e-01,1.30e-01,
449,1.46e-01,1.26e-01,
450,1.40e-01,1.30e-01,
451,1.45e-01,1.30e-01,
452,1.46e-01,1.30e-01,
453,1.41e-01,1.28e-01,
454,1.46e-01,1.26e-01,
455,1.41e-01,1.30e-01,
456,1.42e-01,1.30e-01,
457,1.46e-01,1.30e-01,
458,1.41e-01,1.30e-01,
459,1.45e-01,1.30e-01,
460,1.46e-01,1.30e-01,
461,1.41e-01,1.30e-01,
462,1.54e-01,1.30e-01,
463,1.42e-01,1.30e-01,
464,1.42e-01,1.30e-01,
465,1.49e-01,1.30e-01,
466,1.42e-01,1.30e-01,
467,1.47e-01,1.30e-01,
468,1.42e-01,1.30e-01,
469,1.46e-01,1.28e-01,
470,1.50e-01,1.30e-01,
471,1.42e-01,1.30e-01,
472,1.51e-01,1.30e-01,
473,1.43e-01,1.30e-01,
474,1.41e-01,1.30e-01,
475,1.48e-01,1.30e-01,
476,1.44e-01,1.30e-01,
477,1.47e-01,1.30e-01,
478,1.47e-01,1.30e-01,
479,1.43e-01,1.30e-01,
480,1.49e-01,1.30e-01,
481,1.42e-01,1.28e-01,
482,1.44e-01,1.28e-01,
483,1.52e-01,1.30e-01,
484,1.47e-01,1.30e-01,
485,1.43e-01,1.30e-01,
486,1.48e-01,1.30e-01,
487,1.44e-01,1.30e-01,
488,1.50e-01,1.30e-01,
489,1.44e-01,1.30e-01,
490,1.50e-01,1.30e-01,
491,1.46e-01,1.28e-01,
492,1.44e-01,1.30e-01,
493,1.50e-01,1.30e-01,
494,1.51e-01,1.30e-01,
495,1.46e-01,1.30e-01,
496,1.51e-01,1.30e-01,
497,1.45e-01,1.28e-01,
498,1.46e-01,1.30e-01,
499,1.52e-01,1.30e-01,
500,1.45e-01,1.30e-01,
501,1.50e-01,1.28e-01,
502,1.50e-01,1.30e-01,
503,1.46e-01,1.30e-01,
504,1.52e-01,1.30e-01,
505,1.46e-01,1.28e-01,
506,1.54e-01,1.30e-01,
507,1.46e-01,1.30e-01,
508,1.46e-01,1.30e-01,
509,1.52e-01,1.30e-01,
510,1.51e-01,1.30e-01,
511,1.47e-01,1.30e-01,
512,1.51e-01,1.30e-01,
513,1.47e-01,1.30e-01,
514,1.48e-01,1.30e-01,
515,1.53e-01,1.30e-01,
516,1.47e-01,1.30e-01,
517,1.54e-01,1.30e-01,
518,1.47e-01,1.30e-01,
519,1.52e-01,1.30e-01,
520,1.53e-01,1.30e-01,
521,1.49e-01,1.30e-01,
522,1.49e-01,1.30e-01,
523,1.54e-01,1.30e-01,
524,1.48e-01,1.30e-01,
525,1.54e-01,1.30e-01,
526,1.53e-01,1.30e-01,
527,1.49e-01,1.30e-01,
528,1.54e-01,1.30e-01,
529,1.49e-01,1.30e-01,
530,1.49e-01,1.30e-01,
531,1.56e-01,1.30e-01,
532,1.47e-01,1.30e-01,
533,1.54e-01,1.30e-01,
534,1.54e-01,1.30e-01,
535,1.48e-01,1.30e-01,
536,1.54e-01,1.30e-01,
537,1.50e-01,1.30e-01,
538,1.49e-01,1.30e-01,
539,1.57e-01,1.30e-01,
540,1.50e-01,1.30e-01,
541,1.54e-01,1.30e-01,
542,1.53e-01,1.30e-01,
543,1.50e-01,1.30e-01,
544,1.55e-01,1.30e-01,
545,1.50e-01,1.30e-01,
546,1.50e-01,1.30e-01,
547,1.54e-01,1.30e-01,
548,1.52e-01,1.32e-01,
549,1.55e-01,1.30e-01,
550,1.57e-01,1.30e-01,
551,1.50e-01,1.30e-01,
552,1.51e-01,1.30e-01,
553,1.59e-01,1.30e-01,
554,1.50e-01,1.30e-01,
555,1.57e-01,1.30e-01,
556,1.58e-01,1.30e-01,
557,1.51e-01,1.30e-01,
558,1.54e-01,1.30e-01,
559,1.58e-01,1.32e-01,
560,1.54e-01,1.30e-01,
561,1.58e-01,1.34e-01,
562,1.52e-01,1.30e-01,
563,1.59e-01,1.34e-01,
564,1.58e-01,1.34e-01,
565,1.52e-01,1.30e-01,
566,1.60e-01,1.30e-01,
567,1.52e-01,1.34e-01,
568,1.52e-01,1.30e-01,
569,1.59e-01,1.34e-01,
570,1.52e-01,1.34e-01,
571,1.57e-01,1.28e-01,
572,1.59e-01,1.30e-01,
573,1.53e-01,1.34e-01,
574,1.59e-01,1.30e-01,
575,1.53e-01,1.32e-01,
576,1.55e-01,1.30e-01,
577,1.58e-01,1.34e-01,
578,1.58e-01,1.30e-01,
579,1.53e-01,1.34e-01,
580,1.61e-01,1.30e-01,
581,1.55e-01,1.34e-01,
582,1.53e-01,1.34e-01,
583,1.59e-01,1.32e-01,
584,1.54e-01,1.32e-01,
585,1.58e-01,1.32e-01,
586,1.60e-01,1.32e-01,
587,1.55e-01,1.32e-01,
588,1.61e-01,1.30e-01,
589,1.55e-01,1.34e-01,
590,1.58e-01,1.34e-01,
591,1.54e-01,1.30e-01,
592,1.59e-01,1.30e-01,
593,1.55e-01,1.34e-01,
594,1.56e-01,1.34e-01,
595,1.62e-01,1.32e-01,
596,1.56e-01,1.34e-01,
597,1.60e-01,1.32e-01,
598,1.55e-01,1.34e-01,
599,1.60e-01,1.32e-01,
600,1.62e-01,1.32e-01,
601,1.57e-01,1.34e-01,
602,1.54e-01,1.34e-01,
603,1.61e-01,1.30e-01,
604,1.54e-01,1.32e-01,
605,1.61e-01,1.34e-01,
606,1.63e-01,1.32e-01,
607,1.57e-01,1.34e-01,
608,1.56e-01,1.34e-01,
609,1.63e-01,1.30e-01,
610,1.58e-01,1.34e-01,
611,1.62e-01,1.30e-01,
612,1.57e-01,1.34e-01,
613,1.62e-01,1.32e-01,
614,1.64e-01,1.34e-01,
615,1.56e-01,1.30e-01,
616,1.58e-01,1.32e-01,
617,1.62e-01,1.34e-01,
618,1.64e-01,1.32e-01,
619,1.58e-01,1.34e-01,
620,1.64e-01,1.32e-01,
621,1.59e-01,1.34e-01,
622,1.59e-01,1.32e-01,
623,1.62e-01,1.34e-01,
624,1.65e-01,1.32e-01,
625,1.59e-01,1.34e-01,
626,1.64e-01,1.34e-01,
627,1.57e-01,1.32e-01,
628,1.58e-01,1.34e-01,
629,1.66e-01,1.32e-01,
630,1.58e-01,1.32e-01,
631,1.62e-01,1.34e-01,
632,1.59e-01,1.32e-01,
633,1.64e-01,1.34e-01,
634,1.60e-01,1.34e-01,
635,1.67e-01,1.32e-01,
636,1.58e-01,1.34e-01,
637,1.62e-01,1.32e-01,
638,1.65e-01,1.34e-01,
639,1.58e-01,1.32e-01,
640,1.61e-01,1.32e-01,
641,1.65e-01,1.34e-01,
642,1.64e-01,1.32e-01,
643,1.59e-01,1.34e-01,
644,1.66e-01,1.34e-01,
645,1.59e-01,1.32e-01,
646,1.61e-01,1.32e-01,
647,1.67e-01,1.34e-01,
648,1.61e-01,1.34e-01,
649,1.65e-01,1.32e-01,
650,1.69e-01,1.32e-01,
651,1.62e-01,1.34e-01,
652,1.62e-01,1.34e-01,
653,1.66e-01,1.32e-01,
654,1.61e-01,1.34e-01,
655,1.65e-01,1.32e-01,
656,1.66e-01,1.34e-01,
657,1.60e-01,1.32e-01,
658,1.62e-01,1.34e-01,
659,1.67e-01,1.32e-01,
660,1.67e-01,1.32e-01,
661,1.62e-01,1.34e-01,
662,1.67e-01,1.34e-01,
663,1.62e-01,1.32e-01,
664,1.62e-01,1.34e-01,
665,1.67e-01,1.32e-01,
666,1.62e-01,1.32e-01,
667,1.67e-01,1.34e-01,
668,1.70e-01,1.32e-01,
669,1.62e-01,1.34e-01,
670,1.64e-01,1.32e-01,
671,1.67e-01,1.34e-01,
672,1.72e-01,1.32e-01,
673,1.62e-01,1.34e-01,
674,1.64e-01,1.32e-01,
675,1.71e-01,1.34e-01,
676,1.62e-01,1.34e-01,
677,1.69e-01,1.32e-01,
678,1.69e-01,1.32e-01,
679,1.64e-01,1.34e-01,
680,1.65e-01,1.32e-01,
681,1.70e-01,1.34e-01,
682,1.70e-01,1.34e-01,
683,1.64e-01,1.32e-01,
684,1.64e-01,1.32e-01,
685,1.70e-01,1.34e-01,
686,1.63e-01,1.32e-01,
687,1.70e-01,1.32e-01,
688,1.70e-01,1.32e-01,
689,1.65e-01,1.34e-01,
690,1.66e-01,1.32e-01,
691,1.70e-01,1.34e-01,
692,1.69e-01,1.32e-01,
693,1.66e-01,1.34e-01,
694,1.70e-01,1.32e-01,
695,1.65e-01,1.34e-01,
696,1.68e-01,1.32e-01,
697,1.71e-01,1.34e-01,
698,1.71e-01,1.32e-01,
699,1.66e-01,1.34e-01,
700,1.66e-01,1.34e-01,
701,1.70e-01,1.32e-01,
702,1.66e-01,1.32e-01,
703,1.71e-01,1.34e-01,
704,1.72e-01,1.34e-01,
705,1.68e-01,1.32e-01,
706,1.68e-01,1.32e-01,
707,1.71e-01,1.34e-01,
708,1.66e-01,1.34e-01,
709,1.72e-01,1.32e-01,
710,1.69e-01,1.32e-01,
711,1.73e-01,1.34e-01,
712,1.72e-01,1.32e-01,
713,1.68e-01,1.34e-01,
714,1.74e-01,1.32e-01,
715,1.67e-01,1.34e-01,
716,1.67e-01,1.32e-01,
717,1.72e-01,1.34e-01,
718,1.70e-01,1.34e-01,
719,1.68e-01,1.32e-01,
720,1.74e-01,1.32e-01,
721,1.70e-01,1.34e-01,
722,1.69e-01,1.34e-01,
723,1.74e-01,1.32e-01,
724,1.75e-01,1.32e-01,
725,1.66e-01,1.34e-01,
726,1.69e-01,1.32e-01,
727,1.74e-01,1.34e-01,
728,1.74e-01,1.32e-01,
729,1.68e-01,1.34e-01,
730,1.75e-01,1.34e-01,
731,1.69e-01,1.32e-01,
732,1.68e-01,1.32e-01,
733,1.77e-01,1.34e-01,
734,1.74e-01,1.32e-01,
735,1.70e-01,1.34e-01,
736,1.70e-01,1.34e-01,
737,1.77e-01,1.32e-01,
738,1.74e-01,1.32e-01,
739,1.70e-01,1.34e-01,
740,1.71e-01,1.34e-01,
741,1.76e-01,1.32e-01,
742,1.70e-01,1.34e-01,
743,1.74e-01,1.32e-01,
744,1.75e-01,1.34e-01,
745,1.71e-01,1.32e-01,
746,1.70e-01,1.34e-01,
747,1.75e-01,1.32e-01,
748,1.78e-01,1.32e-01,
749,1.70e-01,1.34e-01,
750,1.72e-01,1.32e-01,
751,1.77e-01,1.34e-01,
752,1.77e-01,1.34e-01,
753,1.70e-01,1.32e-01,
754,1.78e-01,1.32e-01,
755,1.74e-01,1.34e-01,
756,1.70e-01,1.34e-01,
757,1.77e-01,1.32e-01,
758,1.73e-01,1.34e-01,
759,1.76e-01,1.32e-01,
760,1.72e-01,1.34e-01,
761,1.77e-01,1.32e-01,
762,1.79e-01,1.32e-01,
763,1.74e-01,1.34e-01,
764,1.70e-01,1.32e-01,
765,1.77e-01,1.34e-01,
766,1.78e-01,1.32e-01,
767,1.74e-01,1.34e-01,
768,1.72e-01,1.34e-01,
769,1.78e-01,1.32e-01,
770,1.72e-01,1.32e-01,
771,1.77e-01,1.34e-01,
772,1.75e-01,1.34e-01,
773,1.80e-01,1.32e-01,
774,1.73e-01,1.34e-01,
775,1.76e-01,1.32e-01,
776,1.79e-01,1.32e-01,
777,1.74e-01,1.34e-01,
778,1.74e-01,1.34e-01,
779,1.78e-01,1.32e-01,
780,1.79e-01,1.32e-01,
781,1.75e-01,1.34e-01,
782,1.76e-01,1.34e-01,
783,1.80e-01,1.32e-01,
784,1.80e-01,1.32e-01,
785,1.74e-01,1.34e-01,
786,1.79e-01,1.34e-01,
787,1.75e-01,1.32e-01,
788,1.82e-01,1.32e-01,
789,1.76e-01,1.32e-01,
790,1.74e-01,1.32e-01,
791,1.79e-01,1.32e-01,
792,1.79e-01,1.32e-01,
793,1.76e-01,1.34e-01,
794,1.78e-01,1.34e-01,
795,1.81e-01,1.32e-01,
796,1.81e-01,1.32e-01,
797,1.76e-01,1.34e-01,
798,1.76e-01,1.32e-01,
799,1.82e-01,1.34e-01,
800,1.83e-01,1.34e-01,
801,1.77e-01,1.32e-01,
802,1.77e-01,1.32e-01,
803,1.81e-01,1.34e-01,
804,1.82e-01,1.32e-01,
805,1.78e-01,1.34e-01,
806,1.78e-01,1.32e-01,
807,1.82e-01,1.34e-01,
808,1.84e-01,1.32e-01,
809,1.76e-01,1.34e-01,
810,1.78e-01,1.32e-01,
811,1.85e-01,1.34e-01,
812,1.81e-01,1.34e-01,
813,6.80e-02,1.30e-01,
814,7.20e-02,1.30e-01,
815,6.80e-02,1.10e-01,
816,6.96e-02,1.04e-01,
817,7.20e-02,8.60e-02,
818,6.64e-02,8.80e-02,
819,7.20e-02,8.40e-02,
820,7.04e-02,8.40e-02,
821,6.72e-02,9.20e-02,
822,7.28e-02,9.20e-02,
823,6.64e-02,1.02e-01,
824,7.28e-02,1.04e-01,
825,6.88e-02,1.16e-01,
826,6.88e-02,1.16e-01,
827,7.12e-02,1.24e-01,
828,7.36e-02,1.24e-01,
829,6.88e-02,1.30e-01,
830,7.20e-02,1.30e-01,
831,6.88e-02,1.34e-01,
832,6.88e-02,1.34e-01,
833,7.44e-02,1.32e-01,
834,6.88e-02,1.34e-01,
835,7.44e-02,1.32e-01,
836,6.72e-02,1.32e-01,
837,7.44e-02,1.34e-01,
838,7.44e-02,1.34e-01,
839,6.72e-02,1.32e-01,
840,7.12e-02,1.32e-01,
841,7.28e-02,1.34e-01,
842,7.44e-02,1.34e-01,
843,7.12e-02,1.32e-01,
844,6.96e-02,1.32e-01,
845,7.44e-02,1.34e-01,
846,7.04e-02,1.32e-01,
847,7.36e-02,1.34e-01,
848,7.52e-02,1.34e-01,
849,7.12e-02,1.32e-01,
850,7.44e-02,1.34e-01,
851,6.88e-02,1.32e-01,
852,7.68e-02,1.32e-01,
853,7.12e-02,1.34e-01,
854,7.20e-02,1.32e-01,
855,7.84e-02,1.32e-01,
856,7.12e-02,1.32e-01,
857,7.52e-02,1.34e-01,
858,7.60e-02,1.32e-01,
859,7.20e-02,1.34e-01,
860,7.68e-02,1.32e-01,
861,7.20e-02,1.34e-01,
862,7.28e-02,1.34e-01,
863,7.68e-02,1.32e-01,
864,7.76e-02,1.32e-01,
865,7.28e-02,1.34e-01,
866,7.20e-02,1.34e-01,
867,7.84e-02,1.32e-01,
