data/Apr 1 measurement/4p45MHz_543p0mV.csv

X,CH1,CH2,Start,Increment,
Sequence,Volt,Volt,3.400000e-01,5.000000e-03
0,6.98e-01,5.92e-02,
1,6.88e-01,6.00e-02,
2,6.88e-01,5.96e-02,
3,6.94e-01,6.00e-02,
4,6.98e-01,6.00e-02,
5,6.86e-01,5.96e-02,
6,6.86e-01,5.96e-02,
7,6.98e-01,6.00e-02,
8,7.00e-01,6.00e-02,
9,6.88e-01,5.92e-02,
10,7.00e-01,6.00e-02,
11,6.84e-01,5.96e-02,
12,6.86e-01,5.92e-02,
13,7.00e-01,6.00e-02,
14,6.88e-01,5.96e-02,
15,7.00e-01,5.88e-02,
16,6.98e-01,5.92e-02,
17,6.88e-01,6.00e-02,
18,7.00e-01,5.92e-02,
19,6.88e-01,6.00e-02,
20,7.04e-01,5.96e-02,
21,6.90e-01,5.92e-02,
22,6.90e-01,5.92e-02,
23,7.04e-01,5.96e-02,
24,7.00e-01,5.96e-02,
25,6.88e-01,5.88e-02,
26,6.92e-01,5.96e-02,
27,7.04e-01,5.88e-02,
28,7.00e-01,5.96e-02,
29,6.92e-01,5.84e-02,
30,7.02e-01,5.92e-02,
31,6.94e-01,5.84e-02,
32,6.94e-01,5.92e-02,
33,7.02e-01,5.80e-02,
34,7.04e-01,5.80e-02,
35,6.94e-01,5.72e-02,
36,6.94e-01,5.68e-02,
37,7.06e-01,5.52e-02,
38,6.94e-01,5.56e-02,
39,7.08e-01,5.32e-02,
40,7.06e-01,5.28e-02,
41,6.94e-01,5.04e-02,
42,7.06e-01,5.00e-02,
43,6.94e-01,4.84e-02,
44,6.96e-01,4.84e-02,
45,7.08e-01,4.72e-02,
46,6.98e-01,4.72e-02,
47,7.06e-01,4.84e-02,
48,7.10e-01,4.80e-02,
49,6.98e-01,5.04e-02,
50,6.98e-01,5.04e-02,
51,7.08e-01,5.20e-02,
52,7.06e-01,5.20e-02,
53,6.96e-01,5.36e-02,
54,7.12e-01,5.40e-02,
55,7.00e-01,5.56e-02,
56,7.00e-01,5.60e-02,
57,7.08e-01,5.68e-02,
58,7.00e-01,5.68e-02,
59,7.12e-01,5.80e-02,
60,6.98e-01,5.76e-02,
61,7.12e-01,5.88e-02,
62,7.12e-01,5.80e-02,
63,7.00e-01,5.92e-02,
64,6.98e-01,5.84e-02,
65,7.14e-01,5.96e-02,
66,7.02e-01,5.96e-02,
67,7.12e-01,5.88e-02,
68,7.02e-01,5.96e-02,
69,7.10e-01,5.88e-02,
70,7.12e-01,5.92e-02,
71,7.02e-01,6.00e-02,
72,7.14e-01,5.96e-02,
73,7.04e-01,5.92e-02,
74,7.12e-01,5.96e-02,
75,7.02e-01,5.92e-02,
76,7.02e-01,5.92e-02,
77,7.14e-01,6.00e-02,
78,7.04e-01,5.96e-02,
79,7.14e-01,5.92e-02,
80,7.04e-01,6.00e-02,
81,7.16e-01,5.92e-02,
82,7.06e-01,5.96e-02,
83,7.16e-01,5.92e-02,
84,7.06e-01,5.92e-02,
85,7.20e-01,6.00e-02,
86,7.06e-01,6.00e-02,
87,7.20e-01,5.88e-02,
88,7.20e-01,6.00e-02,
89,7.10e-01,5.88e-02,
90,7.08e-01,6.00e-02,
91,7.22e-01,5.92e-02,
92,7.08e-01,6.00e-02,
93,7.20e-01,5.92e-02,
94,7.20e-01,6.00e-02,
95,7.08e-01,5.92e-02,
96,7.12e-01,5.96e-02,
97,7.20e-01,6.00e-02,
98,7.12e-01,6.00e-02,
99,7.20e-01,5.92e-02,
100,7.08e-01,5.96e-02,
101,7.24e-01,6.00e-02,
102,7.24e-01,6.00e-02,
103,7.14e-01,5.88e-02,
104,7.10e-01,5.92e-02,
105,7.24e-01,5.96e-02,
106,7.20e-01,6.00e-02,
107,7.10e-01,5.92e-02,
108,7.24e-01,5.96e-02,
109,7.14e-01,5.92e-02,
110,7.20e-01,5.96e-02,
111,4.30e-01,6.04e-02,
112,4.40e-01,5.96e-02,
113,4.30e-01,6.04e-02,
114,4.42e-01,6.04e-02,
115,4.30e-01,6.04e-02,
116,4.40e-01,6.08e-02,
117,4.30e-01,6.04e-02,
118,4.42e-01,6.00e-02,
119,4.30e-01,6.12e-02,
120,4.42e-01,6.04e-02,
121,4.34e-01,6.16e-02,
122,4.42e-01,6.12e-02,
123,4.32e-01,6.20e-02,
124,4.42e-01,6.12e-02,
125,4.32e-01,6.20e-02,
126,4.34e-01,6.12e-02,
127,4.42e-01,6.20e-02,
128,4.34e-01,6.16e-02,
129,4.44e-01,6.20e-02,
130,4.36e-01,6.20e-02,
131,4.46e-01,6.12e-02,
132,4.46e-01,6.12e-02,
133,4.36e-01,6.20e-02,
134,4.48e-01,6.20e-02,
135,4.36e-01,6.12e-02,
136,4.36e-01,6.20e-02,
137,4.46e-01,6.12e-02,
138,4.48e-01,6.12e-02,
139,4.36e-01,6.20e-02,
140,4.48e-01,6.20e-02,
141,4.36e-01,6.12e-02,
142,4.38e-01,6.12e-02,
143,4.52e-01,6.20e-02,
144,4.48e-01,6.12e-02,
145,4.38e-01,6.20e-02,
146,4.42e-01,6.12e-02,
147,4.50e-01,6.16e-02,
148,4.48e-01,6.12e-02,
149,4.38e-01,6.16e-02,
150,4.42e-01,6.12e-02,
151,4.52e-01,6.16e-02,
152,4.42e-01,6.16e-02,
153,4.54e-01,6.12e-02,
154,4.42e-01,6.12e-02,
155,4.52e-01,6.20e-02,
156,4.42e-01,6.20e-02,
157,4.52e-01,6.12e-02,
158,4.44e-01,6.12e-02,
159,4.54e-01,6.20e-02,
160,4.42e-01,6.20e-02,
161,4.54e-01,6.12e-02,
162,4.54e-01,6.20e-02,
163,4.44e-01,6.12e-02,
164,4.44e-01,6.08e-02,
165,4.54e-01,6.12e-02,
166,4.46e-01,6.12e-02,
167,4.54e-01,6.20e-02,
168,4.44e-01,6.16e-02,
169,4.54e-01,6.08e-02,
170,4.44e-01,6.20e-02,
171,4.56e-01,6.08e-02,
172,4.48e-01,6.12e-02,
173,4.56e-01,6.20e-02,
174,4.48e-01,6.12e-02,
175,4.56e-01,6.20e-02,
176,4.48e-01,6.12e-02,
177,4.60e-01,6.16e-02,
178,4.48e-01,6.12e-02,
179,4.56e-01,6.20e-02,
180,4.50e-01,6.12e-02,
181,4.58e-01,6.20e-02,
182,4.50e-01,6.12e-02,
183,4.58e-01,6.16e-02,
184,4.50e-01,6.12e-02,
185,4.60e-01,6.24e-02,
186,4.48e-01,6.12e-02,
187,4.58e-01,6.20e-02,
188,4.50e-01,6.12e-02,
189,4.60e-01,6.20e-02,
190,4.64e-01,6.12e-02,
191,4.52e-01,6.16e-02,
192,4.52e-01,6.12e-02,
193,4.64e-01,6.20e-02,
194,4.52e-01,6.16e-02,
195,4.64e-01,6.12e-02,
196,4.54e-01,6.20e-02,
197,4.64e-01,6.12e-02,
198,4.54e-01,6.12e-02,
199,4.64e-01,6.20e-02,
200,4.62e-01,6.12e-02,
201,4.52e-01,6.16e-02,
202,4.62e-01,6.12e-02,
203,4.54e-01,6.20e-02,
204,4.56e-01,6.20e-02,
205,4.62e-01,6.12e-02,
206,4.54e-01,6.12e-02,
207,4.68e-01,6.20e-02,
208,4.66e-01,6.20e-02,
209,4.56e-01,6.12e-02,
210,4.56e-01,6.12e-02,
211,4.70e-01,6.20e-02,
212,4.64e-01,6.20e-02,
213,4.56e-01,6.12e-02,
214,4.56e-01,6.12e-02,
215,4.68e-01,6.20e-02,
216,4.60e-01,6.12e-02,
217,4.68e-01,6.20e-02,
218,4.58e-01,6.16e-02,
219,4.64e-01,6.12e-02,
220,4.58e-01,6.12e-02,
221,4.68e-01,6.16e-02,
222,4.60e-01,6.12e-02,
223,4.70e-01,6.16e-02,
224,4.72e-01,6.20e-02,
225,4.60e-01,6.08e-02,
226,4.70e-01,6.08e-02,
227,4.58e-01,6.16e-02,
228,4.72e-01,6.20e-02,
229,4.60e-01,6.12e-02,
230,4.62e-01,6.08e-02,
231,4.72e-01,6.20e-02,
232,4.72e-01,6.12e-02,
233,4.62e-01,6.20e-02,
234,4.62e-01,6.16e-02,
235,4.74e-01,6.08e-02,
236,4.62e-01,6.16e-02,
237,4.72e-01,6.12e-02,
238,4.66e-01,6.16e-02,
239,4.74e-01,6.12e-02,
240,4.76e-01,6.12e-02,
241,4.62e-01,6.16e-02,
242,4.74e-01,6.12e-02,
243,4.66e-01,6.16e-02,
244,4.68e-01,6.08e-02,
245,4.74e-01,6.16e-02,
246,4.62e-01,6.12e-02,
247,4.76e-01,6.16e-02,
248,4.68e-01,6.12e-02,
249,4.76e-01,6.16e-02,
250,4.76e-01,6.12e-02,
251,4.68e-01,6.20e-02,
252,4.68e-01,6.08e-02,
253,4.80e-01,6.16e-02,
254,4.68e-01,6.16e-02,
255,4.78e-01,6.04e-02,
256,4.68e-01,6.08e-02,
257,4.80e-01,6.00e-02,
258,4.68e-01,6.04e-02,
259,4.78e-01,5.96e-02,
260,4.80e-01,6.00e-02,
261,4.70e-01,5.88e-02,
262,4.70e-01,5.88e-02,
263,4.80e-01,5.92e-02,
264,4.72e-01,5.92e-02,
265,4.80e-01,5.84e-02,
266,4.80e-01,5.92e-02,
267,4.70e-01,5.84e-02,
268,4.80e-01,5.88e-02,
269,4.70e-01,5.96e-02,
270,4.82e-01,6.00e-02,
271,4.74e-01,5.88e-02,
272,4.74e-01,6.04e-02,
273,4.84e-01,5.96e-02,
274,4.74e-01,5.96e-02,
275,4.82e-01,6.08e-02,
276,4.74e-01,6.04e-02,
277,4.82e-01,6.08e-02,
278,4.86e-01,6.08e-02,
279,4.72e-01,6.16e-02,
280,4.74e-01,6.08e-02,
281,4.86e-01,6.12e-02,
282,4.74e-01,6.16e-02,
283,4.82e-01,6.08e-02,
284,4.76e-01,6.16e-02,
285,4.86e-01,6.08e-02,
286,4.86e-01,6.08e-02,
287,4.76e-01,6.20e-02,
288,4.80e-01,6.16e-02,
289,4.88e-01,6.08e-02,
290,4.78e-01,6.08e-02,
291,4.90e-01,6.16e-02,
292,4.84e-01,6.12e-02,
293,4.80e-01,6.16e-02,
294,4.76e-01,6.08e-02,
295,4.90e-01,6.20e-02,
296,4.80e-01,6.08e-02,
297,4.90e-01,6.16e-02,
298,4.88e-01,6.12e-02,
299,4.80e-01,6.12e-02,
300,4.80e-01,6.12e-02,
301,4.92e-01,6.16e-02,
302,4.88e-01,6.16e-02,
303,4.80e-01,6.12e-02,
304,4.80e-01,6.20e-02,
305,4.92e-01,6.08e-02,
306,4.82e-01,6.08e-02,
307,4.92e-01,6.16e-02,
308,4.82e-01,6.08e-02,
309,4.92e-01,6.20e-02,
310,4.92e-01,6.08e-02,
311,4.84e-01,6.20e-02,
312,4.82e-01,6.12e-02,
313,4.96e-01,6.16e-02,
314,4.92e-01,6.08e-02,
315,4.84e-01,6.20e-02,
316,4.90e-01,6.08e-02,
317,4.84e-01,6.16e-02,
318,4.86e-01,6.16e-02,
319,4.94e-01,6.08e-02,
320,4.84e-01,6.08e-02,
321,4.94e-01,6.16e-02,
322,4.88e-01,6.16e-02,
323,4.98e-01,6.08e-02,
324,4.98e-01,6.12e-02,
325,4.84e-01,6.16e-02,
326,4.84e-01,6.20e-02,
327,4.98e-01,6.12e-02,
328,4.98e-01,6.12e-02,
329,4.88e-01,6.20e-02,
330,4.86e-01,6.20e-02,
331,4.98e-01,6.12e-02,
332,4.96e-01,6.16e-02,
333,4.88e-01,6.20e-02,
334,4.98e-01,6.20e-02,
335,4.88e-01,6.12e-02,
336,4.90e-01,6.12e-02,
337,5.00e-01,6.16e-02,
338,5.00e-01,6.12e-02,
339,4.94e-01,6.20e-02,
340,4.90e-01,6.08e-02,
341,5.00e-01,6.12e-02,
342,5.02e-01,6.12e-02,
343,4.88e-01,6.08e-02,
344,4.90e-01,6.08e-02,
345,5.04e-01,6.16e-02,
346,5.02e-01,6.08e-02,
347,4.92e-01,6.16e-02,
348,5.04e-01,6.08e-02,
349,4.92e-01,6.16e-02,
350,5.00e-01,6.08e-02,
351,4.92e-01,6.16e-02,
352,5.00e-01,6.12e-02,
353,4.94e-01,6.12e-02,
354,4.94e-01,6.08e-02,
355,5.04e-01,6.16e-02,
356,4.94e-01,6.16e-02,
357,5.04e-01,6.08e-02,
358,5.06e-01,6.08e-02,
359,4.94e-01,6.16e-02,
360,4.96e-01,6.08e-02,
361,5.04e-01,6.16e-02,
362,5.06e-01,6.16e-02,
363,4.96e-01,6.08e-02,
364,4.98e-01,6.20e-02,
365,5.04e-01,6.08e-02,
366,4.96e-01,6.12e-02,
367,5.10e-01,6.08e-02,
368,5.00e-01,6.12e-02,
369,5.10e-01,6.08e-02,
370,4.96e-01,6.08e-02,
371,5.10e-01,6.20e-02,
372,5.12e-01,6.08e-02,
373,4.96e-01,6.12e-02,
374,5.12e-01,6.08e-02,
375,5.00e-01,6.16e-02,
376,5.00e-01,6.12e-02,
377,5.12e-01,6.08e-02,
378,5.00e-01,6.20e-02,
379,5.12e-01,6.08e-02,
380,5.00e-01,6.16e-02,
381,5.12e-01,6.08e-02,
382,4.98e-01,6.12e-02,
383,5.12e-01,6.08e-02,
384,5.00e-01,6.16e-02,
385,5.12e-01,6.08e-02,
386,5.12e-01,6.12e-02,
387,5.02e-01,6.08e-02,
388,5.02e-01,6.08e-02,
389,5.12e-01,6.16e-02,
390,5.14e-01,6.08e-02,
391,5.02e-01,6.16e-02,
392,5.04e-01,6.08e-02,
393,5.12e-01,6.12e-02,
394,5.06e-01,6.16e-02,
395,5.12e-01,6.04e-02,
396,5.06e-01,6.12e-02,
397,5.10e-01,6.08e-02,
398,5.10e-01,6.08e-02,
399,5.04e-01,6.16e-02,
400,5.06e-01,6.16e-02,
401,5.16e-01,6.08e-02,
402,5.08e-01,6.08e-02,
403,5.18e-01,6.16e-02,
404,5.18e-01,6.12e-02,
405,5.06e-01,6.12e-02,
406,5.18e-01,6.16e-02,
407,5.04e-01,6.08e-02,
408,5.18e-01,6.08e-02,
409,5.10e-01,6.16e-02,
410,5.12e-01,6.12e-02,
411,5.20e-01,6.04e-02,
412,5.12e-01,6.12e-02,
413,5.18e-01,6.04e-02,
414,5.10e-01,6.04e-02,
415,5.22e-01,6.16e-02,
416,5.08e-01,6.12e-02,
417,5.20e-01,6.08e-02,
418,5.18e-01,6.08e-02,
419,5.08e-01,6.16e-02,
420,5.12e-01,6.08e-02,
421,5.22e-01,6.04e-02,
422,5.20e-01,6.08e-02,
423,5.10e-01,6.00e-02,
424,5.14e-01,6.04e-02,
425,5.24e-01,5.96e-02,
426,5.20e-01,6.04e-02,
427,5.14e-01,5.96e-02,
428,5.24e-01,5.96e-02,
429,5.12e-01,5.92e-02,
430,5.24e-01,5.92e-02,
431,5.14e-01,5.80e-02,
432,5.14e-01,5.84e-02,
433,5.24e-01,5.72e-02,
434,5.14e-01,5.68e-02,
435,5.26e-01,5.72e-02,
436,5.26e-01,5.64e-02,
437,5.18e-01,5.72e-02,
438,5.16e-01,5.68e-02,
439,5.26e-01,5.72e-02,
440,5.16e-01,5.72e-02,
441,5.26e-01,5.76e-02,
442,5.16e-01,5.80e-02,
443,5.26e-01,5.88e-02,
444,5.26e-01,5.80e-02,
445,5.18e-01,5.96e-02,
446,5.20e-01,5.88e-02,
447,5.30e-01,6.00e-02,
448,5.28e-01,6.04e-02,
449,5.18e-01,5.92e-02,
450,5.26e-01,6.00e-02,
451,5.20e-01,6.04e-02,
452,5.20e-01,6.08e-02,
453,5.30e-01,6.00e-02,
454,5.20e-01,6.00e-02,
455,5.32e-01,6.08e-02,
456,5.32e-01,6.00e-02,
457,5.20e-01,6.08e-02,
458,5.20e-01,6.04e-02,
459,5.28e-01,6.16e-02,
460,5.20e-01,6.08e-02,
461,5.34e-01,6.12e-02,
462,5.22e-01,6.12e-02,
463,5.34e-01,6.08e-02,
464,5.22e-01,6.08e-02,
465,5.32e-01,6.12e-02,
466,5.22e-01,6.16e-02,
467,5.34e-01,6.04e-02,
468,5.32e-01,6.08e-02,
469,5.26e-01,6.12e-02,
470,5.32e-01,6.08e-02,
471,5.26e-01,6.20e-02,
472,5.36e-01,6.08e-02,
473,5.24e-01,6.12e-02,
474,5.26e-01,6.08e-02,
475,5.36e-01,6.12e-02,
476,5.26e-01,6.08e-02,
477,5.36e-01,6.16e-02,
478,5.28e-01,6.08e-02,
479,5.38e-01,6.12e-02,
480,5.28e-01,6.16e-02,
481,5.38e-01,6.08e-02,
482,5.28e-01,6.08e-02,
483,5.36e-01,6.16e-02,
484,5.28e-01,6.12e-02,
485,5.38e-01,6.08e-02,
486,5.40e-01,6.12e-02,
487,5.28e-01,6.08e-02,
488,5.38e-01,6.12e-02,
489,5.30e-01,6.08e-02,
490,5.38e-01,6.12e-02,
491,5.28e-01,6.04e-02,
492,5.32e-01,6.12e-02,
493,5.40e-01,6.08e-02,
494,5.32e-01,6.12e-02,
495,5.42e-01,6.08e-02,
496,5.32e-01,6.08e-02,
497,5.44e-01,6.16e-02,
498,5.32e-01,6.16e-02,
499,5.40e-01,6.08e-02,
500,5.40e-01,6.08e-02,
501,5.32e-01,6.16e-02,
502,5.34e-01,6.08e-02,
503,5.40e-01,6.16e-02,
504,5.34e-01,6.12e-02,
505,5.40e-01,6.08e-02,
506,5.44e-01,6.04e-02,
507,5.32e-01,6.12e-02,
508,5.34e-01,6.08e-02,
509,5.44e-01,6.00e-02,
510,5.34e-01,6.00e-02,
511,5.48e-01,6.08e-02,
512,5.46e-01,6.04e-02,
513,5.38e-01,5.96e-02,
514,5.38e-01,6.00e-02,
515,5.50e-01,6.08e-02,
516,5.38e-01,6.04e-02,
517,5.48e-01,6.08e-02,
518,5.46e-01,6.12e-02,
519,5.36e-01,6.00e-02,
520,5.46e-01,6.12e-02,
521,5.36e-01,6.04e-02,
522,5.36e-01,6.08e-02,
523,5.50e-01,6.12e-02,
524,5.38e-01,6.08e-02,
525,5.48e-01,6.12e-02,
526,5.48e-01,6.08e-02,
527,5.36e-01,6.04e-02,
528,5.36e-01,6.08e-02,
529,5.50e-01,6.12e-02,
530,5.42e-01,6.08e-02,
531,5.50e-01,6.12e-02,
532,5.38e-01,6.20e-02,
533,5.52e-01,6.00e-02,
534,5.40e-01,6.12e-02,
535,5.52e-01,6.08e-02,
536,5.40e-01,6.04e-02,
537,5.52e-01,6.12e-02,
538,5.40e-01,6.16e-02,
539,5.52e-01,6.04e-02,
540,5.42e-01,6.16e-02,
541,5.54e-01,6.08e-02,
542,5.52e-01,6.08e-02,
543,5.46e-01,6.16e-02,
544,5.56e-01,6.12e-02,
545,5.42e-01,6.04e-02,
546,5.42e-01,6.08e-02,
547,5.56e-01,6.04e-02,
548,5.52e-01,6.08e-02,
549,5.46e-01,6.16e-02,
550,5.56e-01,6.16e-02,
551,5.46e-01,6.04e-02,
552,5.56e-01,6.04e-02,
553,5.46e-01,6.12e-02,
554,5.46e-01,6.16e-02,
555,5.58e-01,6.08e-02,
556,5.46e-01,6.08e-02,
557,5.56e-01,6.12e-02,
558,5.48e-01,6.08e-02,
559,5.56e-01,6.08e-02,
560,5.58e-01,6.04e-02,
561,5.48e-01,6.16e-02,
562,5.58e-01,6.08e-02,
563,5.48e-01,6.04e-02,
564,5.62e-01,6.08e-02,
565,5.48e-01,6.00e-02,
566,5.50e-01,6.08e-02,
567,5.62e-01,6.12e-02,
568,5.48e-01,6.08e-02,
569,5.58e-01,6.12e-02,
570,5.52e-01,6.04e-02,
571,5.64e-01,6.12e-02,
572,5.52e-01,6.16e-02,
573,5.60e-01,6.04e-02,
574,5.60e-01,6.16e-02,
575,5.52e-01,6.04e-02,
576,5.64e-01,6.08e-02,
577,5.52e-01,6.00e-02,
578,5.52e-01,6.08e-02,
579,5.62e-01,6.04e-02,
580,5.60e-01,6.04e-02,
581,5.52e-01,6.08e-02,
582,5.64e-01,6.08e-02,
583,5.52e-01,6.04e-02,
584,5.64e-01,6.08e-02,
585,5.54e-01,6.04e-02,
586,5.54e-01,6.08e-02,
587,5.66e-01,6.00e-02,
588,5.54e-01,6.04e-02,
589,5.66e-01,6.08e-02,
590,5.58e-01,6.00e-02,
591,5.66e-01,6.08e-02,
592,5.56e-01,6.04e-02,
593,5.64e-01,5.96e-02,
594,5.56e-01,6.00e-02,
595,5.66e-01,6.04e-02,
596,5.70e-01,6.00e-02,
597,5.54e-01,5.92e-02,
598,5.58e-01,5.96e-02,
599,5.68e-01,5.88e-02,
600,5.58e-01,5.92e-02,
601,5.66e-01,5.76e-02,
602,5.60e-01,5.80e-02,
603,5.68e-01,5.72e-02,
604,5.60e-01,5.72e-02,
605,5.70e-01,5.52e-02,
606,5.70e-01,5.60e-02,
607,5.60e-01,5.48e-02,
608,5.70e-01,5.48e-02,
609,5.60e-01,5.40e-02,
610,5.60e-01,5.44e-02,
611,5.70e-01,5.56e-02,
612,5.70e-01,5.48e-02,
613,5.62e-01,5.56e-02,
614,5.64e-01,5.56e-02,
615,5.72e-01,5.72e-02,
616,5.70e-01,5.68e-02,
617,5.64e-01,5.76e-02,
618,5.74e-01,5.76e-02,
619,5.62e-01,5.88e-02,
620,5.72e-01,5.84e-02,
621,5.62e-01,5.92e-02,
622,5.74e-01,5.88e-02,
623,5.64e-01,5.96e-02,
624,5.64e-01,5.92e-02,
625,5.72e-01,6.00e-02,
626,5.66e-01,5.96e-02,
627,5.76e-01,6.08e-02,
628,5.78e-01,5.96e-02,
629,5.66e-01,6.08e-02,
630,5.76e-01,6.00e-02,
631,5.66e-01,6.08e-02,
632,5.66e-01,6.08e-02,
633,5.74e-01,6.00e-02,
634,5.76e-01,6.08e-02,
635,5.68e-01,6.00e-02,
636,5.66e-01,6.08e-02,
637,5.78e-01,6.00e-02,
638,5.68e-01,6.08e-02,
639,5.82e-01,6.04e-02,
640,5.78e-01,6.08e-02,
641,5.70e-01,6.04e-02,
642,5.78e-01,6.08e-02,
643,5.68e-01,6.00e-02,
644,5.72e-01,6.08e-02,
645,5.78e-01,6.04e-02,
646,5.82e-01,6.04e-02,
647,5.72e-01,6.08e-02,
648,5.82e-01,6.08e-02,
649,5.72e-01,6.04e-02,
650,5.72e-01,6.04e-02,
651,5.82e-01,6.16e-02,
652,5.74e-01,6.12e-02,
653,5.80e-01,6.00e-02,
654,5.72e-01,6.04e-02,
655,5.84e-01,6.08e-02,
656,5.72e-01,6.12e-02,
657,5.84e-01,6.04e-02,
658,5.84e-01,6.04e-02,
659,5.74e-01,6.08e-02,
660,5.72e-01,6.08e-02,
661,5.82e-01,6.04e-02,
662,5.74e-01,6.08e-02,
663,5.88e-01,6.04e-02,
664,5.74e-01,6.08e-02,
665,5.88e-01,6.04e-02,
666,5.76e-01,6.12e-02,
667,5.86e-01,6.04e-02,
668,5.86e-01,6.04e-02,
669,5.74e-01,6.12e-02,
670,5.84e-01,6.08e-02,
671,5.76e-01,6.00e-02,
672,5.78e-01,6.08e-02,
673,5.86e-01,6.04e-02,
674,5.78e-01,6.08e-02,
675,5.88e-01,6.00e-02,
676,5.78e-01,6.04e-02,
677,5.90e-01,6.00e-02,
678,5.78e-01,6.04e-02,
679,5.90e-01,5.92e-02,
680,5.88e-01,5.96e-02,
681,5.82e-01,6.04e-02,
682,5.88e-01,6.00e-02,
683,5.80e-01,5.92e-02,
684,5.94e-01,6.00e-02,
685,5.80e-01,5.92e-02,
686,5.94e-01,6.00e-02,
687,5.80e-01,5.96e-02,
688,5.92e-01,6.04e-02,
689,5.82e-01,5.96e-02,
690,5.80e-01,6.04e-02,
691,5.94e-01,5.96e-02,
692,5.92e-01,6.04e-02,
693,5.84e-01,6.00e-02,
694,5.82e-01,6.08e-02,
695,5.92e-01,6.00e-02,
696,5.84e-01,6.08e-02,
697,5.92e-01,6.00e-02,
698,5.84e-01,6.04e-02,
699,5.96e-01,6.08e-02,
700,5.96e-01,6.04e-02,
701,5.84e-01,6.08e-02,
702,5.94e-01,6.04e-02,
703,5.86e-01,6.12e-02,
704,5.96e-01,5.96e-02,
705,5.84e-01,6.12e-02,
706,5.84e-01,6.04e-02,
707,5.98e-01,6.12e-02,
708,5.96e-01,6.08e-02,
709,5.88e-01,6.12e-02,
710,5.88e-01,6.08e-02,
711,5.98e-01,6.04e-02,
712,5.90e-01,6.08e-02,
713,5.96e-01,6.04e-02,
714,5.98e-01,6.04e-02,
715,5.90e-01,6.16e-02,
716,5.90e-01,6.08e-02,
717,5.98e-01,6.00e-02,
718,6.00e-01,6.08e-02,
719,5.88e-01,6.00e-02,
720,5.90e-01,6.08e-02,
721,5.98e-01,6.04e-02,
722,6.00e-01,6.04e-02,
723,5.92e-01,6.12e-02,
724,5.92e-01,6.00e-02,
725,6.02e-01,6.12e-02,
726,5.92e-01,6.04e-02,
727,6.02e-01,6.08e-02,
728,5.92e-01,6.08e-02,
729,6.02e-01,6.04e-02,
730,6.00e-01,6.00e-02,
731,5.92e-01,6.08e-02,
732,5.92e-01,6.08e-02,
733,6.04e-01,6.00e-02,
734,5.96e-01,6.00e-02,
735,6.00e-01,6.08e-02,
736,6.04e-01,6.04e-02,
737,5.92e-01,6.08e-02,
738,6.04e-01,6.08e-02,
739,5.94e-01,6.00e-02,
740,5.94e-01,6.04e-02,
741,6.08e-01,6.08e-02,
742,6.04e-01,6.12e-02,
743,5.94e-01,6.00e-02,
744,5.96e-01,6.04e-02,
745,6.06e-01,6.08e-02,
746,5.98e-01,5.96e-02,
747,6.10e-01,6.08e-02,
748,6.06e-01,6.04e-02,
749,5.98e-01,6.08e-02,
750,6.08e-01,6.08e-02,
751,5.98e-01,5.96e-02,
752,6.08e-01,6.04e-02,
753,5.98e-01,6.00e-02,
754,6.08e-01,6.08e-02,
755,5.98e-01,6.00e-02,
756,6.10e-01,6.08e-02,
757,5.98e-01,6.00e-02,
758,6.10e-01,6.04e-02,
759,6.02e-01,6.00e-02,
760,6.00e-01,6.00e-02,
761,6.12e-01,5.92e-02,
762,6.10e-01,6.04e-02,
763,6.00e-01,5.96e-02,
764,6.14e-01,6.00e-02,
765,6.02e-01,5.92e-02,
766,6.10e-01,6.00e-02,
767,6.00e-01,5.96e-02,
768,6.04e-01,6.00e-02,
769,6.14e-01,5.88e-02,
770,6.14e-01,5.84e-02,
771,6.02e-01,5.92e-02,
772,6.06e-01,5.88e-02,
773,6.16e-01,5.72e-02,
774,6.20e-01,5.72e-02,
775,6.04e-01,5.56e-02,
776,6.14e-01,5.60e-02,
777,6.04e-01,5.48e-02,
778,6.04e-01,5.36e-02,
779,6.16e-01,5.24e-02,
780,6.16e-01,5.24e-02,
781,6.06e-01,5.16e-02,
782,6.16e-01,5.16e-02,
783,6.06e-01,5.28e-02,
784,6.16e-01,5.20e-02,
785,6.08e-01,5.32e-02,
786,6.06e-01,5.36e-02,
787,6.20e-01,5.48e-02,
788,6.08e-01,5.48e-02,
789,6.16e-01,5.56e-02,
790,6.10e-01,5.60e-02,
791,6.18e-01,5.72e-02,
792,6.18e-01,5.68e-02,
793,6.06e-01,5.84e-02,
794,6.08e-01,5.80e-02,
795,6.20e-01,5.88e-02,
796,6.22e-01,5.92e-02,
797,6.10e-01,5.88e-02,
798,6.12e-01,5.96e-02,
799,6.22e-01,5.92e-02,
800,6.10e-01,6.00e-02,
801,6.20e-01,5.96e-02,
802,6.20e-01,6.00e-02,
803,6.10e-01,5.92e-02,
804,6.22e-01,6.00e-02,
805,6.10e-01,6.04e-02,
806,6.26e-01,6.04e-02,
807,6.12e-01,5.96e-02,
808,6.26e-01,6.00e-02,
809,6.12e-01,6.08e-02,
810,6.26e-01,6.04e-02,
811,6.14e-01,6.00e-02,
812,6.14e-01,6.00e-02,
813,6.26e-01,6.08e-02,
814,6.22e-01,6.04e-02,
815,6.14e-01,6.00e-02,
816,6.16e-01,6.04e-02,
817,6.26e-01,6.00e-02,
818,6.24e-01,6.04e-02,
819,6.18e-01,5.96e-02,
820,6.16e-01,6.08e-02,
821,6.26e-01,6.00e-02,
822,6.28e-01,6.04e-02,
823,6.16e-01,6.00e-02,
824,6.28e-01,6.04e-02,
825,6.18e-01,6.00e-02,
826,6.18e-01,6.04e-02,
827,6.28e-01,6.08e-02,
828,6.18e-01,6.00e-02,
829,6.30e-01,6.08e-02,
830,6.18e-01,6.04e-02,
831,6.30e-01,6.00e-02,
832,6.30e-01,5.96e-02,
833,6.18e-01,6.04e-02,
834,6.30e-01,6.04e-02,
835,6.18e-01,5.96e-02,
836,6.22e-01,5.96e-02,
837,6.30e-01,6.04e-02,
838,6.30e-01,6.04e-02,
839,6.22e-01,5.96e-02,
840,6.20e-01,6.04e-02,
841,6.32e-01,5.96e-02,
842,6.22e-01,6.00e-02,
843,6.36e-01,6.04e-02,
844,6.24e-01,6.04e-02,
845,6.34e-01,5.96e-02,
846,6.22e-01,6.04e-02,
847,6.32e-01,5.92e-02,
848,6.24e-01,5.96e-02,
849,6.32e-01,5.88e-02,
850,6.36e-01,5.96e-02,
851,6.20e-01,5.84e-02,
852,6.24e-01,5.84e-02,
853,6.34e-01,5.92e-02,
854,6.26e-01,5.84e-02,
855,6.34e-01,5.96e-02,
856,6.28e-01,5.88e-02,
857,6.36e-01,5.96e-02,
858,6.36e-01,5.88e-02,
859,6.24e-01,6.00e-02,
860,6.36e-01,6.00e-02,
861,6.26e-01,5.92e-02,
862,6.26e-01,5.96e-02,
863,6.38e-01,6.04e-02,
864,6.30e-01,5.96e-02,
865,6.36e-01,6.04e-02,
866,6.40e-01,5.96e-02,
867,6.26e-01,6.04e-02,
868,6.40e-01,6.00e-02,
869,6.30e-01,6.04e-02,
870,6.26e-01,6.00e-02,
