data/Apr 1 measurement/NewFile80kHz.csv

X,CH1,CH2,Start,Increment,
Sequence,Volt,Volt,6.700000e-01,5.000000e-03
0,5.74e-01,4.00e-03,
1,5.84e-01,1.60e-02,
2,5.82e-01,1.60e-02,
3,5.72e-01,2.80e-02,
4,5.82e-01,2.40e-02,
5,5.72e-01,3.20e-02,
6,5.74e-01,3.20e-02,
7,5.82e-01,4.00e-02,
8,5.74e-01,4.00e-02,
9,5.86e-01,4.00e-02,
10,5.84e-01,4.40e-02,
11,5.72e-01,4.80e-02,
12,5.78e-01,5.20e-02,
13,5.86e-01,4.80e-02,
14,5.88e-01,4.80e-02,
15,5.76e-01,5.60e-02,
16,5.86e-01,5.60e-02,
17,5.78e-01,5.20e-02,
18,5.78e-01,5.20e-02,
19,5.86e-01,6.00e-02,
20,5.90e-01,6.00e-02,
21,5.80e-01,5.60e-02,
22,5.82e-01,6.00e-02,
23,5.94e-01,5.60e-02,
24,5.78e-01,5.60e-02,
25,5.88e-01,6.40e-02,
26,5.84e-01,6.40e-02,
27,5.94e-01,6.00e-02,
28,5.84e-01,6.40e-02,
29,5.90e-01,6.00e-02,
30,5.84e-01,6.00e-02,
31,5.94e-01,6.40e-02,
32,5.90e-01,6.40e-02,
33,5.86e-01,6.00e-02,
34,5.94e-01,6.00e-02,
35,5.84e-01,6.80e-02,
36,5.84e-01,6.80e-02,
37,5.94e-01,6.80e-02,
38,5.84e-01,6.80e-02,
39,5.96e-01,6.80e-02,
40,5.84e-01,6.80e-02,
41,5.96e-01,6.80e-02,
42,5.96e-01,6.80e-02,
43,5.84e-01,6.80e-02,
44,5.86e-01,6.80e-02,
45,5.94e-01,6.80e-02,
46,5.88e-01,6.80e-02,
47,5.98e-01,6.80e-02,
48,5.90e-01,6.80e-02,
49,5.98e-01,6.80e-02,
50,5.98e-01,6.80e-02,
51,5.90e-01,6.80e-02,
52,5.90e-01,6.80e-02,
53,6.02e-01,7.20e-02,
54,5.88e-01,6.80e-02,
55,6.00e-01,7.60e-02,
56,6.02e-01,6.80e-02,
57,5.92e-01,7.60e-02,
58,5.92e-01,7.20e-02,
59,6.02e-01,6.80e-02,
60,5.92e-01,7.20e-02,
61,6.04e-01,7.20e-02,
62,5.96e-01,7.60e-02,
63,2.28e-01,5.20e-02,
64,2.32e-01,5.20e-02,
65,2.38e-01,0.00e+00,
66,2.34e-01,-1.20e-02,
67,2.42e-01,-4.40e-02,
68,2.42e-01,-4.40e-02,
69,2.32e-01,-4.80e-02,
70,2.42e-01,-4.40e-02,
71,2.34e-01,-2.00e-02,
72,2.34e-01,-2.00e-02,
73,2.40e-01,4.00e-03,
74,2.44e-01,8.00e-03,
75,2.34e-01,3.20e-02,
76,2.34e-01,3.60e-02,
77,2.44e-01,4.80e-02,
78,2.34e-01,4.80e-02,
79,2.44e-01,6.40e-02,
80,2.40e-01,6.40e-02,
81,2.38e-01,6.80e-02,
82,2.40e-01,6.80e-02,
83,2.46e-01,7.20e-02,
84,2.40e-01,6.80e-02,
85,2.46e-01,6.80e-02,
86,2.40e-01,6.80e-02,
87,2.46e-01,6.80e-02,
88,2.46e-01,6.40e-02,
89,2.40e-01,7.20e-02,
90,2.40e-01,6.40e-02,
91,2.46e-01,6.40e-02,
92,2.50e-01,6.40e-02,
93,2.40e-01,6.40e-02,
94,2.50e-01,6.40e-02,
95,2.40e-01,6.00e-02,
96,2.42e-01,6.40e-02,
97,2.50e-01,6.00e-02,
98,2.44e-01,6.40e-02,
99,2.52e-01,6.40e-02,
100,2.50e-01,6.40e-02,
101,2.44e-01,6.40e-02,
102,2.52e-01,6.40e-02,
103,2.42e-01,6.40e-02,
104,2.52e-01,6.40e-02,
105,2.46e-01,6.00e-02,
106,2.46e-01,6.40e-02,
107,2.56e-01,5.60e-02,
108,2.46e-01,6.00e-02,
109,2.56e-01,5.60e-02,
110,2.46e-01,5.60e-02,
111,2.54e-01,6.00e-02,
112,2.58e-01,5.60e-02,
113,2.46e-01,6.00e-02,
114,2.46e-01,6.00e-02,
115,2.58e-01,5.60e-02,
116,2.50e-01,6.00e-02,
117,2.58e-01,6.00e-02,
118,2.58e-01,6.00e-02,
119,2.50e-01,5.60e-02,
120,2.48e-01,6.00e-02,
121,2.58e-01,5.60e-02,
122,2.58e-01,6.00e-02,
123,2.52e-01,5.60e-02,
124,2.54e-01,6.00e-02,
125,2.62e-01,5.60e-02,
126,2.52e-01,5.20e-02,
127,2.60e-01,5.60e-02,
128,2.54e-01,5.20e-02,
129,2.64e-01,5.60e-02,
130,2.52e-01,5.20e-02,
131,2.60e-01,5.60e-02,
132,2.54e-01,5.60e-02,
133,2.60e-01,5.20e-02,
134,2.62e-01,5.20e-02,
135,2.54e-01,5.60e-02,
136,2.62e-01,5.20e-02,
137,2.58e-01,5.60e-02,
138,2.56e-01,5.20e-02,
139,2.64e-01,4.80e-02,
140,2.64e-01,4.80e-02,
141,2.58e-01,5.20e-02,
142,2.66e-01,4.80e-02,
143,2.56e-01,5.20e-02,
144,2.60e-01,4.80e-02,
145,2.66e-01,5.20e-02,
146,2.60e-01,5.20e-02,
147,2.68e-01,4.40e-02,
148,2.60e-01,4.40e-02,
149,2.68e-01,4.80e-02,
150,2.60e-01,4.40e-02,
151,2.70e-01,4.80e-02,
152,2.60e-01,4.40e-02,
153,2.70e-01,4.40e-02,
154,2.62e-01,4.00e-02,
155,2.70e-01,4.80e-02,
156,2.64e-01,4.00e-02,
157,2.72e-01,4.40e-02,
158,2.62e-01,4.40e-02,
159,2.72e-01,3.60e-02,
160,2.66e-01,4.00e-02,
161,2.72e-01,3.60e-02,
162,2.64e-01,3.60e-02,
163,2.72e-01,3.20e-02,
164,2.66e-01,3.60e-02,
165,2.74e-01,3.20e-02,
166,2.72e-01,2.80e-02,
167,2.66e-01,3.20e-02,
168,2.72e-01,3.20e-02,
169,2.66e-01,3.20e-02,
170,2.66e-01,3.20e-02,
171,2.74e-01,2.40e-02,
172,2.68e-01,2.80e-02,
173,2.74e-01,2.40e-02,
174,2.68e-01,2.40e-02,
175,2.78e-01,2.00e-02,
176,2.68e-01,2.40e-02,
177,2.76e-01,1.60e-02,
178,2.76e-01,1.60e-02,
179,2.70e-01,1.60e-02,
180,2.70e-01,2.00e-02,
181,2.82e-01,1.20e-02,
182,2.72e-01,1.20e-02,
183,2.80e-01,8.00e-03,
184,2.72e-01,8.00e-03,
185,2.82e-01,4.00e-03,
186,2.72e-01,4.00e-03,
187,2.82e-01,0.00e+00,
188,2.74e-01,-4.00e-03,
189,2.82e-01,0.00e+00,
190,2.74e-01,-8.00e-03,
191,2.80e-01,-4.00e-03,
192,2.76e-01,-8.00e-03,
193,2.82e-01,-1.60e-02,
194,2.74e-01,-1.60e-02,
195,2.84e-01,-2.40e-02,
196,2.74e-01,-2.00e-02,
197,2.84e-01,-2.40e-02,
198,2.78e-01,-2.40e-02,
199,2.84e-01,-3.60e-02,
200,2.76e-01,-3.20e-02,
201,2.84e-01,-4.00e-02,
202,2.84e-01,-3.60e-02,
203,2.74e-01,-4.80e-02,
204,2.78e-01,-4.80e-02,
205,2.86e-01,-5.60e-02,
206,2.88e-01,-5.60e-02,
207,2.80e-01,-6.40e-02,
208,2.84e-01,-6.40e-02,
209,2.80e-01,-7.20e-02,
210,2.90e-01,-7.60e-02,
211,2.80e-01,-8.80e-02,
212,2.86e-01,-8.40e-02,
213,2.80e-01,-9.60e-02,
214,2.80e-01,-1.00e-01,
215,2.88e-01,-1.12e-01,
216,2.90e-01,-1.08e-01,
217,2.84e-01,-1.20e-01,
218,2.94e-01,-1.24e-01,
219,2.84e-01,-1.36e-01,
220,2.86e-01,-1.36e-01,
221,2.90e-01,-1.48e-01,
222,2.92e-01,-1.48e-01,
223,2.84e-01,-1.64e-01,
224,2.94e-01,-1.64e-01,
225,2.84e-01,-1.76e-01,
226,2.94e-01,-1.80e-01,
227,2.88e-01,-1.92e-01,
228,2.86e-01,-1.92e-01,
229,2.94e-01,-2.08e-01,
230,2.86e-01,-2.12e-01,
231,2.96e-01,-2.20e-01,
232,2.88e-01,-2.20e-01,
233,2.96e-01,-2.32e-01,
234,2.86e-01,-2.36e-01,
235,2.98e-01,-2.44e-01,
236,2.96e-01,-2.44e-01,
237,2.88e-01,-2.52e-01,
238,2.92e-01,-2.48e-01,
239,2.96e-01,-2.56e-01,
240,2.98e-01,-2.52e-01,
241,2.90e-01,-2.56e-01,
242,2.92e-01,-2.56e-01,
243,3.02e-01,-2.48e-01,
244,2.92e-01,-2.52e-01,
245,2.98e-01,-2.44e-01,
246,2.92e-01,-2.44e-01,
247,3.02e-01,-2.32e-01,
248,2.96e-01,-2.36e-01,
249,3.02e-01,-2.24e-01,
250,2.94e-01,-2.20e-01,
251,3.00e-01,-2.12e-01,
252,3.04e-01,-2.08e-01,
253,2.92e-01,-2.00e-01,
254,3.02e-01,-1.96e-01,
255,2.96e-01,-1.84e-01,
256,2.98e-01,-1.80e-01,
257,3.04e-01,-1.68e-01,
258,3.04e-01,-1.64e-01,
259,2.96e-01,-1.48e-01,
260,3.04e-01,-1.52e-01,
261,2.96e-01,-1.40e-01,
262,3.04e-01,-1.40e-01,
263,2.98e-01,-1.24e-01,
264,3.06e-01,-1.24e-01,
265,2.98e-01,-1.12e-01,
266,3.06e-01,-1.12e-01,
267,2.98e-01,-9.60e-02,
268,3.00e-01,-1.00e-01,
269,3.08e-01,-8.80e-02,
270,3.10e-01,-8.80e-02,
271,3.00e-01,-7.60e-02,
272,3.00e-01,-7.60e-02,
273,3.10e-01,-6.40e-02,
274,3.02e-01,-6.80e-02,
275,3.08e-01,-5.60e-02,
276,3.04e-01,-6.00e-02,
277,3.10e-01,-4.80e-02,
278,3.10e-01,-5.20e-02,
279,3.04e-01,-4.00e-02,
280,3.04e-01,-4.00e-02,
281,3.14e-01,-3.20e-02,
282,3.10e-01,-3.60e-02,
283,3.06e-01,-2.40e-02,
284,3.06e-01,-2.80e-02,
285,3.10e-01,-2.00e-02,
286,3.12e-01,-2.00e-02,
287,3.08e-01,-1.60e-02,
288,3.16e-01,-1.60e-02,
289,3.08e-01,-8.00e-03,
290,3.12e-01,-8.00e-03,
291,3.06e-01,0.00e+00,
292,3.06e-01,-4.00e-03,
293,3.16e-01,4.00e-03,
294,3.16e-01,0.00e+00,
295,3.10e-01,8.00e-03,
296,3.12e-01,8.00e-03,
297,3.16e-01,8.00e-03,
298,3.18e-01,4.00e-03,
299,3.10e-01,1.20e-02,
300,3.18e-01,1.60e-02,
301,3.12e-01,1.20e-02,
302,3.12e-01,1.60e-02,
303,3.18e-01,2.00e-02,
304,3.12e-01,2.00e-02,
305,3.20e-01,2.40e-02,
306,3.14e-01,2.00e-02,
307,3.20e-01,2.80e-02,
308,3.22e-01,2.80e-02,
309,3.16e-01,2.40e-02,
310,3.22e-01,2.80e-02,
311,3.14e-01,3.20e-02,
312,3.14e-01,2.80e-02,
313,3.22e-01,3.20e-02,
314,3.20e-01,3.20e-02,
315,3.14e-01,3.60e-02,
316,3.18e-01,3.20e-02,
317,3.24e-01,3.60e-02,
318,3.18e-01,3.60e-02,
319,3.24e-01,3.20e-02,
320,3.18e-01,4.00e-02,
321,3.26e-01,4.00e-02,
322,3.18e-01,4.00e-02,
323,3.26e-01,4.00e-02,
324,3.24e-01,4.00e-02,
325,3.18e-01,4.40e-02,
326,3.18e-01,4.40e-02,
327,3.28e-01,4.80e-02,
328,3.22e-01,4.40e-02,
329,3.26e-01,4.80e-02,
330,3.26e-01,4.80e-02,
331,3.20e-01,4.40e-02,
332,3.20e-01,5.20e-02,
333,3.28e-01,4.80e-02,
334,3.30e-01,4.80e-02,
335,3.22e-01,5.20e-02,
336,3.24e-01,4.80e-02,
337,3.30e-01,5.20e-02,
338,3.24e-01,4.80e-02,
339,3.30e-01,5.20e-02,
340,3.34e-01,4.80e-02,
341,3.24e-01,5.60e-02,
342,3.30e-01,5.20e-02,
343,3.26e-01,5.60e-02,
344,3.24e-01,5.60e-02,
345,3.34e-01,5.20e-02,
346,3.26e-01,5.20e-02,
347,3.34e-01,5.60e-02,
348,3.26e-01,5.20e-02,
349,3.34e-01,5.60e-02,
350,3.34e-01,5.60e-02,
351,3.30e-01,5.20e-02,
352,3.30e-01,5.20e-02,
353,3.34e-01,6.00e-02,
354,3.30e-01,5.60e-02,
355,3.40e-01,6.00e-02,
356,3.36e-01,5.60e-02,
357,3.30e-01,6.00e-02,
358,3.30e-01,5.60e-02,
359,3.36e-01,6.00e-02,
360,3.30e-01,6.00e-02,
361,3.42e-01,5.60e-02,
362,3.32e-01,6.00e-02,
363,3.42e-01,6.00e-02,
364,3.40e-01,6.00e-02,
365,3.32e-01,6.00e-02,
366,3.32e-01,6.00e-02,
367,3.38e-01,5.60e-02,
368,3.32e-01,6.00e-02,
369,3.40e-01,6.40e-02,
370,3.42e-01,6.40e-02,
371,3.34e-01,5.60e-02,
372,3.36e-01,6.40e-02,
373,3.40e-01,6.40e-02,
374,3.40e-01,6.00e-02,
375,3.34e-01,6.40e-02,
376,3.42e-01,6.40e-02,
377,3.36e-01,6.00e-02,
378,3.46e-01,6.40e-02,
379,3.36e-01,6.00e-02,
380,3.36e-01,6.40e-02,
381,3.48e-01,6.00e-02,
382,3.44e-01,6.40e-02,
383,3.38e-01,6.00e-02,
384,3.38e-01,6.40e-02,
385,3.48e-01,6.00e-02,
386,3.48e-01,6.40e-02,
387,3.40e-01,6.40e-02,
388,3.38e-01,6.40e-02,
389,3.44e-01,6.40e-02,
390,3.38e-01,6.40e-02,
391,3.48e-01,6.40e-02,
392,3.50e-01,6.00e-02,
393,3.40e-01,6.40e-02,
394,3.44e-01,6.40e-02,
395,3.50e-01,6.40e-02,
396,3.44e-01,6.40e-02,
397,3.50e-01,6.80e-02,
398,3.44e-01,6.80e-02,
399,3.50e-01,7.20e-02,
400,3.44e-01,6.80e-02,
401,3.50e-01,6.40e-02,
402,3.44e-01,6.80e-02,
403,3.52e-01,7.20e-02,
404,3.48e-01,6.80e-02,
405,3.54e-01,6.80e-02,
406,3.48e-01,6.80e-02,
407,3.52e-01,7.20e-02,
408,3.48e-01,6.80e-02,
409,3.54e-01,6.80e-02,
410,3.58e-01,7.20e-02,
411,3.46e-01,6.80e-02,
412,3.50e-01,6.80e-02,
413,3.56e-01,6.80e-02,
414,3.50e-01,6.80e-02,
415,3.58e-01,7.20e-02,
416,3.60e-01,6.80e-02,
417,3.50e-01,6.80e-02,
418,3.50e-01,6.80e-02,
419,3.58e-01,6.80e-02,
420,3.56e-01,6.80e-02,
421,3.52e-01,6.80e-02,
422,3.52e-01,6.80e-02,
423,3.60e-01,6.80e-02,
424,3.52e-01,6.80e-02,
425,3.60e-01,6.80e-02,
426,3.52e-01,6.80e-02,
427,3.62e-01,6.80e-02,
428,3.62e-01,6.80e-02,
429,3.54e-01,6.80e-02,
430,3.60e-01,6.80e-02,
431,3.54e-01,7.20e-02,
432,3.54e-01,6.80e-02,
433,3.62e-01,6.80e-02,
434,3.62e-01,6.80e-02,
435,3.56e-01,7.20e-02,
436,3.56e-01,6.80e-02,
437,3.64e-01,7.60e-02,
438,3.56e-01,6.80e-02,
439,3.66e-01,6.80e-02,
440,3.58e-01,6.80e-02,
441,3.66e-01,7.20e-02,
442,3.66e-01,7.60e-02,
443,3.58e-01,6.80e-02,
444,3.58e-01,6.80e-02,
445,3.66e-01,7.20e-02,
446,3.66e-01,7.60e-02,
447,3.60e-01,6.80e-02,
448,3.58e-01,7.20e-02,
449,3.68e-01,7.20e-02,
450,3.68e-01,7.20e-02,
451,3.58e-01,6.80e-02,
452,3.68e-01,7.20e-02,
453,3.62e-01,7.60e-02,
454,3.64e-01,7.20e-02,
455,3.70e-01,7.60e-02,
456,3.64e-01,7.20e-02,
457,3.72e-01,7.60e-02,
458,3.64e-01,7.20e-02,
459,3.72e-01,7.60e-02,
460,3.68e-01,7.60e-02,
461,3.64e-01,7.20e-02,
462,3.74e-01,7.60e-02,
463,3.64e-01,7.20e-02,
464,3.74e-01,7.20e-02,
465,3.64e-01,7.60e-02,
466,3.74e-01,7.20e-02,
467,3.66e-01,7.60e-02,
468,3.66e-01,7.60e-02,
469,3.76e-01,7.20e-02,
470,3.74e-01,7.20e-02,
471,3.66e-01,7.60e-02,
472,3.70e-01,7.60e-02,
473,3.76e-01,7.20e-02,
474,3.70e-01,7.20e-02,
475,3.78e-01,7.60e-02,
476,3.76e-01,7.20e-02,
477,3.70e-01,7.60e-02,
478,3.78e-01,7.20e-02,
479,3.70e-01,7.20e-02,
480,3.76e-01,7.20e-02,
481,3.70e-01,7.20e-02,
482,3.70e-01,7.20e-02,
483,3.82e-01,7.60e-02,
484,3.80e-01,7.20e-02,
485,3.70e-01,7.20e-02,
486,3.82e-01,7.20e-02,
487,3.72e-01,7.60e-02,
488,3.82e-01,7.20e-02,
489,3.74e-01,7.60e-02,
490,3.80e-01,7.20e-02,
491,3.74e-01,7.60e-02,
492,3.76e-01,7.60e-02,
493,3.86e-01,7.20e-02,
494,3.76e-01,7.20e-02,
495,3.86e-01,7.60e-02,
496,3.78e-01,7.20e-02,
497,3.84e-01,7.60e-02,
498,3.82e-01,7.20e-02,
499,3.76e-01,7.60e-02,
500,3.76e-01,7.20e-02,
501,3.86e-01,7.60e-02,
502,3.78e-01,7.20e-02,
503,3.88e-01,7.60e-02,
504,3.86e-01,7.20e-02,
505,3.82e-01,7.60e-02,
506,3.88e-01,7.20e-02,
507,3.80e-01,7.20e-02,
508,3.80e-01,7.20e-02,
509,3.88e-01,7.60e-02,
510,3.82e-01,7.20e-02,
511,3.92e-01,7.20e-02,
512,3.86e-01,7.20e-02,
513,3.82e-01,7.60e-02,
514,3.84e-01,7.60e-02,
515,3.92e-01,7.20e-02,
516,3.84e-01,7.20e-02,
517,3.94e-01,7.60e-02,
518,3.82e-01,7.20e-02,
519,3.92e-01,7.20e-02,
520,3.90e-01,7.20e-02,
521,3.84e-01,7.20e-02,
522,3.84e-01,7.20e-02,
523,3.94e-01,7.20e-02,
524,3.86e-01,7.20e-02,
525,3.94e-01,7.20e-02,
526,3.88e-01,7.20e-02,
527,3.94e-01,7.60e-02,
528,3.94e-01,7.20e-02,
529,3.88e-01,7.60e-02,
530,3.94e-01,7.20e-02,
531,3.88e-01,7.60e-02,
532,3.88e-01,7.20e-02,
533,3.98e-01,7.60e-02,
534,3.90e-01,7.20e-02,
535,3.96e-01,7.60e-02,
536,3.90e-01,7.20e-02,
537,4.00e-01,7.60e-02,
538,4.00e-01,7.20e-02,
539,3.90e-01,7.60e-02,
540,3.90e-01,7.20e-02,
541,3.98e-01,7.20e-02,
542,4.00e-01,7.60e-02,
543,3.92e-01,7.20e-02,
544,4.00e-01,7.20e-02,
545,3.92e-01,7.60e-02,
546,3.92e-01,7.20e-02,
547,4.04e-01,7.60e-02,
548,3.96e-01,7.20e-02,
549,4.04e-01,7.60e-02,
550,4.02e-01,7.20e-02,
551,3.96e-01,7.60e-02,
552,3.96e-01,7.20e-02,
553,4.02e-01,7.20e-02,
554,3.96e-01,7.20e-02,
555,4.02e-01,7.60e-02,
556,4.02e-01,7.60e-02,
557,3.96e-01,7.20e-02,
558,4.04e-01,7.20e-02,
559,3.98e-01,7.60e-02,
560,4.06e-01,7.20e-02,
561,3.98e-01,7.60e-02,
562,4.06e-01,7.20e-02,
563,3.98e-01,7.60e-02,
564,4.00e-01,7.20e-02,
565,4.08e-01,7.60e-02,
566,4.00e-01,7.20e-02,
567,4.10e-01,7.60e-02,
568,4.02e-01,7.20e-02,
569,4.06e-01,7.60e-02,
570,4.10e-01,7.20e-02,
571,4.02e-01,7.60e-02,
572,4.08e-01,7.20e-02,
573,4.02e-01,7.20e-02,
574,4.12e-01,7.60e-02,
575,4.02e-01,7.20e-02,
576,4.12e-01,7.20e-02,
577,4.04e-01,7.60e-02,
578,4.14e-01,7.20e-02,
579,4.04e-01,7.60e-02,
580,4.04e-01,7.60e-02,
581,4.12e-01,7.20e-02,
582,4.04e-01,7.20e-02,
583,4.14e-01,7.20e-02,
584,4.14e-01,7.20e-02,
585,4.06e-01,7.60e-02,
586,4.04e-01,7.20e-02,
587,4.16e-01,7.60e-02,
588,4.10e-01,7.20e-02,
589,4.18e-01,7.60e-02,
590,4.14e-01,7.20e-02,
591,4.08e-01,7.60e-02,
592,4.18e-01,7.20e-02,
593,4.10e-01,7.60e-02,
594,4.20e-01,7.60e-02,
595,4.10e-01,7.20e-02,
596,4.14e-01,7.20e-02,
597,4.16e-01,7.60e-02,
598,4.18e-01,7.60e-02,
599,4.10e-01,7.20e-02,
600,4.10e-01,7.20e-02,
601,4.20e-01,7.60e-02,
602,4.20e-01,7.20e-02,
603,4.14e-01,7.60e-02,
604,4.14e-01,7.20e-02,
605,4.20e-01,7.60e-02,
606,4.14e-01,7.20e-02,
607,4.24e-01,7.60e-02,
608,4.20e-01,7.60e-02,
609,4.16e-01,7.20e-02,
610,4.16e-01,7.20e-02,
611,4.24e-01,8.00e-02,
612,4.16e-01,7.60e-02,
613,4.22e-01,7.20e-02,
614,4.16e-01,7.60e-02,
615,4.26e-01,7.20e-02,
616,4.24e-01,7.20e-02,
617,4.18e-01,7.60e-02,
618,4.18e-01,7.20e-02,
619,4.26e-01,7.60e-02,
620,4.18e-01,7.60e-02,
621,4.28e-01,7.20e-02,
622,4.18e-01,7.20e-02,
623,4.28e-01,7.20e-02,
624,4.28e-01,7.20e-02,
625,4.22e-01,7.20e-02,
626,4.28e-01,7.20e-02,
627,4.20e-01,7.60e-02,
628,4.28e-01,7.20e-02,
629,4.22e-01,7.60e-02,
630,4.20e-01,7.20e-02,
631,4.28e-01,7.60e-02,
632,4.32e-01,7.20e-02,
633,4.22e-01,7.60e-02,
634,4.22e-01,7.20e-02,
635,4.34e-01,7.60e-02,
636,4.32e-01,7.20e-02,
637,4.22e-01,7.60e-02,
638,4.24e-01,7.20e-02,
639,4.34e-01,7.60e-02,
640,4.32e-01,7.20e-02,
641,4.26e-01,7.60e-02,
642,4.24e-01,7.60e-02,
643,4.34e-01,7.20e-02,
644,4.32e-01,7.20e-02,
645,4.24e-01,7.60e-02,
646,4.28e-01,7.60e-02,
647,4.32e-01,7.20e-02,
648,4.34e-01,7.20e-02,
649,4.28e-01,7.60e-02,
650,4.34e-01,7.20e-02,
651,4.28e-01,7.60e-02,
652,4.34e-01,7.20e-02,
653,4.30e-01,7.20e-02,
654,4.36e-01,7.20e-02,
655,4.30e-01,7.60e-02,
656,4.38e-01,7.20e-02,
657,4.28e-01,7.60e-02,
658,4.30e-01,7.20e-02,
659,4.38e-01,7.60e-02,
660,4.30e-01,7.20e-02,
661,4.38e-01,7.60e-02,
662,4.34e-01,7.20e-02,
663,4.40e-01,7.20e-02,
664,4.34e-01,7.20e-02,
665,4.40e-01,8.00e-02,
666,4.34e-01,7.20e-02,
667,4.40e-01,7.60e-02,
668,4.40e-01,7.20e-02,
669,4.34e-01,7.60e-02,
670,4.40e-01,7.20e-02,
671,4.36e-01,7.60e-02,
672,4.36e-01,7.20e-02,
673,4.42e-01,7.60e-02,
674,4.44e-01,7.20e-02,
675,4.36e-01,7.60e-02,
676,4.46e-01,7.20e-02,
677,4.36e-01,7.60e-02,
678,4.40e-01,7.20e-02,
679,4.46e-01,7.60e-02,
680,4.48e-01,7.20e-02,
681,4.36e-01,7.60e-02,
682,4.46e-01,7.20e-02,
683,4.40e-01,7.60e-02,
684,4.48e-01,7.20e-02,
685,4.40e-01,7.60e-02,
686,4.40e-01,7.20e-02,
687,4.50e-01,7.60e-02,
688,4.46e-01,7.20e-02,
689,4.42e-01,7.60e-02,
690,4.44e-01,7.20e-02,
691,4.50e-01,7.60e-02,
692,4.44e-01,7.20e-02,
693,4.52e-01,7.60e-02,
694,4.52e-01,7.20e-02,
695,4.42e-01,7.60e-02,
696,4.52e-01,7.20e-02,
697,4.42e-01,7.60e-02,
698,4.54e-01,7.20e-02,
699,4.42e-01,7.20e-02,
700,4.52e-01,7.20e-02,
701,4.44e-01,7.60e-02,
702,4.54e-01,7.20e-02,
703,4.48e-01,7.60e-02,
704,4.48e-01,7.60e-02,
705,4.52e-01,7.20e-02,
706,4.48e-01,7.20e-02,
707,4.58e-01,7.60e-02,
708,4.48e-01,7.20e-02,
709,4.58e-01,7.60e-02,
710,4.48e-01,7.60e-02,
711,4.56e-01,7.20e-02,
712,4.48e-01,7.20e-02,
713,4.56e-01,7.60e-02,
714,4.56e-01,7.20e-02,
715,4.50e-01,7.60e-02,
716,4.60e-01,7.20e-02,
717,4.52e-01,7.60e-02,
718,4.50e-01,7.20e-02,
719,4.58e-01,7.60e-02,
720,4.58e-01,7.20e-02,
721,4.52e-01,7.20e-02,
722,4.54e-01,7.60e-02,
723,4.60e-01,7.20e-02,
724,4.54e-01,7.20e-02,
725,4.62e-01,7.20e-02,
726,4.60e-01,7.20e-02,
727,4.54e-01,7.20e-02,
728,4.60e-01,7.20e-02,
729,4.54e-01,7.20e-02,
730,4.58e-01,7.20e-02,
731,4.64e-01,7.60e-02,
732,4.62e-01,7.20e-02,
733,4.56e-01,7.20e-02,
734,4.56e-01,7.60e-02,
735,4.66e-01,7.20e-02,
736,4.56e-01,7.20e-02,
737,4.62e-01,7.60e-02,
738,4.62e-01,7.20e-02,
739,4.56e-01,7.60e-02,
740,4.56e-01,7.20e-02,
741,4.68e-01,7.20e-02,
742,4.60e-01,7.20e-02,
743,4.70e-01,7.60e-02,
744,4.62e-01,7.20e-02,
745,4.66e-01,7.20e-02,
746,4.62e-01,6.80e-02,
747,4.70e-01,7.60e-02,
748,4.60e-01,7.20e-02,
749,4.70e-01,6.80e-02,
750,4.60e-01,6.80e-02,
751,4.68e-01,6.80e-02,
752,4.72e-01,6.80e-02,
753,4.60e-01,6.80e-02,
754,4.72e-01,6.80e-02,
755,4.62e-01,6.80e-02,
756,4.66e-01,6.80e-02,
757,4.72e-01,6.80e-02,
758,4.66e-01,6.80e-02,
759,4.72e-01,6.80e-02,
760,4.66e-01,6.80e-02,
761,4.74e-01,6.40e-02,
762,4.72e-01,6.40e-02,
763,4.66e-01,6.00e-02,
764,4.76e-01,6.40e-02,
765,4.68e-01,6.40e-02,
766,4.76e-01,6.40e-02,
767,4.68e-01,5.60e-02,
768,4.66e-01,5.60e-02,
769,4.76e-01,6.00e-02,
770,4.76e-01,6.00e-02,
771,4.68e-01,5.20e-02,
772,4.78e-01,5.60e-02,
773,4.68e-01,4.80e-02,
774,4.78e-01,5.20e-02,
775,4.70e-01,4.40e-02,
776,4.70e-01,4.00e-02,
777,4.78e-01,3.20e-02,
778,4.72e-01,3.60e-02,
779,4.82e-01,2.40e-02,
780,4.82e-01,2.80e-02,
781,4.72e-01,1.20e-02,
782,4.80e-01,1.20e-02,
783,4.72e-01,-4.00e-03,
784,4.80e-01,0.00e+00,
785,4.74e-01,-1.60e-02,
786,4.74e-01,-1.60e-02,
787,4.84e-01,-2.80e-02,
788,4.74e-01,-2.80e-02,
789,4.82e-01,-3.20e-02,
790,4.84e-01,-3.60e-02,
791,4.74e-01,-3.20e-02,
792,4.78e-01,-3.20e-02,
793,4.86e-01,-2.40e-02,
794,4.82e-01,-2.00e-02,
795,4.76e-01,-8.00e-03,
796,4.76e-01,-8.00e-03,
797,4.90e-01,4.00e-03,
798,4.78e-01,4.00e-03,
799,4.86e-01,1.60e-02,
800,4.88e-01,1.60e-02,
801,4.76e-01,2.40e-02,
802,4.84e-01,2.80e-02,
803,4.88e-01,3.60e-02,
804,4.80e-01,4.00e-02,
805,4.86e-01,4.80e-02,
806,4.86e-01,4.80e-02,
807,4.80e-01,5.20e-02,
808,4.90e-01,5.60e-02,
809,4.80e-01,5.20e-02,
810,4.82e-01,5.20e-02,
811,4.92e-01,6.00e-02,
812,4.82e-01,6.00e-02,
813,4.90e-01,5.60e-02,
814,4.86e-01,6.00e-02,
815,4.92e-01,6.40e-02,
816,4.92e-01,6.40e-02,
817,4.86e-01,6.40e-02,
818,4.92e-01,6.40e-02,
819,4.84e-01,6.00e-02,
820,4.92e-01,6.00e-02,
821,4.86e-01,6.80e-02,
822,4.92e-01,6.80e-02,
823,4.82e-01,6.80e-02,
824,4.86e-01,6.80e-02,
825,4.98e-01,7.20e-02,
826,4.88e-01,6.80e-02,
827,4.92e-01,6.80e-02,
828,4.98e-01,6.80e-02,
829,4.86e-01,6.80e-02,
830,4.88e-01,6.80e-02,
831,4.98e-01,6.80e-02,
832,4.90e-01,6.80e-02,
833,4.98e-01,6.80e-02,
834,4.96e-01,7.20e-02,
835,4.88e-01,6.80e-02,
836,4.92e-01,6.80e-02,
837,5.00e-01,7.60e-02,
838,4.92e-01,7.20e-02,
839,4.98e-01,7.60e-02,
840,4.96e-01,7.20e-02,
841,5.02e-01,7.60e-02,
842,5.02e-01,7.20e-02,
843,4.94e-01,7.20e-02,
844,4.92e-01,7.60e-02,
845,5.04e-01,7.20e-02,
846,4.96e-01,7.20e-02,
847,5.06e-01,7.60e-02,
848,5.04e-01,7.20e-02,
849,4.94e-01,7.60e-02,
850,4.94e-01,7.20e-02,
851,5.04e-01,7.60e-02,
852,4.98e-01,7.20e-02,
853,5.06e-01,7.60e-02,
854,4.98e-01,7.60e-02,
855,5.06e-01,7.20e-02,
856,4.98e-01,7.20e-02,
857,5.08e-01,7.20e-02,
858,5.00e-01,7.20e-02,
859,5.08e-01,7.60e-02,
860,5.00e-01,7.20e-02,
861,5.08e-01,7.60e-02,
862,5.06e-01,7.60e-02,
863,4.98e-01,7.20e-02,
864,5.10e-01,7.20e-02,
