data/Apr 1 measurement/NewFile40kHz.csv

X,CH1,CH2,Start,Increment,
Sequence,Volt,Volt,-6.150000e-01,5.000000e-03
0,2.58e-01,-3.60e-02,
1,2.58e-01,-4.00e-02,
2,2.58e-01,-3.60e-02,
3,2.58e-01,-2.00e-02,
4,2.58e-01,-1.60e-02,
5,2.58e-01,1.20e-02,
6,2.58e-01,1.20e-02,
7,2.58e-01,3.60e-02,
8,2.58e-01,4.00e-02,
9,2.58e-01,6.00e-02,
10,2.58e-01,5.60e-02,
11,2.58e-01,6.80e-02,
12,2.58e-01,7.60e-02,
13,2.58e-01,7.20e-02,
14,2.58e-01,8.00e-02,
15,2.58e-01,7.60e-02,
16,2.58e-01,7.60e-02,
17,2.58e-01,8.00e-02,
18,2.58e-01,8.00e-02,
19,2.58e-01,7.60e-02,
20,2.58e-01,8.00e-02,
21,2.58e-01,7.60e-02,
22,2.58e-01,8.00e-02,
23,2.58e-01,7.60e-02,
24,2.58e-01,7.20e-02,
25,2.58e-01,8.00e-02,
26,2.58e-01,7.20e-02,
27,2.58e-01,7.60e-02,
28,2.58e-01,7.20e-02,
29,2.58e-01,7.60e-02,
30,2.58e-01,7.20e-02,
31,2.58e-01,7.60e-02,
32,2.58e-01,7.20e-02,
33,2.58e-01,7.60e-02,
34,2.58e-01,7.20e-02,
35,2.58e-01,7.60e-02,
36,2.58e-01,7.20e-02,
37,2.58e-01,7.20e-02,
38,2.58e-01,7.20e-02,
39,2.58e-01,7.20e-02,
40,2.58e-01,7.20e-02,
41,2.58e-01,7.20e-02,
42,2.58e-01,7.60e-02,
43,2.58e-01,7.20e-02,
44,2.58e-01,7.20e-02,
45,2.58e-01,7.60e-02,
46,2.58e-01,7.20e-02,
47,2.58e-01,7.60e-02,
48,2.58e-01,7.20e-02,
49,2.58e-01,7.60e-02,
50,2.58e-01,7.60e-02,
51,2.58e-01,7.20e-02,
52,2.58e-01,7.20e-02,
53,2.58e-01,7.20e-02,
54,2.58e-01,7.60e-02,
55,2.58e-01,6.80e-02,
56,2.58e-01,7.20e-02,
57,2.58e-01,6.80e-02,
58,2.58e-01,6.80e-02,
59,2.58e-01,7.60e-02,
60,2.58e-01,6.80e-02,
61,2.58e-01,7.20e-02,
62,2.58e-01,6.80e-02,
63,2.58e-01,6.80e-02,
64,2.58e-01,6.80e-02,
65,2.58e-01,6.80e-02,
66,2.58e-01,6.80e-02,
67,2.58e-01,6.80e-02,
68,2.58e-01,6.80e-02,
69,2.58e-01,6.80e-02,
70,2.58e-01,6.80e-02,
71,2.58e-01,6.80e-02,
72,2.58e-01,7.20e-02,
73,2.58e-01,6.80e-02,
74,2.58e-01,6.80e-02,
75,2.58e-01,6.80e-02,
76,2.58e-01,6.80e-02,
77,2.58e-01,6.80e-02,
78,2.58e-01,6.80e-02,
79,2.58e-01,6.80e-02,
80,2.58e-01,6.80e-02,
81,2.58e-01,6.40e-02,
82,2.58e-01,7.20e-02,
83,2.58e-01,6.40e-02,
84,2.58e-01,6.40e-02,
85,2.58e-01,6.00e-02,
86,2.58e-01,6.40e-02,
87,2.58e-01,6.00e-02,
88,2.58e-01,6.00e-02,
89,2.58e-01,6.40e-02,
90,2.58e-01,6.40e-02,
91,2.58e-01,6.00e-02,
92,2.58e-01,6.40e-02,
93,2.58e-01,6.40e-02,
94,2.58e-01,6.40e-02,
95,2.58e-01,6.00e-02,
96,2.58e-01,6.40e-02,
97,2.58e-01,5.60e-02,
98,2.58e-01,6.40e-02,
99,2.58e-01,5.60e-02,
100,2.58e-01,6.40e-02,
101,2.58e-01,5.60e-02,
102,2.58e-01,5.60e-02,
103,2.60e-01,6.00e-02,
104,2.58e-01,6.00e-02,
105,2.58e-01,5.60e-02,
106,2.58e-01,5.60e-02,
107,2.59e-01,6.00e-02,
108,2.58e-01,6.00e-02,
109,2.59e-01,5.60e-02,
110,2.58e-01,6.00e-02,
111,2.60e-01,5.60e-02,
112,2.58e-01,6.00e-02,
113,2.59e-01,5.60e-02,
114,2.58e-01,6.00e-02,
115,2.63e-01,5.20e-02,
116,2.58e-01,5.20e-02,
117,2.61e-01,5.60e-02,
118,2.58e-01,5.60e-02,
119,2.63e-01,5.20e-02,
120,2.58e-01,5.20e-02,
121,2.61e-01,5.60e-02,
122,2.58e-01,5.20e-02,
123,2.62e-01,5.60e-02,
124,2.63e-01,5.60e-02,
125,2.58e-01,5.20e-02,
126,2.62e-01,5.60e-02,
127,2.58e-01,4.80e-02,
128,2.58e-01,5.20e-02,
129,2.64e-01,4.80e-02,
130,2.58e-01,5.20e-02,
131,2.65e-01,4.80e-02,
132,2.62e-01,4.80e-02,
133,2.58e-01,5.20e-02,
134,2.66e-01,4.80e-02,
135,2.59e-01,5.20e-02,
136,2.60e-01,5.20e-02,
137,2.65e-01,4.40e-02,
138,2.66e-01,4.80e-02,
139,2.59e-01,4.40e-02,
140,2.58e-01,4.40e-02,
141,2.66e-01,4.80e-02,
142,2.69e-01,4.40e-02,
143,2.58e-01,4.40e-02,
144,2.68e-01,4.40e-02,
145,2.60e-01,4.80e-02,
146,2.59e-01,4.80e-02,
147,2.65e-01,4.00e-02,
148,2.66e-01,4.00e-02,
149,2.59e-01,4.00e-02,
150,2.70e-01,4.00e-02,
151,2.58e-01,4.00e-02,
152,2.63e-01,4.00e-02,
153,2.69e-01,4.00e-02,
154,2.61e-01,3.20e-02,
155,2.66e-01,3.60e-02,
156,2.68e-01,3.60e-02,
157,2.60e-01,3.20e-02,
158,2.69e-01,3.60e-02,
159,2.62e-01,3.20e-02,
160,2.62e-01,3.60e-02,
161,2.71e-01,2.80e-02,
162,2.62e-01,3.20e-02,
163,2.70e-01,2.80e-02,
164,2.64e-01,3.20e-02,
165,2.71e-01,2.80e-02,
166,2.73e-01,2.80e-02,
167,2.66e-01,3.20e-02,
168,2.74e-01,2.80e-02,
169,2.65e-01,2.40e-02,
170,2.73e-01,2.40e-02,
171,2.66e-01,2.80e-02,
172,2.76e-01,2.80e-02,
173,2.66e-01,2.00e-02,
174,2.64e-01,2.40e-02,
175,2.73e-01,2.00e-02,
176,2.66e-01,2.40e-02,
177,2.75e-01,1.60e-02,
178,2.67e-01,1.60e-02,
179,2.78e-01,2.00e-02,
180,2.67e-01,1.60e-02,
181,2.73e-01,2.00e-02,
182,2.74e-01,2.00e-02,
183,2.67e-01,1.20e-02,
184,2.74e-01,1.20e-02,
185,2.68e-01,1.60e-02,
186,2.76e-01,1.20e-02,
187,2.68e-01,4.00e-03,
188,2.75e-01,8.00e-03,
189,2.68e-01,8.00e-03,
190,2.70e-01,8.00e-03,
191,2.75e-01,0.00e+00,
192,2.75e-01,4.00e-03,
193,2.69e-01,0.00e+00,
194,2.70e-01,4.00e-03,
195,2.78e-01,-4.00e-03,
196,2.78e-01,0.00e+00,
197,2.69e-01,-4.00e-03,
198,2.76e-01,0.00e+00,
199,2.70e-01,-8.00e-03,
200,2.72e-01,-8.00e-03,
201,2.78e-01,-4.00e-03,
202,2.69e-01,-1.20e-02,
203,2.80e-01,-1.20e-02,
204,2.73e-01,-8.00e-03,
205,2.79e-01,-1.60e-02,
206,2.73e-01,-1.60e-02,
207,2.79e-01,-2.00e-02,
208,2.73e-01,-2.00e-02,
209,2.80e-01,-2.40e-02,
210,2.72e-01,-2.00e-02,
211,2.80e-01,-2.80e-02,
212,2.72e-01,-2.40e-02,
213,2.80e-01,-3.20e-02,
214,2.81e-01,-2.80e-02,
215,2.73e-01,-3.60e-02,
216,2.83e-01,-3.20e-02,
217,2.74e-01,-3.60e-02,
218,2.82e-01,-4.00e-02,
219,2.74e-01,-3.60e-02,
220,2.74e-01,-4.00e-02,
221,2.82e-01,-4.40e-02,
222,2.74e-01,-4.40e-02,
223,2.83e-01,-4.80e-02,
224,2.83e-01,-5.60e-02,
225,2.77e-01,-5.20e-02,
226,2.76e-01,-5.20e-02,
227,2.82e-01,-6.00e-02,
228,2.77e-01,-6.00e-02,
229,2.83e-01,-6.40e-02,
230,2.77e-01,-6.00e-02,
231,2.85e-01,-6.80e-02,
232,2.82e-01,-7.20e-02,
233,2.76e-01,-7.60e-02,
234,2.78e-01,-7.60e-02,
235,2.84e-01,-8.00e-02,
236,2.84e-01,-8.00e-02,
237,2.78e-01,-8.80e-02,
238,2.79e-01,-8.40e-02,
239,2.83e-01,-9.20e-02,
240,2.78e-01,-9.20e-02,
241,2.86e-01,-1.00e-01,
242,2.80e-01,-1.00e-01,
243,2.83e-01,-1.04e-01,
244,2.86e-01,-1.04e-01,
245,2.81e-01,-1.08e-01,
246,2.80e-01,-1.08e-01,
247,2.86e-01,-1.16e-01,
248,2.84e-01,-1.16e-01,
249,2.78e-01,-1.24e-01,
250,2.89e-01,-1.20e-01,
251,2.81e-01,-1.28e-01,
252,2.88e-01,-1.32e-01,
253,2.81e-01,-1.40e-01,
254,2.87e-01,-1.36e-01,
255,2.82e-01,-1.44e-01,
256,2.81e-01,-1.44e-01,
257,2.89e-01,-1.52e-01,
258,2.82e-01,-1.48e-01,
259,2.92e-01,-1.56e-01,
260,2.82e-01,-1.60e-01,
261,2.89e-01,-1.68e-01,
262,2.90e-01,-1.64e-01,
263,2.84e-01,-1.72e-01,
264,2.81e-01,-1.72e-01,
265,2.90e-01,-1.80e-01,
266,2.91e-01,-1.80e-01,
267,2.83e-01,-1.84e-01,
268,2.84e-01,-1.84e-01,
269,2.90e-01,-1.92e-01,
270,2.92e-01,-1.92e-01,
271,2.84e-01,-2.00e-01,
272,2.86e-01,-2.00e-01,
273,2.93e-01,-2.08e-01,
274,2.83e-01,-2.08e-01,
275,2.92e-01,-2.12e-01,
276,2.86e-01,-2.12e-01,
277,2.93e-01,-2.16e-01,
278,2.84e-01,-2.16e-01,
279,2.94e-01,-2.24e-01,
280,2.86e-01,-2.20e-01,
281,2.92e-01,-2.28e-01,
282,2.86e-01,-2.24e-01,
283,2.93e-01,-2.32e-01,
284,2.94e-01,-2.28e-01,
285,2.86e-01,-2.32e-01,
286,2.87e-01,-2.36e-01,
287,2.98e-01,-2.32e-01,
288,2.85e-01,-2.32e-01,
289,2.94e-01,-2.36e-01,
290,2.87e-01,-2.40e-01,
291,2.98e-01,-2.36e-01,
292,2.86e-01,-2.40e-01,
293,2.95e-01,-2.40e-01,
294,2.91e-01,-2.40e-01,
295,2.98e-01,-2.36e-01,
296,2.90e-01,-2.40e-01,
297,2.98e-01,-2.40e-01,
298,2.90e-01,-2.40e-01,
299,2.96e-01,-2.32e-01,
300,2.98e-01,-2.36e-01,
301,2.91e-01,-2.32e-01,
302,2.97e-01,-2.32e-01,
303,2.90e-01,-2.28e-01,
304,2.93e-01,-2.32e-01,
305,2.98e-01,-2.24e-01,
306,2.98e-01,-2.28e-01,
307,2.90e-01,-2.20e-01,
308,2.91e-01,-2.24e-01,
309,2.99e-01,-2.16e-01,
310,3.00e-01,-2.16e-01,
311,2.92e-01,-2.12e-01,
312,3.00e-01,-2.12e-01,
313,2.93e-01,-2.04e-01,
314,2.91e-01,-2.04e-01,
315,3.00e-01,-1.96e-01,
316,2.92e-01,-2.00e-01,
317,3.01e-01,-1.92e-01,
318,3.00e-01,-1.92e-01,
319,2.94e-01,-1.88e-01,
320,2.95e-01,-1.84e-01,
321,3.00e-01,-1.76e-01,
322,3.02e-01,-1.80e-01,
323,2.94e-01,-1.72e-01,
324,3.01e-01,-1.76e-01,
325,2.94e-01,-1.68e-01,
326,2.95e-01,-1.64e-01,
327,3.02e-01,-1.60e-01,
328,2.95e-01,-1.56e-01,
329,3.02e-01,-1.52e-01,
330,3.05e-01,-1.52e-01,
331,2.96e-01,-1.44e-01,
332,3.03e-01,-1.44e-01,
333,2.95e-01,-1.36e-01,
334,2.97e-01,-1.40e-01,
335,3.07e-01,-1.32e-01,
336,3.03e-01,-1.28e-01,
337,2.97e-01,-1.20e-01,
338,3.05e-01,-1.20e-01,
339,2.99e-01,-1.16e-01,
340,3.06e-01,-1.16e-01,
341,2.99e-01,-1.12e-01,
342,3.08e-01,-1.08e-01,
343,2.97e-01,-1.12e-01,
344,2.98e-01,-1.08e-01,
345,3.05e-01,-1.00e-01,
346,3.07e-01,-1.00e-01,
347,3.00e-01,-8.80e-02,
348,2.98e-01,-9.20e-02,
349,3.06e-01,-8.40e-02,
350,3.07e-01,-8.40e-02,
351,3.00e-01,-8.00e-02,
352,2.99e-01,-8.00e-02,
353,3.10e-01,-7.60e-02,
354,3.00e-01,-7.60e-02,
355,3.06e-01,-6.80e-02,
356,3.01e-01,-7.20e-02,
357,3.09e-01,-6.00e-02,
358,3.01e-01,-6.00e-02,
359,3.07e-01,-6.40e-02,
360,3.01e-01,-6.00e-02,
361,3.07e-01,-5.20e-02,
362,3.08e-01,-5.20e-02,
363,3.03e-01,-5.60e-02,
364,3.09e-01,-5.20e-02,
365,3.02e-01,-4.40e-02,
366,3.10e-01,-4.40e-02,
367,3.03e-01,-4.40e-02,
368,3.10e-01,-3.60e-02,
369,3.02e-01,-4.00e-02,
370,3.04e-01,-3.20e-02,
371,3.11e-01,-3.60e-02,
372,3.11e-01,-3.60e-02,
373,3.03e-01,-2.80e-02,
374,3.11e-01,-2.80e-02,
375,3.03e-01,-3.20e-02,
376,3.13e-01,-2.80e-02,
377,3.05e-01,-2.00e-02,
378,3.11e-01,-2.00e-02,
379,3.07e-01,-2.00e-02,
380,3.15e-01,-2.00e-02,
381,3.07e-01,-1.60e-02,
382,3.08e-01,-1.60e-02,
383,3.14e-01,-1.20e-02,
384,3.07e-01,-1.20e-02,
385,3.15e-01,-1.20e-02,
386,3.14e-01,-8.00e-03,
387,3.08e-01,-4.00e-03,
388,3.08e-01,-8.00e-03,
389,3.14e-01,0.00e+00,
390,3.10e-01,0.00e+00,
391,3.18e-01,-4.00e-03,
392,3.08e-01,4.00e-03,
393,3.15e-01,-4.00e-03,
394,3.16e-01,4.00e-03,
395,3.07e-01,0.00e+00,
396,3.14e-01,8.00e-03,
397,3.10e-01,8.00e-03,
398,3.14e-01,4.00e-03,
399,3.10e-01,8.00e-03,
400,3.20e-01,1.20e-02,
401,3.10e-01,1.20e-02,
402,3.18e-01,1.20e-02,
403,3.10e-01,1.60e-02,
404,3.11e-01,1.20e-02,
405,3.17e-01,1.60e-02,
406,3.12e-01,1.60e-02,
407,3.18e-01,2.00e-02,
408,3.11e-01,1.60e-02,
409,3.19e-01,2.40e-02,
410,3.14e-01,2.00e-02,
411,3.18e-01,2.40e-02,
412,3.11e-01,2.00e-02,
413,3.19e-01,2.80e-02,
414,3.14e-01,2.00e-02,
415,3.19e-01,2.80e-02,
416,3.14e-01,2.40e-02,
417,3.22e-01,2.80e-02,
418,3.13e-01,2.40e-02,
419,3.22e-01,3.20e-02,
420,3.14e-01,2.80e-02,
421,3.20e-01,3.20e-02,
422,3.15e-01,2.80e-02,
423,3.21e-01,3.20e-02,
424,3.22e-01,2.80e-02,
425,3.15e-01,3.60e-02,
426,3.14e-01,3.60e-02,
427,3.22e-01,3.60e-02,
428,3.22e-01,3.20e-02,
429,3.14e-01,3.60e-02,
430,3.16e-01,3.60e-02,
431,3.22e-01,3.60e-02,
432,3.16e-01,3.60e-02,
433,3.22e-01,4.40e-02,
434,3.17e-01,4.00e-02,
435,3.27e-01,4.40e-02,
436,3.16e-01,4.00e-02,
437,3.23e-01,4.40e-02,
438,3.18e-01,4.40e-02,
439,3.23e-01,4.00e-02,
440,3.18e-01,4.00e-02,
441,3.25e-01,4.80e-02,
442,3.18e-01,4.40e-02,
443,3.26e-01,4.80e-02,
444,3.18e-01,4.40e-02,
445,3.28e-01,4.40e-02,
446,3.18e-01,4.40e-02,
447,3.24e-01,4.40e-02,
448,3.26e-01,4.40e-02,
449,3.18e-01,5.20e-02,
450,3.20e-01,4.80e-02,
451,3.27e-01,5.20e-02,
452,3.27e-01,5.20e-02,
453,3.18e-01,4.80e-02,
454,3.26e-01,4.80e-02,
455,3.21e-01,5.20e-02,
456,3.20e-01,4.80e-02,
457,3.29e-01,5.20e-02,
458,3.21e-01,5.20e-02,
459,3.30e-01,5.60e-02,
460,3.22e-01,5.60e-02,
461,3.28e-01,5.20e-02,
462,3.23e-01,5.20e-02,
463,3.31e-01,5.60e-02,
464,3.30e-01,5.20e-02,
465,3.22e-01,5.60e-02,
466,3.28e-01,5.20e-02,
467,3.23e-01,5.60e-02,
468,3.31e-01,5.60e-02,
469,3.25e-01,5.20e-02,
470,3.23e-01,5.20e-02,
471,3.30e-01,6.00e-02,
472,3.31e-01,5.60e-02,
473,3.25e-01,6.00e-02,
474,3.24e-01,6.00e-02,
475,3.34e-01,5.60e-02,
476,3.23e-01,5.60e-02,
477,3.31e-01,6.00e-02,
478,3.24e-01,5.60e-02,
479,3.33e-01,6.00e-02,
480,3.33e-01,6.00e-02,
481,3.26e-01,5.60e-02,
482,3.34e-01,5.60e-02,
483,3.26e-01,6.00e-02,
484,3.25e-01,5.60e-02,
485,3.34e-01,6.00e-02,
486,3.34e-01,6.00e-02,
487,3.26e-01,6.40e-02,
488,3.27e-01,6.40e-02,
489,3.35e-01,6.00e-02,
490,3.28e-01,6.40e-02,
491,3.35e-01,6.40e-02,
492,3.28e-01,6.00e-02,
493,3.35e-01,6.40e-02,
494,3.36e-01,6.40e-02,
495,3.28e-01,6.00e-02,
496,3.37e-01,6.40e-02,
497,3.29e-01,6.00e-02,
498,3.29e-01,6.40e-02,
499,3.37e-01,6.40e-02,
500,3.30e-01,6.40e-02,
501,3.35e-01,6.00e-02,
502,3.30e-01,6.40e-02,
503,3.38e-01,6.80e-02,
504,3.31e-01,6.80e-02,
505,3.38e-01,6.80e-02,
506,3.30e-01,7.20e-02,
507,3.38e-01,6.80e-02,
508,3.38e-01,6.80e-02,
509,3.29e-01,6.80e-02,
510,3.38e-01,6.80e-02,
511,3.33e-01,6.80e-02,
512,3.32e-01,6.80e-02,
513,3.40e-01,6.80e-02,
514,3.32e-01,6.80e-02,
515,3.38e-01,6.80e-02,
516,3.34e-01,6.80e-02,
517,3.41e-01,6.80e-02,
518,3.33e-01,6.80e-02,
519,3.39e-01,6.80e-02,
520,3.41e-01,6.80e-02,
521,3.34e-01,6.80e-02,
522,3.42e-01,6.80e-02,
523,3.34e-01,6.80e-02,
524,3.34e-01,6.80e-02,
525,3.42e-01,7.60e-02,
526,3.34e-01,6.80e-02,
527,3.42e-01,7.60e-02,
528,3.42e-01,6.80e-02,
529,3.34e-01,7.60e-02,
530,3.43e-01,7.20e-02,
531,3.35e-01,7.60e-02,
532,3.44e-01,7.20e-02,
533,3.37e-01,7.60e-02,
534,3.36e-01,7.60e-02,
535,3.46e-01,7.20e-02,
536,3.39e-01,7.20e-02,
537,3.44e-01,7.60e-02,
538,3.46e-01,7.20e-02,
539,3.38e-01,7.60e-02,
540,3.45e-01,7.60e-02,
541,3.38e-01,7.20e-02,
542,3.46e-01,7.20e-02,
543,3.35e-01,7.60e-02,
544,3.47e-01,7.20e-02,
545,3.37e-01,7.60e-02,
546,3.47e-01,7.20e-02,
547,3.36e-01,7.60e-02,
548,3.49e-01,7.20e-02,
549,3.38e-01,7.20e-02,
550,3.46e-01,7.20e-02,
551,3.38e-01,7.20e-02,
552,3.41e-01,7.20e-02,
553,3.47e-01,7.60e-02,
554,3.42e-01,7.20e-02,
555,3.46e-01,7.60e-02,
556,3.40e-01,7.20e-02,
557,3.46e-01,7.60e-02,
558,3.42e-01,7.20e-02,
559,3.48e-01,8.00e-02,
560,3.51e-01,7.20e-02,
561,3.40e-01,8.00e-02,
562,3.42e-01,7.20e-02,
563,3.49e-01,8.00e-02,
564,3.42e-01,7.20e-02,
565,3.50e-01,8.00e-02,
566,3.50e-01,7.20e-02,
567,3.42e-01,7.60e-02,
568,3.51e-01,7.60e-02,
569,3.43e-01,7.60e-02,
570,3.41e-01,8.00e-02,
571,3.49e-01,7.60e-02,
572,3.44e-01,8.00e-02,
573,3.51e-01,7.60e-02,
574,3.43e-01,8.00e-02,
575,3.50e-01,7.60e-02,
576,3.42e-01,8.00e-02,
577,3.53e-01,7.60e-02,
578,3.54e-01,8.00e-02,
579,3.46e-01,7.60e-02,
580,3.44e-01,7.60e-02,
581,3.52e-01,8.00e-02,
582,3.43e-01,7.60e-02,
583,3.54e-01,8.00e-02,
584,3.46e-01,7.60e-02,
585,3.54e-01,8.00e-02,
586,3.54e-01,8.00e-02,
587,3.46e-01,7.60e-02,
588,3.46e-01,8.00e-02,
589,3.54e-01,7.60e-02,
590,3.46e-01,8.00e-02,
591,3.54e-01,7.60e-02,
592,3.54e-01,8.00e-02,
593,3.46e-01,7.60e-02,
594,3.56e-01,8.00e-02,
595,3.46e-01,7.60e-02,
596,3.58e-01,7.60e-02,
597,3.49e-01,8.00e-02,
598,3.48e-01,8.00e-02,
599,3.58e-01,7.60e-02,
600,3.49e-01,8.00e-02,
601,3.55e-01,7.60e-02,
602,3.55e-01,8.00e-02,
603,3.48e-01,7.60e-02,
604,3.56e-01,7.60e-02,
605,3.51e-01,8.00e-02,
606,3.49e-01,7.60e-02,
607,3.59e-01,8.00e-02,
608,3.58e-01,8.00e-02,
609,3.50e-01,7.60e-02,
610,3.57e-01,8.00e-02,
611,3.50e-01,7.60e-02,
612,3.50e-01,8.00e-02,
613,3.60e-01,7.60e-02,
614,3.50e-01,7.60e-02,
615,3.61e-01,8.00e-02,
616,3.59e-01,8.00e-02,
617,3.52e-01,7.60e-02,
618,3.61e-01,8.00e-02,
619,3.52e-01,7.60e-02,
620,3.52e-01,8.00e-02,
621,3.62e-01,7.60e-02,
622,3.50e-01,8.00e-02,
623,3.62e-01,7.60e-02,
624,3.60e-01,7.60e-02,
625,3.52e-01,8.00e-02,
626,3.63e-01,8.40e-02,
627,3.51e-01,7.60e-02,
628,3.55e-01,8.00e-02,
629,3.62e-01,8.40e-02,
630,3.54e-01,7.60e-02,
631,3.63e-01,8.40e-02,
632,3.62e-01,7.60e-02,
633,3.53e-01,8.40e-02,
634,3.56e-01,8.40e-02,
635,3.62e-01,8.00e-02,
636,3.56e-01,8.40e-02,
637,3.64e-01,7.60e-02,
638,3.56e-01,8.00e-02,
639,3.62e-01,8.40e-02,
640,3.57e-01,8.40e-02,
641,3.64e-01,8.00e-02,
642,3.62e-01,8.00e-02,
643,3.58e-01,8.40e-02,
644,3.58e-01,8.00e-02,
645,3.66e-01,8.40e-02,
646,3.58e-01,8.40e-02,
647,3.63e-01,8.00e-02,
648,3.58e-01,8.00e-02,
649,3.64e-01,8.40e-02,
650,3.66e-01,8.00e-02,
651,3.59e-01,8.40e-02,
652,3.59e-01,8.00e-02,
653,3.66e-01,8.40e-02,
654,3.67e-01,8.00e-02,
655,3.58e-01,8.40e-02,
656,3.66e-01,8.40e-02,
657,3.60e-01,8.00e-02,
658,3.60e-01,8.00e-02,
659,3.70e-01,8.40e-02,
660,3.68e-01,8.00e-02,
661,3.60e-01,8.40e-02,
662,3.66e-01,8.40e-02,
663,3.61e-01,8.00e-02,
664,3.62e-01,8.40e-02,
665,3.68e-01,8.00e-02,
666,3.67e-01,8.00e-02,
667,3.60e-01,8.40e-02,
668,3.71e-01,8.40e-02,
669,3.62e-01,8.00e-02,
670,3.70e-01,8.00e-02,
671,3.62e-01,8.40e-02,
672,3.63e-01,8.40e-02,
673,3.70e-01,8.00e-02,
674,3.62e-01,8.40e-02,
675,3.71e-01,8.00e-02,
676,3.62e-01,8.40e-02,
677,3.71e-01,8.00e-02,
678,3.63e-01,8.40e-02,
679,3.72e-01,8.00e-02,
680,3.65e-01,8.00e-02,
681,3.70e-01,8.40e-02,
682,3.71e-01,8.40e-02,
683,3.64e-01,8.00e-02,
684,3.75e-01,8.00e-02,
685,3.65e-01,8.40e-02,
686,3.66e-01,8.40e-02,
687,3.73e-01,8.00e-02,
688,3.74e-01,8.00e-02,
689,3.68e-01,8.40e-02,
690,3.74e-01,7.60e-02,
691,3.65e-01,8.40e-02,
692,3.77e-01,7.60e-02,
693,3.65e-01,8.40e-02,
694,3.66e-01,7.60e-02,
695,3.73e-01,8.40e-02,
696,3.76e-01,7.60e-02,
697,3.68e-01,8.40e-02,
698,3.74e-01,8.40e-02,
699,3.69e-01,7.60e-02,
700,3.69e-01,8.00e-02,
701,3.75e-01,7.60e-02,
702,3.74e-01,8.00e-02,
703,3.66e-01,7.60e-02,
704,3.67e-01,8.00e-02,
705,3.75e-01,7.60e-02,
706,3.69e-01,7.60e-02,
707,3.74e-01,8.00e-02,
708,3.77e-01,8.00e-02,
709,3.70e-01,7.60e-02,
710,3.71e-01,8.00e-02,
711,3.78e-01,7.60e-02,
712,3.70e-01,7.60e-02,
713,3.78e-01,8.00e-02,
714,3.69e-01,7.60e-02,
715,3.80e-01,8.00e-02,
716,3.77e-01,7.60e-02,
717,3.70e-01,8.00e-02,
718,3.70e-01,7.60e-02,
719,3.78e-01,8.00e-02,
720,3.71e-01,8.00e-02,
721,3.80e-01,7.20e-02,
722,3.80e-01,7.20e-02,
723,3.73e-01,8.00e-02,
724,3.80e-01,7.60e-02,
725,3.74e-01,7.20e-02,
726,3.74e-01,7.20e-02,
727,3.82e-01,7.60e-02,
728,3.74e-01,7.60e-02,
729,3.80e-01,7.20e-02,
730,3.80e-01,7.60e-02,
731,3.75e-01,6.80e-02,
732,3.76e-01,6.80e-02,
733,3.84e-01,6.80e-02,
734,3.73e-01,6.80e-02,
735,3.81e-01,6.80e-02,
736,3.83e-01,6.00e-02,
737,3.76e-01,6.40e-02,
738,3.76e-01,6.40e-02,
739,3.83e-01,5.60e-02,
740,3.76e-01,6.00e-02,
741,3.82e-01,5.60e-02,
742,3.77e-01,5.60e-02,
743,3.84e-01,5.20e-02,
744,3.75e-01,5.20e-02,
745,3.86e-01,4.40e-02,
746,3.83e-01,4.80e-02,
747,3.78e-01,4.00e-02,
748,3.83e-01,4.00e-02,
749,3.78e-01,3.60e-02,
750,3.78e-01,3.20e-02,
751,3.87e-01,2.40e-02,
752,3.89e-01,2.80e-02,
753,3.78e-01,1.60e-02,
754,3.85e-01,1.60e-02,
755,3.78e-01,8.00e-03,
756,3.78e-01,4.00e-03,
757,3.87e-01,-8.00e-03,
758,3.86e-01,-4.00e-03,
759,3.81e-01,-1.20e-02,
760,3.79e-01,-1.60e-02,
761,3.86e-01,-2.00e-02,
762,3.79e-01,-2.00e-02,
763,3.87e-01,-2.40e-02,
764,3.80e-01,-2.80e-02,
765,3.89e-01,-2.00e-02,
766,3.88e-01,-2.00e-02,
767,3.80e-01,-2.40e-02,
768,3.83e-01,-1.60e-02,
769,3.88e-01,-1.20e-02,
770,3.90e-01,-1.20e-02,
771,3.81e-01,0.00e+00,
772,3.80e-01,-4.00e-03,
773,3.91e-01,8.00e-03,
774,3.89e-01,4.00e-03,
775,3.82e-01,1.60e-02,
776,3.90e-01,2.00e-02,
777,3.83e-01,2.80e-02,
778,3.83e-01,2.40e-02,
779,3.92e-01,3.60e-02,
780,3.81e-01,3.60e-02,
781,3.92e-01,4.00e-02,
782,3.82e-01,4.00e-02,
783,3.91e-01,4.80e-02,
784,3.90e-01,4.80e-02,
785,3.85e-01,5.20e-02,
786,3.86e-01,5.20e-02,
787,3.93e-01,6.00e-02,
788,3.86e-01,6.00e-02,
789,3.91e-01,5.60e-02,
790,3.96e-01,6.00e-02,
791,3.85e-01,6.40e-02,
792,3.85e-01,6.40e-02,
793,3.94e-01,6.40e-02,
794,3.92e-01,6.80e-02,
795,3.85e-01,6.40e-02,
796,3.87e-01,6.80e-02,
797,3.94e-01,7.20e-02,
798,3.86e-01,6.80e-02,
799,3.94e-01,7.60e-02,
800,3.96e-01,7.20e-02,
801,3.88e-01,7.20e-02,
802,3.89e-01,7.60e-02,
803,3.95e-01,7.20e-02,
804,3.94e-01,7.20e-02,
805,3.89e-01,7.60e-02,
806,3.95e-01,7.20e-02,
807,3.88e-01,7.60e-02,
808,3.97e-01,7.60e-02,
809,3.90e-01,8.00e-02,
810,3.90e-01,7.60e-02,
811,3.95e-01,8.00e-02,
812,3.90e-01,8.00e-02,
813,3.98e-01,7.60e-02,
814,3.90e-01,7.60e-02,
815,3.98e-01,8.00e-02,
816,3.96e-01,8.00e-02,
817,3.91e-01,7.60e-02,
818,3.98e-01,7.60e-02,
819,3.90e-01,8.00e-02,
820,4.00e-01,8.00e-02,
821,3.90e-01,7.60e-02,
822,3.91e-01,7.60e-02,
823,4.01e-01,8.40e-02,
824,3.98e-01,7.60e-02,
825,3.90e-01,8.40e-02,
826,3.94e-01,7.60e-02,
827,4.00e-01,8.40e-02,
828,3.92e-01,8.00e-02,
829,4.00e-01,8.40e-02,
830,3.94e-01,8.40e-02,
831,4.02e-01,8.00e-02,
832,3.94e-01,8.40e-02,
833,4.02e-01,8.00e-02,
834,3.95e-01,8.40e-02,
835,4.05e-01,8.00e-02,
836,4.02e-01,8.40e-02,
837,3.94e-01,8.00e-02,
838,4.03e-01,8.40e-02,
839,3.94e-01,8.00e-02,
840,4.04e-01,8.40e-02,
841,3.95e-01,8.00e-02,
842,4.02e-01,8.00e-02,
843,3.96e-01,8.40e-02,
844,3.97e-01,8.40e-02,
845,4.04e-01,8.00e-02,
846,4.04e-01,8.40e-02,
847,3.97e-01,8.00e-02,
848,4.04e-01,8.00e-02,
849,3.98e-01,8.40e-02,
850,3.98e-01,8.40e-02,
851,4.06e-01,8.00e-02,
852,3.98e-01,8.40e-02,
853,4.06e-01,8.00e-02,
854,3.99e-01,8.00e-02,
855,4.07e-01,8.00e-02,
856,3.99e-01,8.00e-02,
857,4.10e-01,8.40e-02,
858,3.98e-01,8.00e-02,
859,4.07e-01,8.40e-02,
860,3.99e-01,8.40e-02,
